0.8,80.33595335991052
0.8250000000000001,69.45848102602193
0.8500000000000001,58.786212295090934
0.875,48.696024372106045
0.9,39.09987826730631
0.925,29.927845313446376
0.9500000000000001,18.647650495924267
0.9750000000000001,8.02255268473734
1.0,1.1830536550405668e-12
1.0250000000000001,1.4653493336421395
1.05,3.2926118498923516
1.0750000000000002,12.35935698396127
1.1,16.250073436275617
1.125,22.56398704542444
1.15,32.19042098137708
1.175,47.57670150130572
1.2000000000000002,79.48226489510347
1.225,139.86636134736736
1.25,218.01945775652598
1.275,344.9192721160864
