0.9,39.09987826730631
0.905,37.24274790820783
0.91,35.40972276405192
0.915,33.603478231244225
0.92,31.82750070932814
0.925,29.927845313446376
0.93,27.649048123616303
0.935,25.379477153968537
0.9400000000000001,23.120843496287016
0.9450000000000001,20.87569074174168
0.9500000000000001,18.647650495924267
0.9550000000000001,16.441788074869045
0.96,14.265069991274824
0.9650000000000001,12.126991492698677
0.97,10.040402763314015
0.975,8.022552684734812
0.98,6.096299743468992
0.985,4.291268575029492
0.99,2.6443972717176827
0.995,1.1988494814955555
1.0,1.1830536550405668e-12
1.005,0.9120193605057771
1.01,1.511288724155353
1.015,1.7920702962710058
1.02,1.7680121292911126
1.025,1.465349333642263
1.03,0.9144595509868978
1.035,0.1435203945938106
1.04,0.8246933545725033
1.045,1.9736434690119962
1.05,3.2926118498923516
1.055,4.7758234584403745
1.06,6.421512673637917
1.065,8.231089536805424
1.07,10.208441134880367
1.075,12.359356983961822
1.08,12.999176843651709
1.085,13.67892902471623
1.09,14.444936475296348
1.095,15.300708213643004
1.1,16.250073436275617
