deltaB,deltaAB,C
-11.9,-11.9,1.0024542171618933
-11.9,-11.4,1.0000000000012956
-11.9,-10.9,1.0000000000012026
-11.9,-10.4,1.0000000000011782
-11.9,-9.9,1.000000000001171
-11.9,-9.4,1.0000000000011682
-11.9,-8.9,1.0000000000011704
-11.9,-8.4,1.0000000000011762
-11.9,-7.9,1.0000000000011797
-11.9,-7.4,1.0000000000011853
-11.9,-6.9,1.0000000000011973
-11.9,-6.4,1.000000000001203
-11.9,-5.9,1.0000000000012128
-11.9,-5.4,1.0000000000012206
-11.9,-4.9,1.0000000000012248
-11.9,-4.4,1.0000000000012352
-11.9,-3.9,1.0000000000012397
-11.9,-3.4,1.000000000001249
-11.9,-2.9,1.0000000000012572
-11.9,-2.4,1.000000000001262
-11.9,-1.9,1.0000000000012692
-11.9,-1.4,1.0000000000012708
-11.9,-0.9,1.0000000000012736
-11.9,-0.4,1.2739181684155206e-12
-11.9,0.1,1.2713737246703497e-12
-11.9,0.6,1.2691119968968646e-12
-11.9,1.1,1.259216937887867e-12
-11.9,1.6,1.000000000001248
-11.9,2.1,1.000000000001233
-11.9,2.6,1.000000000001214
-11.9,3.1,1.0000000000011857
-11.9,3.6,1.0000000000011497
-11.9,4.1,1.0000000000011102
-11.9,4.6,1.0000000000010567
-11.9,5.1,1.0000000000009945
-11.9,5.6,1.0000000000009228
-11.9,6.1,1.0000000000008327
-11.9,6.6,1.0000000000007327
-11.9,7.1,1.0000000000006184
-11.9,7.6,1.000000000000484
-11.9,8.1,1.0000000000003382
-11.9,8.6,1.0000000000001725
-11.9,9.1,0.9999999999999916
-11.9,9.6,0.9999999999998018
-11.9,10.1,0.9999999999995989
-11.9,10.6,0.9999999999994007
-11.9,11.1,0.9999999999992106
-11.9,11.6,0.9999999999991561
-11.4,-11.9,-1.0898700708481652e-12
-11.4,-11.4,0.8239775291827133
-11.4,-10.9,1.0000000000013571
-11.4,-10.4,1.0000000000012683
-11.4,-9.9,1.0000000000012446
-11.4,-9.4,1.0000000000012392
-11.4,-8.9,1.0000000000012375
-11.4,-8.4,1.0000000000012423
-11.4,-7.9,1.0000000000012454
-11.4,-7.4,1.0000000000012501
-11.4,-6.9,1.0000000000012563
-11.4,-6.4,1.0000000000012685
-11.4,-5.9,1.000000000001277
-11.4,-5.4,1.000000000001284
-11.4,-4.9,1.000000000001293
-11.4,-4.4,1.0000000000013047
-11.4,-3.9,1.0000000000013092
-11.4,-3.4,1.000000000001316
-11.4,-2.9,1.0000000000013245
-11.4,-2.4,1.0000000000013285
-11.4,-1.9,1.0000000000013327
-11.4,-1.4,1.000000000001335
-11.4,-0.9,1.0000000000013378
-11.4,-0.4,1.3355502502429914e-12
-11.4,0.1,1.3324403745544493e-12
-11.4,0.6,1.3233934634605086e-12
-11.4,1.1,1.314346552366568e-12
-11.4,1.6,1.0000000000012998
-11.4,2.1,1.000000000001278
-11.4,2.6,1.00000000000125
-11.4,3.1,1.0000000000012157
-11.4,3.6,1.0000000000011742
-11.4,4.1,1.0000000000011249
-11.4,4.6,1.0000000000010585
-11.4,5.1,1.0000000000009894
-11.4,5.6,1.0000000000008997
-11.4,6.1,1.0000000000007978
-11.4,6.6,1.0000000000006837
-11.4,7.1,1.0000000000005513
-11.4,7.6,1.0000000000004012
-11.4,8.1,1.0000000000002376
-11.4,8.6,1.00000000000006
-11.4,9.1,0.9999999999998669
-11.4,9.6,0.9999999999996645
-11.4,10.1,0.9999999999994614
-11.4,10.6,0.9999999999992715
-11.4,11.1,0.9999999999992161
-11.4,11.6,-4.523455546970335e-13
-10.9,-11.9,-9.372034461379164e-13
-10.9,-11.4,-1.0313478647092365e-12
-10.9,-10.9,1.004690251010171
-10.9,-10.4,1.0000000000014249
-10.9,-9.9,1.0000000000013407
-10.9,-9.4,1.0000000000013154
-10.9,-8.9,1.000000000001306
-10.9,-8.4,1.0000000000013078
-10.9,-7.9,1.0000000000013143
-10.9,-7.4,1.0000000000013205
-10.9,-6.9,1.000000000001326
-10.9,-6.4,1.0000000000013358
-10.9,-5.9,1.000000000001342
-10.9,-5.4,1.0000000000013494
-10.9,-4.9,1.0000000000013616
-10.9,-4.4,1.0000000000013691
-10.9,-3.9,1.0000000000013751
-10.9,-3.4,1.000000000001383
-10.9,-2.9,1.0000000000013876
-10.9,-2.4,1.0000000000013913
-10.9,-1.9,1.0000000000013987
-10.9,-1.4,1.0000000000014
-10.9,-0.9,1.0000000000014007
-10.9,-0.4,1.3960514681837197e-12
-10.9,0.1,1.3898317168066354e-12
-10.9,0.6,1.379088509882581e-12
-10.9,1.1,1.3618428356097566e-12
-10.9,1.6,1.0000000000013418
-10.9,2.1,1.0000000000013167
-10.9,2.6,1.0000000000012828
-10.9,3.1,1.0000000000012401
-10.9,3.6,1.0000000000011886
-10.9,4.1,1.0000000000011287
-10.9,4.6,1.0000000000010536
-10.9,5.1,1.000000000000967
-10.9,5.6,1.000000000000865
-10.9,6.1,1.000000000000751
-10.9,6.6,1.000000000000619
-10.9,7.1,1.0000000000004698
-10.9,7.6,1.0000000000003029
-10.9,8.1,1.0000000000001232
-10.9,8.6,0.9999999999999319
-10.9,9.1,0.9999999999997305
-10.9,9.6,0.9999999999995219
-10.9,10.1,0.9999999999993365
-10.9,10.6,0.9999999999992774
-10.9,11.1,-3.881690291243919e-13
-10.9,11.6,-3.104221369108392e-13
-10.4,-11.9,-8.5125779074548e-13
-10.4,-11.4,-8.769849441688737e-13
-10.4,-10.9,-9.705639307968225e-13
-10.4,-10.4,0.24414962855191022
-10.4,-9.9,1.0000000000014964
-10.4,-9.4,1.000000000001408
-10.4,-8.9,1.0000000000013891
-10.4,-8.4,1.0000000000013813
-10.4,-7.9,1.0000000000013824
-10.4,-7.4,1.0000000000013862
-10.4,-6.9,1.0000000000013924
-10.4,-6.4,1.0000000000014038
-10.4,-5.9,1.0000000000014104
-10.4,-5.4,1.0000000000014182
-10.4,-4.9,1.0000000000014277
-10.4,-4.4,1.0000000000014369
-10.4,-3.9,1.0000000000014446
-10.4,-3.4,1.0000000000014495
-10.4,-2.9,1.0000000000014597
-10.4,-2.4,1.000000000001458
-10.4,-1.9,1.0000000000014657
-10.4,-1.4,1.0000000000014628
-10.4,-0.9,1.0000000000014588
-10.4,-0.4,1.4551391062660196e-12
-10.4,0.1,1.4426996035118513e-12
-10.4,0.6,1.4296946688143115e-12
-10.4,1.1,1.4073601070511455e-12
-10.4,1.6,1.0000000000013847
-10.4,2.1,1.0000000000013483
-10.4,2.6,1.0000000000013076
-10.4,3.1,1.000000000001257
-10.4,3.6,1.0000000000011946
-10.4,4.1,1.0000000000011224
-10.4,4.6,1.000000000001037
-10.4,5.1,1.0000000000009373
-10.4,5.6,1.0000000000008211
-10.4,6.1,1.000000000000689
-10.4,6.6,1.000000000000538
-10.4,7.1,1.0000000000003737
-10.4,7.6,1.0000000000001943
-10.4,8.1,1.0000000000000002
-10.4,8.6,0.9999999999997936
-10.4,9.1,0.999999999999589
-10.4,9.6,0.9999999999993973
-10.4,10.1,0.9999999999993404
-10.4,10.6,-3.2201349174995074e-13
-10.4,11.1,-2.437011675930268e-13
-10.4,11.6,-4.1644062629295645e-13
-9.9,-11.9,-7.780343540788976e-13
-9.9,-11.4,-7.896257089180092e-13
-9.9,-10.9,-8.125257026245465e-13
-9.9,-10.4,-9.044083934223814e-13
-9.9,-9.9,0.5036847427423334
-9.9,-9.4,1.0000000000015692
-9.9,-8.9,1.0000000000014826
-9.9,-8.4,1.000000000001462
-9.9,-7.9,1.0000000000014566
-9.9,-7.4,1.0000000000014617
-9.9,-6.9,1.0000000000014626
-9.9,-6.4,1.0000000000014715
-9.9,-5.9,1.0000000000014808
-9.9,-5.4,1.000000000001488
-9.9,-4.9,1.000000000001495
-9.9,-4.4,1.0000000000015026
-9.9,-3.9,1.0000000000015115
-9.9,-3.4,1.0000000000015157
-9.9,-2.9,1.000000000001522
-9.9,-2.4,1.0000000000015252
-9.9,-1.9,1.0000000000015232
-9.9,-1.4,1.0000000000015237
-9.9,-0.9,1.0000000000015197
-9.9,-0.4,1.5088551408862924e-12
-9.9,0.1,1.4947193423020102e-12
-9.9,0.6,1.4771909520575001e-12
-9.9,1.1,1.4511810826624207e-12
-9.9,1.6,1.0000000000014166
-9.9,2.1,1.0000000000013778
-9.9,2.6,1.0000000000013272
-9.9,3.1,1.0000000000012657
-9.9,3.6,1.0000000000011922
-9.9,4.1,1.0000000000011071
-9.9,4.6,1.0000000000010054
-9.9,5.1,1.0000000000008915
-9.9,5.6,1.00000000000076
-9.9,6.1,1.0000000000006093
-9.9,6.6,1.0000000000004459
-9.9,7.1,1.0000000000002638
-9.9,7.6,1.0000000000000668
-9.9,8.1,0.9999999999998658
-9.9,8.6,0.9999999999996594
-9.9,9.1,0.9999999999994649
-9.9,9.6,0.9999999999994066
-9.9,10.1,-2.550098064604526e-13
-9.9,10.6,-1.7952464202038516e-13
-9.9,11.1,-3.519813847486292e-13
-9.9,11.6,-5.402702218912694e-13
-9.4,-11.9,-7.090516569876e-13
-9.4,-11.4,-7.144232604496273e-13
-9.4,-10.9,-7.229047396001967e-13
-9.4,-10.4,-7.45804733306734e-13
-9.4,-9.9,-8.354256963310838e-13
-9.4,-9.4,1.003204494408198
-9.4,-8.9,1.0000000000016434
-9.4,-8.4,1.000000000001561
-9.4,-7.9,1.0000000000015365
-9.4,-7.4,1.0000000000015357
-9.4,-6.9,1.0000000000015368
-9.4,-6.4,1.0000000000015394
-9.4,-5.9,1.0000000000015477
-9.4,-5.4,1.000000000001559
-9.4,-4.9,1.000000000001564
-9.4,-4.4,1.0000000000015703
-9.4,-3.9,1.00000000000158
-9.4,-3.4,1.0000000000015854
-9.4,-2.9,1.0000000000015863
-9.4,-2.4,1.0000000000015885
-9.4,-1.9,1.0000000000015883
-9.4,-1.4,1.0000000000015798
-9.4,-0.9,1.0000000000015727
-9.4,-0.4,1.56030944773308e-12
-9.4,0.1,1.541084761658456e-12
-9.4,0.6,1.516488472121805e-12
-9.4,1.1,1.4862378631514408e-12
-9.4,1.6,1.0000000000014462
-9.4,2.1,1.0000000000013969
-9.4,2.6,1.0000000000013367
-9.4,3.1,1.0000000000012605
-9.4,3.6,1.000000000001177
-9.4,4.1,1.0000000000010798
-9.4,4.6,1.0000000000009615
-9.4,5.1,1.000000000000829
-9.4,5.6,1.0000000000006817
-9.4,6.1,1.0000000000005134
-9.4,6.6,1.0000000000003344
-9.4,7.1,1.0000000000001394
-9.4,7.6,0.9999999999999325
-9.4,8.1,0.9999999999997267
-9.4,8.6,0.9999999999995322
-9.4,9.1,0.999999999999477
-9.4,9.6,-1.8546167742578374e-13
-9.4,10.1,-1.1534811644774353e-13
-9.4,10.6,-2.855431314025024e-13
-9.4,11.1,-4.766591282619991e-13
-9.4,11.6,-6.621208056877828e-13
-8.9,-11.9,-6.46005995301701e-13
-8.9,-11.4,-6.443096994715871e-13
-8.9,-10.9,-6.465714272450722e-13
-8.9,-10.4,-6.536393265372134e-13
-8.9,-9.9,-6.756911723286938e-13
-8.9,-9.4,-7.658775672964148e-13
-8.9,-8.9,0.05976177761421163
-8.9,-8.4,1.0000000000017168
-8.9,-7.9,1.000000000001635
-8.9,-7.4,1.0000000000016154
-8.9,-6.9,1.0000000000016116
-8.9,-6.4,1.000000000001614
-8.9,-5.9,1.0000000000016185
-8.9,-5.4,1.0000000000016265
-8.9,-4.9,1.0000000000016345
-8.9,-4.4,1.0000000000016376
-8.9,-3.9,1.0000000000016431
-8.9,-3.4,1.0000000000016462
-8.9,-2.9,1.0000000000016516
-8.9,-2.4,1.0000000000016478
-8.9,-1.9,1.0000000000016473
-8.9,-1.4,1.0000000000016387
-8.9,-0.9,1.0000000000016283
-8.9,-0.4,1.6100674587497537e-12
-8.9,0.1,1.5846230212980456e-12
-8.9,0.6,1.5543724123276814e-12
-8.9,1.1,1.5159230401784334e-12
-8.9,1.6,1.0000000000014653
-8.9,2.1,1.000000000001405
-8.9,2.6,1.0000000000013323
-8.9,3.1,1.0000000000012474
-8.9,3.6,1.0000000000011495
-8.9,4.1,1.0000000000010334
-8.9,4.6,1.000000000000903
-8.9,5.1,1.000000000000754
-8.9,5.6,1.0000000000005884
-8.9,6.1,1.000000000000408
-8.9,6.6,1.0000000000002112
-8.9,7.1,1.0000000000000062
-8.9,7.6,0.999999999999797
-8.9,8.1,0.9999999999995997
-8.9,8.6,0.9999999999995446
-8.9,9.1,-1.1619626436280048e-13
-8.9,9.6,-4.269011172453254e-14
-8.9,10.1,-2.154295704244622e-13
-8.9,10.6,-4.1135173880261484e-13
-8.9,11.1,-5.959652683133417e-13
-8.9,11.6,-7.692701589566426e-13
-8.4,-11.9,-5.826776176441163e-13
-8.4,-11.4,-5.795677419555742e-13
-8.4,-10.9,-5.750442864086038e-13
-8.4,-10.4,-5.792850259838885e-13
-8.4,-9.9,-5.829603336158019e-13
-8.4,-9.4,-6.058603273223392e-13
-8.4,-8.9,-6.926541306298326e-13
-8.4,-8.4,0.6899224436925321
-8.4,-7.9,1.0000000000017992
-8.4,-7.4,1.0000000000017135
-8.4,-6.9,1.0000000000016929
-8.4,-6.4,1.0000000000016893
-8.4,-5.9,1.0000000000016933
-8.4,-5.4,1.0000000000016969
-8.4,-4.9,1.0000000000017013
-8.4,-4.4,1.0000000000017073
-8.4,-3.9,1.0000000000017089
-8.4,-3.4,1.0000000000017113
-8.4,-2.9,1.0000000000017115
-8.4,-2.4,1.0000000000017089
-8.4,-1.9,1.0000000000017017
-8.4,-1.4,1.0000000000016915
-8.4,-0.9,1.000000000001672
-8.4,-0.4,1.6524748545026004e-12
-8.4,0.1,1.623355109418979e-12
-8.4,0.6,1.5832094414396173e-12
-8.4,1.1,1.5351477262530575e-12
-8.4,1.6,1.0000000000014753
-8.4,2.1,1.0000000000014042
-8.4,2.6,1.0000000000013192
-8.4,3.1,1.0000000000012206
-8.4,3.6,1.0000000000011051
-8.4,4.1,1.0000000000009763
-8.4,4.6,1.0000000000008262
-8.4,5.1,1.0000000000006628
-8.4,5.6,1.0000000000004796
-8.4,6.1,1.0000000000002836
-8.4,6.6,1.0000000000000762
-8.4,7.1,0.9999999999998685
-8.4,7.6,0.9999999999996749
-8.4,8.1,0.9999999999996119
-8.4,8.6,-4.4386407554646415e-14
-8.4,9.1,2.714073328182201e-14
-8.4,9.6,-1.4814316916327847e-13
-8.4,10.1,-3.415208937962603e-13
-8.4,10.6,-5.312233107973287e-13
-8.4,11.1,-7.028319056105158e-13
-8.4,11.6,-8.628491455845914e-13
-7.9,-11.9,-5.173702281847321e-13
-7.9,-11.4,-5.122813406943905e-13
-7.9,-10.9,-5.111504768076479e-13
-7.9,-10.4,-5.049307254305636e-13
-7.9,-9.9,-5.021035657137072e-13
-7.9,-9.4,-5.108677608359623e-13
-7.9,-8.9,-5.329196066274426e-13
-7.9,-8.4,-6.197134099349359e-13
-7.9,-7.9,1.0544545056928705
-7.9,-7.4,1.0000000000018772
-7.9,-6.9,1.000000000001793
-7.9,-6.4,1.0000000000017744
-7.9,-5.9,1.0000000000017686
-7.9,-5.4,1.0000000000017695
-7.9,-4.9,1.0000000000017721
-7.9,-4.4,1.0000000000017768
-7.9,-3.9,1.0000000000017741
-7.9,-3.4,1.0000000000017757
-7.9,-2.9,1.0000000000017721
-7.9,-2.4,1.0000000000017655
-7.9,-1.9,1.0000000000017566
-7.9,-1.4,1.0000000000017406
-7.9,-0.9,1.0000000000017162
-7.9,-0.4,1.6878143509633063e-12
-7.9,0.1,1.6507785586724866e-12
-7.9,0.6,1.6035649914009837e-12
-7.9,1.1,1.545890933177112e-12
-7.9,1.6,1.0000000000014744
-7.9,2.1,1.0000000000013891
-7.9,2.6,1.0000000000012912
-7.9,3.1,1.0000000000011806
-7.9,3.6,1.0000000000010472
-7.9,4.1,1.0000000000009024
-7.9,4.6,1.0000000000007365
-7.9,5.1,1.0000000000005527
-7.9,5.6,1.0000000000003588
-7.9,6.1,1.0000000000001528
-7.9,6.6,0.9999999999999457
-7.9,7.1,0.9999999999997473
-7.9,7.6,0.9999999999996834
-7.9,8.1,2.798888119687895e-14
-7.9,8.6,9.979873800503302e-14
-7.9,9.1,-8.00086199870378e-14
-7.9,9.6,-2.7253819670496267e-13
-7.9,10.1,-4.647850574512019e-13
-7.9,10.6,-6.395035279529312e-13
-7.9,11.1,-7.972590401535215e-13
-7.9,11.6,-9.394651739114015e-13
-7.4,-11.9,-4.534764185837761e-13
-7.4,-11.4,-4.4895296303680575e-13
-7.4,-10.9,-4.435813595747785e-13
-7.4,-10.4,-4.3707889222600864e-13
-7.4,-9.9,-4.325554366790383e-13
-7.4,-9.4,-4.2859741307543925e-13
-7.4,-8.9,-4.350998804242091e-13
-7.4,-8.4,-4.579998741307465e-13
-7.4,-7.9,-5.433800975798115e-13
-7.4,-7.4,0.4446216163543525
-7.4,-6.9,1.0000000000019584
-7.4,-6.4,1.0000000000018747
-7.4,-5.9,1.0000000000018499
-7.4,-5.4,1.0000000000018434
-7.4,-4.9,1.0000000000018427
-7.4,-4.4,1.0000000000018399
-7.4,-3.9,1.0000000000018407
-7.4,-3.4,1.0000000000018379
-7.4,-2.9,1.00000000000183
-7.4,-2.4,1.0000000000018188
-7.4,-1.9,1.0000000000018034
-7.4,-1.4,1.0000000000017844
-7.4,-0.9,1.0000000000017557
-7.4,-0.4,1.7172168120186134e-12
-7.4,0.1,1.6711341086338533e-12
-7.4,0.6,1.6151563462400952e-12
-7.4,1.1,1.5444773533186837e-12
-7.4,1.6,1.0000000000014602
-7.4,2.1,1.000000000001364
-7.4,2.6,1.0000000000012528
-7.4,3.1,1.0000000000011173
-7.4,3.6,1.0000000000009712
-7.4,4.1,1.000000000000807
-7.4,4.6,1.000000000000629
-7.4,5.1,1.0000000000004317
-7.4,5.6,1.0000000000002252
-7.4,6.1,1.0000000000000153
-7.4,6.6,0.9999999999998219
-7.4,7.1,0.9999999999997549
-7.4,7.6,1.0573577341043158e-13
-7.4,8.1,1.7273945869992966e-13
-7.4,8.6,-6.785183320455502e-15
-7.4,9.1,-2.0468636350040766e-13
-7.4,9.6,-3.938233485581048e-13
-7.4,10.1,-5.730652746068044e-13
-7.4,10.6,-7.336479465242512e-13
-7.4,11.1,-8.758540802821311e-13
-7.4,11.6,-9.979873800503302e-13
-6.9,-11.9,-3.895826089828201e-13
-6.9,-11.4,-3.827974256623646e-13
-6.9,-10.9,-3.751640944268522e-13
-6.9,-10.4,-3.686616270780823e-13
-6.9,-9.9,-3.630073076443694e-13
-6.9,-9.4,-3.556566923805426e-13
-6.9,-8.9,-3.539603965504287e-13
-6.9,-8.4,-3.6018014792751293e-13
-6.9,-7.9,-3.796875499738225e-13
-6.9,-7.4,-4.670467852246871e-13
-6.9,-6.9,0.996760469662776
-6.9,-6.4,1.000000000002033
-6.9,-5.9,1.0000000000019489
-6.9,-5.4,1.0000000000019253
-6.9,-4.9,1.0000000000019127
-6.9,-4.4,1.0000000000019096
-6.9,-3.9,1.0000000000019047
-6.9,-3.4,1.0000000000018954
-6.9,-2.9,1.0000000000018834
-6.9,-2.4,1.0000000000018696
-6.9,-1.9,1.000000000001852
-6.9,-1.4,1.0000000000018192
-6.9,-0.9,1.0000000000017837
-6.9,-0.4,1.7401168057251507e-12
-6.9,0.1,1.6858353391615067e-12
-6.9,0.6,1.6160044941551522e-12
-6.9,1.1,1.534016862366315e-12
-6.9,1.6,1.000000000001438
-6.9,2.1,1.000000000001323
-6.9,2.6,1.0000000000011926
-6.9,3.1,1.0000000000010483
-6.9,3.6,1.0000000000008835
-6.9,4.1,1.0000000000007023
-6.9,4.6,1.0000000000005063
-6.9,5.1,1.0000000000003024
-6.9,5.6,1.000000000000092
-6.9,6.1,0.999999999999896
-6.9,6.6,0.9999999999998304
-6.9,7.1,1.8433081353904116e-13
-6.9,7.6,2.479419071683115e-13
-6.9,8.1,6.841726514792632e-14
-6.9,8.6,-1.2948391503202584e-13
-6.9,9.1,-3.217307757782651e-13
-6.9,9.6,-5.029517136287642e-13
-6.9,10.1,-6.624035216594685e-13
-6.9,10.6,-8.111121227661183e-13
-6.9,11.1,-9.35789866279488e-13
-6.9,11.6,-1.0429392195483478e-12
-6.4,-11.9,-3.231443556366933e-13
-6.4,-11.4,-3.146628764861239e-13
-6.4,-10.9,-3.058986813638689e-13
-6.4,-10.4,-2.9883078207172775e-13
-6.4,-9.9,-2.8950115500610145e-13
-6.4,-9.4,-2.8469498348744547e-13
-6.4,-8.9,-2.7847523211036125e-13
-6.4,-8.4,-2.7677893628024737e-13
-6.4,-7.9,-2.824332557139603e-13
-6.4,-7.4,-3.036369535903837e-13
-6.4,-6.9,-3.915616207846196e-13
-6.4,-6.4,0.004265694567959254
-6.4,-5.9,1.0000000000021108
-6.4,-5.4,1.0000000000020206
-6.4,-4.9,1.0000000000019913
-6.4,-4.4,1.0000000000019775
-6.4,-3.9,1.0000000000019638
-6.4,-3.4,1.000000000001953
-6.4,-2.9,1.000000000001937
-6.4,-2.4,1.0000000000019165
-6.4,-1.9,1.0000000000018892
-6.4,-1.4,1.000000000001852
-6.4,-0.9,1.0000000000018079
-6.4,-0.4,1.0000000000017535
-6.4,0.1,1.0000000000016847
-6.4,0.6,1.000000000001604
-6.4,1.1,1.0000000000015086
-6.4,1.6,1.000000000001399
-6.4,2.1,1.0000000000012697
-6.4,2.6,1.0000000000011235
-6.4,3.1,1.0000000000009583
-6.4,3.6,1.000000000000774
-6.4,4.1,1.0000000000005824
-6.4,4.6,1.0000000000003766
-6.4,5.1,1.0000000000001665
-6.4,5.6,0.99999999999997
-6.4,6.1,0.9999999999999079
-6.4,6.6,2.567061022905665e-13
-6.4,7.1,3.242752195234359e-13
-6.4,7.6,1.4079255389945167e-13
-6.4,8.1,-5.456418253532967e-14
-6.4,8.6,-2.5076906688516793e-13
-6.4,9.1,-4.3114185682061006e-13
-6.4,9.6,-5.953998363699704e-13
-6.4,10.1,-7.426948576181919e-13
-6.4,10.6,-8.676553171032474e-13
-6.4,11.1,-9.770663981455925e-13
-6.4,11.6,-1.072341680603655e-12
-5.9,-11.9,-2.575542502056235e-13
-5.9,-11.4,-2.5020363494179665e-13
-5.9,-10.9,-2.405912919044847e-13
-5.9,-10.4,-2.295653690087445e-13
-5.9,-9.9,-2.222147537449177e-13
-5.9,-9.4,-2.1401599056603399e-13
-5.9,-8.9,-2.055345114154646e-13
-5.9,-8.4,-2.0044562392512296e-13
-5.9,-7.9,-2.0101105586849427e-13
-5.9,-7.4,-2.072308072455785e-13
-5.9,-6.9,-2.312616648388584e-13
-5.9,-6.4,-3.197517639764656e-13
-5.9,-5.9,0.5024449693641917
-5.9,-5.4,1.000000000002179
-5.9,-4.9,1.0000000000020857
-5.9,-4.4,1.0000000000020492
-5.9,-3.9,1.0000000000020268
-5.9,-3.4,1.0000000000020093
-5.9,-2.9,1.0000000000019846
-5.9,-2.4,1.0000000000019558
-5.9,-1.9,1.0000000000019194
-5.9,-1.4,1.000000000001876
-5.9,-0.9,1.0000000000018219
-5.9,-0.4,1.0000000000017544
-5.9,0.1,1.0000000000016753
-5.9,0.6,1.000000000001579
-5.9,1.1,1.0000000000014684
-5.9,1.6,1.0000000000013423
-5.9,2.1,1.000000000001195
-5.9,2.6,1.0000000000010312
-5.9,3.1,1.0000000000008513
-5.9,3.6,1.000000000000657
-5.9,4.1,1.000000000000452
-5.9,4.6,1.0000000000002411
-5.9,5.1,1.0000000000000469
-5.9,5.6,0.9999999999999845
-5.9,6.1,3.3473571047580477e-13
-5.9,6.6,3.9862952007676076e-13
-5.9,7.1,2.1769129819794738e-13
-5.9,7.6,1.8659254131252632e-14
-5.9,8.1,-1.7754563021858566e-13
-5.9,8.6,-3.5763570418234213e-13
-5.9,9.1,-5.261344233069871e-13
-5.9,9.6,-6.728640126118373e-13
-5.9,10.1,-8.040442234739771e-13
-5.9,10.6,-9.148688843747502e-13
-5.9,11.1,-1.009296018917756e-12
-5.9,11.6,-1.0822367396126526e-12
-5.4,-11.9,-1.9083328088781102e-13
-5.4,-11.4,-1.82069085765556e-13
-5.4,-10.9,-1.7076044689813016e-13
-5.4,-10.4,-1.6143081983250383e-13
-5.4,-9.9,-1.5153576082350622e-13
-5.4,-9.4,-1.4248884972956556e-13
-5.4,-8.9,-1.359863823807957e-13
-5.4,-8.4,-1.286357671169689e-13
-5.4,-7.9,-1.2354687962662728e-13
-5.4,-7.4,-1.2439502754168423e-13
-5.4,-6.9,-1.3287650669225359e-13
-5.4,-6.4,-1.5803822817227608e-13
-5.4,-5.9,-2.530307946586531e-13
-5.4,-5.4,1.0008923013943247
-5.4,-4.9,1.0000000000022393
-5.4,-4.4,1.0000000000021327
-5.4,-3.9,1.000000000002095
-5.4,-3.4,1.000000000002061
-5.4,-2.9,1.0000000000020293
-5.4,-2.4,1.0000000000019897
-5.4,-1.9,1.000000000001948
-5.4,-1.4,1.000000000001891
-5.4,-0.9,1.0000000000018248
-5.4,-0.4,1.0000000000017433
-5.4,0.1,1.0000000000016478
-5.4,0.6,1.0000000000015439
-5.4,1.1,1.0000000000014122
-5.4,1.6,1.0000000000012674
-5.4,2.1,1.0000000000011062
-5.4,2.6,1.0000000000009257
-5.4,3.1,1.0000000000007332
-5.4,3.6,1.0000000000005305
-5.4,4.1,1.0000000000003169
-5.4,4.6,1.000000000000122
-5.4,5.1,1.000000000000059
-5.4,5.6,4.1078630685924356e-13
-5.4,6.1,4.755282643752565e-13
-5.4,6.6,2.9317646263801486e-13
-5.4,7.1,9.301355468457751e-14
-5.4,7.6,-1.0290861369357512e-13
-5.4,8.1,-2.8893572306273017e-13
-5.4,8.6,-4.5319370261209044e-13
-5.4,9.1,-6.030331676054828e-13
-5.4,9.6,-7.339306624959369e-13
-5.4,10.1,-8.439071754816531e-13
-5.4,10.6,-9.408787537698296e-13
-5.4,11.1,-1.0180602140400111e-12
-5.4,11.6,-1.0822367396126526e-12
-4.9,-11.9,-1.2043700393808517e-13
-4.9,-11.4,-1.1280367270257273e-13
-4.9,-10.9,-1.04604909523689e-13
-4.9,-10.4,-9.244812274120622e-14
-4.9,-9.9,-8.368392761895119e-14
-4.9,-9.4,-7.265800472321101e-14
-4.9,-8.9,-6.559010543106986e-14
-4.9,-8.4,-5.90876380823e-14
-4.9,-7.9,-5.456418253532967e-14
-4.9,-7.4,-5.1737022818473206e-14
-4.9,-6.9,-5.343331864858708e-14
-4.9,-6.4,-6.445924154432728e-14
-4.9,-5.9,-9.72542942598622e-14
-4.9,-5.4,-1.9733574823658088e-13
-4.9,-4.9,0.0019805874616954313
-4.9,-4.4,1.0000000000022844
-4.9,-3.9,1.0000000000021698
-4.9,-3.4,1.0000000000021159
-4.9,-2.9,1.000000000002067
-4.9,-2.4,1.0000000000020193
-4.9,-1.9,1.0000000000019644
-4.9,-1.4,1.0000000000018945
-4.9,-0.9,1.000000000001817
-4.9,-0.4,1.0000000000017213
-4.9,0.1,1.0000000000016085
-4.9,0.6,1.000000000001487
-4.9,1.1,1.000000000001343
-4.9,1.6,1.000000000001179
-4.9,2.1,1.0000000000010019
-4.9,2.6,1.0000000000008078
-4.9,3.1,1.0000000000006044
-4.9,3.6,1.0000000000003963
-4.9,4.1,1.0000000000002005
-4.9,4.6,1.0000000000001321
-4.9,5.1,4.885331990727962e-13
-4.9,5.6,5.535578725604947e-13
-4.9,6.1,3.7064063887988185e-13
-4.9,6.6,1.679332871812737e-13
-4.9,7.1,-2.968517702699282e-14
-4.9,7.6,-2.123196947359201e-13
-4.9,8.1,-3.802529819171938e-13
-4.9,8.6,-5.329196066274426e-13
-4.9,9.1,-6.640998174895823e-13
-4.9,9.6,-7.800133658806971e-13
-4.9,10.1,-8.752886483387598e-13
-4.9,10.6,-9.524701086089411e-13
-4.9,11.1,-1.0214528057002388e-12
-4.9,11.6,-1.0703626688018555e-12
-4.4,-11.9,-5.569504642207225e-14
-4.4,-11.4,-4.2972827696218186e-14
-4.4,-10.9,-3.4491348545648806e-14
-4.4,-10.4,-2.4030857593279905e-14
-4.4,-9.9,-1.4701230527653588e-14
-4.4,-9.4,-5.088887490341627e-15
-4.4,-8.9,4.523455546970335e-15
-4.4,-8.4,1.1591354839111484e-14
-4.4,-7.9,1.7245674272824403e-14
-4.4,-7.4,1.9224686074623924e-14
-4.4,-6.9,1.752839024451005e-14
-4.4,-6.4,9.04691109394067e-15
-4.4,-5.9,-6.785183320455502e-15
-4.4,-5.4,-4.4386407554646415e-14
-4.4,-4.9,-1.5153576082350622e-13
-4.4,-4.4,0.4986890152223783
-4.4,-3.9,1.0000000000023066
-4.4,-3.4,1.0000000000021796
-4.4,-2.9,1.0000000000021099
-4.4,-2.4,1.000000000002043
-4.4,-1.9,1.000000000001974
-4.4,-1.4,1.00000000000189
-4.4,-0.9,1.0000000000017961
-4.4,-0.4,1.0000000000016864
-4.4,0.1,1.0000000000015568
-4.4,0.6,1.0000000000014126
-4.4,1.1,1.000000000001254
-4.4,1.6,1.0000000000010771
-4.4,2.1,1.0000000000008835
-4.4,2.6,1.0000000000006766
-4.4,3.1,1.0000000000004678
-4.4,3.6,1.0000000000002742
-4.4,4.1,1.0000000000002076
-4.4,4.6,5.67693671144777e-13
-4.4,5.1,6.298911849156192e-13
-4.4,5.6,4.4810481512174883e-13
-4.4,6.1,2.4172215579122726e-13
-4.4,6.6,4.806171518655981e-14
-4.4,7.1,-1.4079255389945167e-13
-4.4,7.6,-3.087258410807254e-13
-4.4,8.1,-4.619578977343455e-13
-4.4,8.6,-5.945516884549135e-13
-4.4,9.1,-7.084862250442287e-13
-4.4,9.6,-8.068713831908336e-13
-4.4,10.1,-8.880108670646139e-13
-4.4,10.6,-9.516219606938843e-13
-4.4,11.1,-1.0056207112858426e-12
-4.4,11.6,-1.0452009473218331e-12
-3.9,-11.9,1.611481038608182e-14
-3.9,-11.4,2.7423449253507658e-14
-3.9,-10.9,3.562221243239139e-14
-3.9,-10.4,4.6365419356445936e-14
-3.9,-9.9,5.569504642207225e-14
-3.9,-9.4,6.728640126118374e-14
-3.9,-8.9,7.548516444006747e-14
-3.9,-8.4,8.113948387378039e-14
-3.9,-7.9,8.396664359063685e-14
-3.9,-7.4,8.481479150569379e-14
-3.9,-6.9,8.481479150569379e-14
-3.9,-6.4,7.718146027018135e-14
-3.9,-5.9,6.134936585578517e-14
-3.9,-5.4,3.618764437576268e-14
-3.9,-4.9,-9.329627065626316e-15
-3.9,-4.4,-1.2948391503202584e-13
-3.9,-3.9,0.9962485572627063
-3.9,-3.4,1.0000000000022986
-3.9,-2.9,1.0000000000021565
-3.9,-2.4,1.0000000000020612
-3.9,-1.9,1.0000000000019682
-3.9,-1.4,1.000000000001873
-3.9,-0.9,1.0000000000017586
-3.9,-0.4,1.0000000000016296
-3.9,0.1,1.000000000001489
-3.9,0.6,1.0000000000013287
-3.9,1.1,1.0000000000011515
-3.9,1.6,1.0000000000009546
-3.9,2.1,1.000000000000751
-3.9,2.6,1.0000000000005425
-3.9,3.1,1.00000000000035
-3.9,3.6,1.0000000000002842
-3.9,4.1,6.409171078113594e-13
-3.9,4.6,7.082035090725431e-13
-3.9,5.1,5.23872695533502e-13
-3.9,5.6,3.1918633203309425e-13
-3.9,6.1,1.2382959559831292e-13
-3.9,6.6,-6.219751377084211e-14
-3.9,7.1,-2.3578512038582873e-13
-3.9,7.6,-3.8788631315270626e-13
-3.9,8.1,-5.213282517883311e-13
-3.9,8.6,-6.386553800378741e-13
-3.9,9.1,-7.364751062411077e-13
-3.9,9.6,-8.195936019166875e-13
-3.9,10.1,-8.868800031778714e-13
-3.9,10.6,-9.425750495999436e-13
-3.9,11.1,-9.82155285635934e-13
-3.9,11.6,-1.0138194744647264e-12
-3.4,-11.9,8.368392761895119e-14
-3.4,-11.4,9.612343037311962e-14
-3.4,-10.9,1.0630120535380287e-13
-3.4,-10.4,1.1478268450437226e-13
-3.4,-9.9,1.266567553151694e-13
-3.4,-9.4,1.3457280252236747e-13
-3.4,-8.9,1.4248884972956556e-13
-3.4,-8.4,1.470123052765359e-13
-3.4,-7.9,1.4927403305002106e-13
-3.4,-7.4,1.4983946499339236e-13
-3.4,-6.9,1.4616415736147895e-13
-3.4,-6.4,1.3768267821090958e-13
-3.4,-5.9,1.2269873171157034e-13
-3.4,-5.4,9.753701023154786e-14
-3.4,-4.9,5.880492211061435e-14
-3.4,-4.4,0.0
-3.4,-3.9,-1.385308261259665e-13
-3.4,-3.4,0.945657917630826
-3.4,-2.9,1.0000000000022564
-3.4,-2.4,1.0000000000020848
-3.4,-1.9,1.0000000000019613
-3.4,-1.4,1.0000000000018436
-3.4,-0.9,1.000000000001711
-3.4,-0.4,1.0000000000015647
-3.4,0.1,1.0000000000014038
-3.4,0.6,1.0000000000012252
-3.4,1.1,1.0000000000010336
-3.4,1.6,1.0000000000008293
-3.4,2.1,1.0000000000006188
-3.4,2.6,1.0000000000004263
-3.4,3.1,1.0000000000003602
-3.4,3.6,7.206430118267115e-13
-3.4,4.1,7.814269457391254e-13
-3.4,4.6,5.976615641434555e-13
-3.4,5.1,3.9410606452979043e-13
-3.4,5.6,1.981838961516378e-13
-3.4,6.1,1.0177774980683253e-14
-3.4,6.6,-1.611481038608182e-13
-3.4,7.1,-3.1409744454275264e-13
-3.4,7.6,-4.5064925886691964e-13
-3.4,8.1,-5.67693671144777e-13
-3.4,8.6,-6.694714209516095e-13
-3.4,9.1,-7.508936207970756e-13
-3.4,9.6,-8.187454540016306e-13
-3.4,10.1,-8.750059323670742e-13
-3.4,10.6,-9.196750558934063e-13
-3.4,11.1,-9.513392447221986e-13
-3.4,11.6,-9.759355342588497e-13
-2.9,-11.9,1.5492835248373397e-13
-2.9,-11.4,1.6567155940778852e-13
-2.9,-10.9,1.747184705017292e-13
-2.9,-10.4,1.846135295107268e-13
-2.9,-9.9,1.9592216837815263e-13
-2.9,-9.4,2.0270735169860813e-13
-2.9,-8.9,2.1034068293412057e-13
-2.9,-8.4,2.123196947359201e-13
-2.9,-7.9,2.1260241070760574e-13
-2.9,-7.4,2.1090611487749188e-13
-2.9,-6.9,2.0355549961366507e-13
-2.9,-6.4,1.9281229268961052e-13
-2.9,-5.9,1.7387032258667225e-13
-2.9,-5.4,1.4729502124822153e-13
-2.9,-4.9,1.0714935326885981e-13
-2.9,-4.4,5.6260478365443545e-14
-2.9,-3.9,-2.4879005508336843e-14
-2.9,-3.4,-1.8291723368061294e-13
-2.9,-2.9,1.0014723632695426
-2.9,-2.4,1.000000000002158
-2.9,-1.9,1.0000000000019553
-2.9,-1.4,1.0000000000018021
-2.9,-0.9,1.0000000000016458
-2.9,-0.4,1.0000000000014804
-2.9,0.1,1.0000000000012996
-2.9,0.6,1.0000000000011116
-2.9,1.1,1.000000000000906
-2.9,1.6,1.000000000000694
-2.9,2.1,1.000000000000499
-2.9,2.6,1.0000000000004363
-2.9,3.1,7.969763241818359e-13
-2.9,3.6,8.588911219809923e-13
-2.9,4.1,6.734294445552086e-13
-2.9,4.6,4.698739449415435e-13
-2.9,5.1,2.719727647615914e-13
-2.9,5.6,8.283577970389426e-14
-2.9,6.1,-8.792466719423589e-14
-2.9,6.6,-2.3974314398942773e-13
-2.9,7.1,-3.7912211803045123e-13
-2.9,7.6,-4.95883814336623e-13
-2.9,8.1,-5.985097120585124e-13
-2.9,8.6,-6.807800598190354e-13
-2.9,9.1,-7.500454728820187e-13
-2.9,9.6,-8.080022470775761e-13
-2.9,10.1,-8.546503824057076e-13
-2.9,10.6,-8.865972872061857e-13
-2.9,11.1,-9.1034542882778e-13
-2.9,11.6,-9.28721966987347e-13
-2.4,-11.9,2.284345051220019e-13
-2.4,-11.4,2.3776413218762826e-13
-2.4,-10.9,2.473764752249402e-13
-2.4,-10.4,2.5557523840382395e-13
-2.4,-9.9,2.620777057525938e-13
-2.4,-9.4,2.7169004878990575e-13
-2.4,-8.9,2.750826404501335e-13
-2.4,-8.4,2.756480723935048e-13
-2.4,-7.9,2.739517765633909e-13
-2.4,-7.4,2.688628890730493e-13
-2.4,-6.9,2.5953326200742295e-13
-2.4,-6.4,2.4030857593279906e-13
-2.4,-5.9,2.1853944611300432e-13
-2.4,-5.4,1.8630982534084069e-13
-2.4,-4.9,1.427715657012512e-13
-2.4,-4.4,8.594565539243637e-14
-2.4,-3.9,9.04691109394067e-15
-2.4,-3.4,-9.697157828817656e-14
-2.4,-2.9,-2.8101967585553206e-13
-2.4,-2.4,0.5052634731996963
-2.4,-1.9,1.0000000000020008
-2.4,-1.4,1.0000000000017661
-2.4,-0.9,1.0000000000015747
-2.4,-0.4,1.0000000000013887
-2.4,0.1,1.0000000000011917
-2.4,0.6,1.0000000000009825
-2.4,1.1,1.000000000000773
-2.4,1.6,1.0000000000005753
-2.4,2.1,1.0000000000005123
-2.4,2.6,8.724614886219033e-13
-2.4,3.1,9.34941718364431e-13
-2.4,3.6,7.520244846838182e-13
-2.4,4.1,5.459245413249824e-13
-2.4,4.6,3.4858879308840146e-13
-2.4,5.1,1.5916909205901866e-13
-2.4,5.6,-1.3004934697539713e-14
-2.4,6.1,-1.7019501495475886e-13
-2.4,6.6,-3.0561596539218325e-13
-2.4,7.1,-4.263356853019541e-13
-2.4,7.6,-5.278307191371009e-13
-2.4,8.1,-6.112319307843665e-13
-2.4,8.6,-6.827590716208349e-13
-2.4,9.1,-7.421294256748206e-13
-2.4,9.6,-7.859504012860957e-13
-2.4,10.1,-8.221380456618584e-13
-2.4,10.6,-8.472997671418809e-13
-2.4,11.1,-8.622837136412201e-13
-2.4,11.6,-8.76702228197188e-13
-1.9,-11.9,2.9798263415667083e-13
-1.9,-11.4,3.0844312510903974e-13
-1.9,-10.9,3.174900362029804e-13
-1.9,-10.4,3.2766781118366363e-13
-1.9,-9.9,3.324739827023196e-13
-1.9,-9.4,3.384110181077182e-13
-1.9,-8.9,3.395418819944608e-13
-1.9,-8.4,3.3643200630591866e-13
-1.9,-7.9,3.3077768687220577e-13
-1.9,-7.4,3.22578923693322e-13
-1.9,-6.9,3.0731226122229714e-13
-1.9,-6.4,2.8526041543081675e-13
-1.9,-5.9,2.541616585453957e-13
-1.9,-5.4,2.154295704244622e-13
-1.9,-4.9,1.642579795493603e-13
-1.9,-4.4,9.923330606166173e-14
-1.9,-3.9,1.7245674272824403e-14
-1.9,-3.4,-8.707651927917896e-14
-1.9,-2.9,-2.1882216208468996e-13
-1.9,-2.4,0.9999999999995616
-1.9,-1.9,0.7395059104087686
-1.9,-1.4,1.0000000000017735
-1.9,-0.9,1.0000000000015066
-1.9,-0.4,1.0000000000012859
-1.9,0.1,1.0000000000010705
-1.9,0.6,1.0000000000008538
-1.9,1.1,1.000000000000658
-1.9,1.6,1.000000000000588
-1.9,2.1,9.476639370902852e-13
-1.9,2.6,1.0104268828044985e-12
-1.9,3.1,8.23268909548601e-13
-1.9,3.6,6.197134099349359e-13
-1.9,4.1,4.209640818399268e-13
-1.9,4.6,2.321098127539153e-13
-1.9,5.1,6.050121794072824e-14
-1.9,5.6,-9.753701023154786e-14
-1.9,6.1,-2.3408882455571484e-13
-1.9,6.6,-3.565048402955995e-13
-1.9,7.1,-4.588480220458034e-13
-1.9,7.6,-5.433800975798115e-13
-1.9,8.1,-6.143418064729086e-13
-1.9,8.6,-6.720158646967804e-13
-1.9,9.1,-7.18664000024912e-13
-1.9,9.6,-7.562652242591029e-13
-1.9,10.1,-7.81709661710811e-13
-1.9,10.6,-7.995207679270067e-13
-1.9,11.1,-8.119602706811752e-13
-1.9,11.6,-8.178973060865737e-13
-1.4,-11.9,3.686616270780823e-13
-1.4,-11.4,3.7912211803045123e-13
-1.4,-10.9,3.8929989301113445e-13
-1.4,-10.4,3.949542124448474e-13
-1.4,-9.9,3.9947766799181773e-13
-1.4,-9.4,4.00043099935189e-13
-1.4,-8.9,4.0089124785024593e-13
-1.4,-8.4,3.983468041050751e-13
-1.4,-7.9,3.8760359718102057e-13
-1.4,-7.4,3.709233548515675e-13
-1.4,-6.9,3.522641007203148e-13
-1.4,-6.4,3.2201349174995074e-13
-1.4,-5.9,2.8271597168564595e-13
-1.4,-5.4,2.343715405274005e-13
-1.4,-4.9,1.7500118647341483e-13
-1.4,-4.4,9.753701023154786e-14
-1.4,-3.9,6.219751377084211e-15
-1.4,-3.4,-1.0658392132548852e-13
-1.4,-2.9,0.9999999999997609
-1.4,-2.4,0.9999999999995884
-1.4,-1.9,-6.643825334612679e-13
-1.4,-1.4,0.49430203291900926
-1.4,-0.9,1.0000000000014815
-1.4,-0.4,1.0000000000011897
-1.4,0.1,1.0000000000009497
-1.4,0.6,7.446738694199914e-13
-1.4,1.1,1.0000000000006684
-1.4,1.6,1.0290861369357511e-12
-1.4,2.1,1.0901527868198507e-12
-1.4,2.6,1.000000000000902
-1.4,3.1,1.0000000000006972
-1.4,3.6,4.944702344781948e-13
-1.4,4.1,3.027888056753268e-13
-1.4,4.6,1.3315922266393925e-13
-1.4,5.1,-2.3182709678222968e-14
-1.4,5.6,-1.6482341149273158e-13
-1.4,6.1,-2.829986876573316e-13
-1.4,6.6,-3.847764374641641e-13
-1.4,7.1,-4.766591282619991e-13
-1.4,7.6,-5.46207257296668e-13
-1.4,8.1,-6.05294895378968e-13
-1.4,8.6,-6.522257466787852e-13
-1.4,9.1,-6.847380834226345e-13
-1.4,9.6,-7.14705976421313e-13
-1.4,10.1,-7.353442423543651e-13
-1.4,10.6,-7.477837451085335e-13
-1.4,11.1,-7.551343603723603e-13
-1.4,11.6,-7.542862124573034e-13
-0.9,-11.9,4.401887679145507e-13
-0.9,-11.4,4.498011109518627e-13
-0.9,-10.9,4.574344421873751e-13
-0.9,-10.4,4.628060456494024e-13
-0.9,-9.9,4.642196255078306e-13
-0.9,-9.4,4.63936909536145e-13
-0.9,-8.9,4.585653060741177e-13
-0.9,-8.4,4.509319748386053e-13
-0.9,-7.9,4.3623074431095167e-13
-0.9,-7.4,4.1644062629295645e-13
-0.9,-6.9,3.8929989301113445e-13
-0.9,-6.4,3.5169866877694355e-13
-0.9,-5.9,3.022233737319555e-13
-0.9,-5.4,2.4398388356471243e-13
-0.9,-4.9,1.0000000000001708
-0.9,-4.4,1.0000000000000817
-0.9,-3.9,0.9999999999999742
-0.9,-3.4,0.9999999999998502
-0.9,-2.9,0.9999999999997026
-0.9,-2.4,-4.647850574512019e-13
-0.9,-1.9,-6.655133973480106e-13
-0.9,-1.4,-1.0000000000009528
-0.9,-0.9,0.8139106386652961
-0.9,-0.4,1.0000000000011509
-0.9,0.1,1.000000000000861
-0.9,0.6,1.0000000000007643
-0.9,1.1,-0.9999999999988836
-0.9,1.6,-0.9999999999988313
-0.9,2.1,9.832861495226765e-13
-0.9,2.6,1.00000000000077
-0.9,3.1,1.000000000000569
-0.9,3.6,1.0000000000003797
-0.9,4.1,1.000000000000204
-0.9,4.6,1.0000000000000455
-0.9,5.1,-9.329627065626316e-14
-0.9,5.6,-2.1316784265097704e-13
-0.9,6.1,-3.1720732023129477e-13
-0.9,6.6,-4.0400112353878806e-13
-0.9,7.1,-4.780727081204273e-13
-0.9,7.6,-5.35746766344299e-13
-0.9,8.1,-5.82112185700745e-13
-0.9,8.6,-6.202788418783072e-13
-0.9,9.1,-6.479850071035005e-13
-0.9,9.6,-6.677751251214957e-13
-0.9,10.1,-6.816282077340923e-13
-0.9,10.6,-6.898269709129761e-13
-0.9,11.1,-6.949158584033177e-13
-0.9,11.6,-6.923714146581469e-13
-0.4,-11.9,1.0000000000005111
-0.4,-11.4,1.0000000000005196
-0.4,-10.9,1.0000000000005247
-0.4,-10.4,1.0000000000005307
-0.4,-9.9,1.0000000000005282
-0.4,-9.4,1.0000000000005234
-0.4,-8.9,1.000000000000518
-0.4,-8.4,1.0000000000005027
-0.4,-7.9,1.0000000000004845
-0.4,-7.4,1.000000000000456
-0.4,-6.9,1.0000000000004177
-0.4,-6.4,1.0000000000003721
-0.4,-5.9,1.0000000000003113
-0.4,-5.4,1.000000000000238
-0.4,-4.9,1.0000000000001508
-0.4,-4.4,5.1737022818473206e-14
-0.4,-3.9,-6.95481290346689e-14
-0.4,-3.4,-2.097752509907493e-13
-0.4,-2.9,-1.0000000000003693
-0.4,-2.4,-1.0000000000005485
-0.4,-1.9,-7.514590527404469e-13
-0.4,-1.4,-9.83003433550991e-13
-0.4,-0.9,-1.2852268072829464e-12
-0.4,-0.4,0.5002454809235208
-0.4,0.1,1.0000000000009672
-0.4,0.6,1.2354687962662728e-12
-0.4,1.1,1.2662848371800082e-12
-0.4,1.6,1.0689490889434272e-12
-0.4,2.1,-0.999999999999147
-0.4,2.6,-0.9999999999993501
-0.4,3.1,4.571517262156894e-13
-0.4,3.6,2.7734436822361864e-13
-0.4,4.1,1.2043700393808517e-13
-0.4,4.6,-1.8659254131252632e-14
-0.4,5.1,0.9999999999998564
-0.4,5.6,0.9999999999997543
-0.4,6.1,0.9999999999996664
-0.4,6.6,0.9999999999995912
-0.4,7.1,0.9999999999995324
-0.4,7.6,0.9999999999994832
-0.4,8.1,0.9999999999994457
-0.4,8.6,0.999999999999419
-0.4,9.1,0.9999999999993964
-0.4,9.6,0.999999999999382
-0.4,10.1,0.9999999999993744
-0.4,10.6,0.9999999999993702
-0.4,11.1,0.9999999999993687
-0.4,11.6,1.9999999999993727
0.1,-11.9,5.822254170365727e-13
0.1,-11.4,5.886465759345013e-13
0.1,-10.9,5.922242685608101e-13
0.1,-10.4,5.913370884480021e-13
0.1,-9.9,5.873754756767939e-13
0.1,-9.4,5.800150074576549e-13
0.1,-8.9,2.0000000000005684
0.1,-8.4,2.0000000000005485
0.1,-7.9,1.0000000000005198
0.1,-7.4,1.000000000000485
0.1,-6.9,1.000000000000439
0.1,-6.4,2.000000000000382
0.1,-5.9,2.000000000000311
0.1,-5.4,1.0000000000002214
0.1,-4.9,1.0000000000001188
0.1,-4.4,-1.0
0.1,-3.9,-1.0000000000001354
0.1,-3.4,-2.934591786097005e-13
0.1,-2.9,-4.693085129981722e-13
0.1,-2.4,-6.584454980558694e-13
0.1,-1.9,-8.656763053014479e-13
0.1,-1.4,-1.0861947632162517e-12
0.1,-0.9,-1.3086922329328552e-12
0.1,-0.4,-1.4695576208219876e-12
0.1,0.1,1.1832797498960674
0.1,0.6,1.4687094729069307e-12
0.1,1.1,1.1854280692779135e-12
0.1,1.6,9.51056528750513e-13
0.1,2.1,7.339306624959369e-13
0.1,2.6,5.380084941177843e-13
0.1,3.1,1.0000000000003562
0.1,3.6,1.945085885197244e-13
0.1,4.1,5.201973879015885e-14
0.1,4.6,-1.0000000000000722
0.1,5.1,1.9999999999998264
0.1,5.6,1.9999999999997342
0.1,6.1,1.9999999999996592
0.1,6.6,1.9999999999995974
0.1,7.1,0.9999999999995505
0.1,7.6,0.9999999999995133
0.1,8.1,0.999999999999482
0.1,8.6,1.999999999999463
0.1,9.1,1.999999999999448
0.1,9.6,-5.630825225699682e-13
0.1,10.1,-5.669650010976371e-13
0.1,10.6,0.9999999999994359
0.1,11.1,0.9999999999994369
0.1,11.6,-5.600263808618844e-13
0.6,-11.9,6.505294508486713e-13
0.6,-11.4,6.544874744522703e-13
0.6,-10.9,6.561837702823842e-13
0.6,-10.4,6.513775987637282e-13
0.6,-9.9,6.454405633583297e-13
0.6,-9.4,6.304566168589905e-13
0.6,-8.9,6.129282266144804e-13
0.6,-8.4,5.866356412477154e-13
0.6,-7.9,-0.9999999999994484
0.6,-7.4,-0.9999999999994948
0.6,-6.9,-0.9999999999995525
0.6,-6.4,-0.9999999999996249
0.6,-5.9,-0.999999999999708
0.6,-5.4,-0.99999999999981
0.6,-4.9,-0.9999999999999265
0.6,-4.4,-1.0000000000000637
0.6,-3.9,-1.000000000000215
0.6,-3.4,-1.000000000000392
0.6,-2.9,-5.770232982104034e-13
0.6,-2.4,0.9999999999992228
0.6,-1.9,0.9999999999990119
0.6,-1.4,-1.191365104683312e-12
0.6,-0.9,-1.2693947128685504e-12
0.6,-0.4,-1.000000000000936
0.6,0.1,-1.0000000000009697
0.6,0.6,-0.05515593106824032
0.6,1.1,1.150654004760579e-12
0.6,1.6,1.0000000000008555
0.6,2.1,1.00000000000063
0.6,2.6,1.0000000000004388
0.6,3.1,-0.9999999999997272
0.6,3.6,-0.9999999999998725
0.6,4.1,-0.9999999999999958
0.6,4.6,-1.0000000000001044
0.6,5.1,-1.0000000000001936
0.6,5.6,-1.000000000000272
0.6,6.1,-1.000000000000334
0.6,6.6,-1.000000000000381
0.6,7.1,-1.000000000000423
0.6,7.6,-1.000000000000451
0.6,8.1,-1.0000000000004676
0.6,8.6,-4.885331990727962e-13
0.6,9.1,-4.984282580817938e-13
0.6,9.6,-5.026689976570785e-13
0.6,10.1,-5.018208497420216e-13
0.6,10.6,-5.006899858552789e-13
0.6,11.1,-4.95883814336623e-13
0.6,11.6,-4.922085067047095e-13
1.1,-11.9,7.17815852109855e-13
1.1,-11.4,7.183812840532264e-13
1.1,-10.9,7.138578285062561e-13
1.1,-10.4,7.107479528177139e-13
1.1,-9.9,6.985911660352311e-13
1.1,-9.4,6.804973438473498e-13
1.1,-8.9,6.533566105655278e-13
1.1,-8.4,6.202788418783072e-13
1.1,-7.9,5.7334799057849e-13
1.1,-7.4,5.153912163829326e-13
1.1,-6.9,4.4584308734826366e-13
1.1,-6.4,3.644208875027976e-13
1.1,-5.9,2.63491285611022e-13
1.1,-5.4,1.470123052765359e-13
1.1,-4.9,1.1308638867425838e-14
1.1,-4.4,-1.427715657012512e-13
1.1,-3.9,-1.0000000000003157
1.1,-3.4,-1.0000000000005025
1.1,-2.9,-1.0000000000007025
1.1,-2.4,-1.0000000000009093
1.1,-1.9,-1.1025922895740192e-12
1.1,-1.4,-1.173836714438802e-12
1.1,-0.9,-8.130911345679177e-13
1.1,-0.4,-1.0000000000007696
1.1,0.1,-1.000000000000986
1.1,0.6,-1.000000000001288
1.1,1.1,0.18304962852814366
1.1,1.6,8.283577970389426e-13
1.1,2.1,5.575158961640938e-13
1.1,2.6,-0.9999999999996289
1.1,3.1,-0.9999999999997892
1.1,3.6,-0.9999999999999192
1.1,4.1,-1.000000000000031
1.1,4.6,-1.249604594850555e-13
1.1,5.1,-1.9959747601006604e-13
1.1,5.6,-2.660357293561928e-13
1.1,6.1,-3.174900362029804e-13
1.1,6.6,-3.565048402955995e-13
1.1,7.1,-3.870381652376493e-13
1.1,7.6,-4.079591471423871e-13
1.1,8.1,-4.240739575284689e-13
1.1,8.6,-4.3227272070735267e-13
1.1,9.1,-4.36796176254323e-13
1.1,9.6,-4.401887679145507e-13
1.1,10.1,-4.3651346028263736e-13
1.1,10.6,-4.350998804242091e-13
1.1,11.1,-4.2690111724532536e-13
1.1,11.6,-4.1757149017969906e-13
1.6,-11.9,7.82557809625868e-13
1.6,-11.4,7.822750936541823e-13
1.6,-10.9,7.749244783903555e-13
1.6,-10.4,7.607886798060732e-13
1.6,-9.9,7.480664610802191e-13
1.6,-9.4,7.217738757134541e-13
1.6,-8.9,6.841726514792632e-13
1.6,-8.4,6.420479716981019e-13
1.6,-7.9,5.872010731910866e-13
1.6,-7.4,5.187838080431603e-13
1.6,-6.9,4.31990004735667e-13
1.6,-6.4,3.3473571047580477e-13
1.6,-5.9,2.1825673014131868e-13
1.6,-5.4,8.170491581715168e-14
1.6,-4.9,-7.039627694972583e-14
1.6,-4.4,-2.3917771204605646e-13
1.6,-3.9,-4.266184012736397e-13
1.6,-3.4,-6.242368654819062e-13
1.6,-2.9,-1.0000000000008318
1.6,-2.4,-1.0000000000010263
1.6,-1.9,-1.0000000000010916
1.6,-1.4,-2.000000000000727
1.6,-0.9,-1.0000000000006746
1.6,-0.4,-8.662417372448192e-13
1.6,0.1,-1.0000000000010862
1.6,0.6,-2.000000000001321
1.6,1.1,-2.0000000000016076
1.6,1.6,-2.055590986824818
1.6,2.1,5.651492273996063e-13
1.6,2.6,3.2512336743849283e-13
1.6,3.1,1.7273945869992966e-13
1.6,3.6,4.806171518655981e-14
1.6,4.1,-5.201973879015885e-14
1.6,4.6,-1.3202835877719664e-13
1.6,5.1,-1.9592216837815263e-13
1.6,5.6,-2.4709375925325456e-13
1.6,6.1,-2.880875751476732e-13
1.6,6.6,-3.205999118915225e-13
1.6,7.1,-3.4067274588120335e-13
1.6,7.6,-3.5848385209739904e-13
1.6,8.1,-3.6781347916302535e-13
1.6,8.6,-3.7318508262505265e-13
1.6,9.1,-3.751640944268522e-13
1.6,9.6,-3.7318508262505265e-13
1.6,10.1,-3.709233548515675e-13
1.6,10.6,-3.6470360347448326e-13
1.6,11.1,-3.5593940835222824e-13
1.6,11.6,-3.4858879308840146e-13
2.1,-11.9,8.405145838214254e-13
2.1,-11.4,8.37687424104569e-13
2.1,-10.9,8.277923650955713e-13
2.1,-10.4,8.119602706811752e-13
2.1,-9.9,7.859504012860957e-13
2.1,-9.4,7.514590527404469e-13
2.1,-8.9,7.093343729592856e-13
2.1,-8.4,6.527911786221565e-13
2.1,-7.9,5.866356412477154e-13
2.1,-7.4,5.040825775155067e-13
2.1,-6.9,4.042838395104737e-13
2.1,-6.4,2.8639127931755936e-13
2.1,-5.9,1.5294934068193444e-13
2.1,-5.4,3.675307631913397e-15
2.1,-4.9,-1.6708513926621675e-13
2.1,-4.4,-3.522641007203148e-13
2.1,-3.9,-5.498825649285813e-13
2.1,-3.4,-7.534380645422464e-13
2.1,-2.9,-9.49360232920399e-13
2.1,-2.4,-1.0112750307195556e-12
2.1,-1.9,-1.0000000000006526
2.1,-1.4,-1.0000000000005904
2.1,-0.9,-1.0000000000007798
2.1,-0.4,-1.0000000000009923
2.1,0.1,-1.000000000001202
2.1,0.6,-1.000000000001408
2.1,1.1,-1.0000000000016183
2.1,1.6,-1.0000000000018725
2.1,2.1,-0.00596035864543
2.1,2.6,3.6583446736122587e-13
2.1,3.1,1.63692547605989e-13
2.1,3.6,3.9862952007676076e-14
2.1,4.1,-5.0323442960044977e-14
2.1,4.6,-1.207197199097708e-13
2.1,5.1,-1.778283461902713e-13
2.1,5.6,-2.2108388985817513e-13
2.1,6.1,-2.5274807868696745e-13
2.1,6.6,-2.781925161386756e-13
2.1,7.1,-2.9261103069464353e-13
2.1,7.6,-3.044851015054407e-13
2.1,8.1,-3.1098756885421055e-13
2.1,8.6,-3.121184327409531e-13
2.1,9.1,-3.1183571676926747e-13
2.1,9.6,-3.0561596539218325e-13
2.1,10.1,-3.0137522581689856e-13
2.1,10.6,-2.948727584681287e-13
2.1,11.1,-2.8639127931755936e-13
2.1,11.6,-2.7536535642181917e-13
2.6,-11.9,9.012985177338393e-13
2.6,-11.4,8.930997545549555e-13
2.6,-10.9,8.769849441688737e-13
2.6,-10.4,8.518232226888513e-13
2.6,-9.9,8.18462738029945e-13
2.6,-9.4,7.780343540788976e-13
2.6,-8.9,7.237528875152536e-13
2.6,-8.4,6.559010543106985e-13
2.6,-7.9,5.7334799057849e-13
2.6,-7.4,4.743974004885139e-13
2.6,-6.9,3.607455798708842e-13
2.6,-6.4,2.258900613768311e-13
2.6,-5.9,7.407158458163924e-14
2.6,-5.4,-9.499256648637704e-14
2.6,-4.9,-2.7649622030856173e-13
2.6,-4.4,-4.741146845168282e-13
2.6,-3.9,-6.799319119039785e-13
2.6,-3.4,-8.72744204593589e-13
2.6,-2.9,-9.34941718364431e-13
2.6,-2.4,-1.0000000000005753
2.6,-1.9,-1.0000000000005125
2.6,-1.4,-1.0000000000006992
2.6,-0.9,-1.000000000000907
2.6,-0.4,-1.0000000000011162
2.6,0.1,-1.0000000000013136
2.6,0.6,-1.000000000001502
2.6,1.1,-1.0000000000016747
2.6,1.6,-1.000000000001849
2.6,2.1,-1.0000000000020701
2.6,2.6,-0.5032775738590191
2.6,3.1,2.3408882455571484e-13
2.6,3.6,6.163208182747082e-14
2.6,4.1,-3.307776868722058e-14
2.6,4.6,-1.0064688592008995e-13
2.6,5.1,-1.495567490217067e-13
2.6,5.6,-1.8574439339746938e-13
2.6,6.1,-2.0949253501906365e-13
2.6,6.6,-2.284345051220019e-13
2.6,7.1,-2.386122801026852e-13
2.6,7.6,-2.479419071683115e-13
2.6,8.1,-2.4850733911168276e-13
2.6,8.6,-2.5133449882853926e-13
2.6,9.1,-2.4850733911168276e-13
2.6,9.6,-2.3974314398942773e-13
2.6,10.1,-2.3239252872560096e-13
2.6,10.6,-2.258900613768311e-13
2.6,11.1,-2.165604343112048e-13
2.6,11.6,-2.049690794720933e-13
3.1,-11.9,9.555799842974833e-13
3.1,-11.4,9.408787537698296e-13
3.1,-10.9,9.176960440916068e-13
3.1,-10.4,8.849009913760718e-13
3.1,-9.9,8.470170511701953e-13
3.1,-9.4,7.890602769746379e-13
3.1,-8.9,7.246010354303106e-13
3.1,-8.4,6.431788355848446e-13
3.1,-7.9,5.459245413249824e-13
3.1,-7.4,4.308591408489244e-13
3.1,-6.9,2.9883078207172775e-13
3.1,-6.4,1.5040489693676364e-13
3.1,-5.9,-1.950740204630957e-14
3.1,-5.4,-2.0468636350040766e-13
3.1,-4.9,-3.983468041050751e-13
3.1,-4.4,-6.061430432940249e-13
3.1,-3.9,-7.96128176266779e-13
3.1,-3.4,-8.59173837952678e-13
3.1,-2.9,-1.0000000000004976
3.1,-2.4,-1.0000000000004376
3.1,-1.9,-1.0000000000006248
3.1,-1.4,-1.0000000000008324
3.1,-0.9,-1.000000000001039
3.1,-0.4,-1.0000000000012343
3.1,0.1,-1.0000000000014155
3.1,0.6,-1.00000000000158
3.1,1.1,-1.0000000000017362
3.1,1.6,-1.000000000001877
3.1,2.1,-1.000000000002013
3.1,2.6,-1.0000000000022036
3.1,3.1,-1.0062990197836936
3.1,3.6,1.5973452400238997e-13
3.1,4.1,1.187407081079713e-14
3.1,4.6,-6.163208182747082e-14
3.1,5.1,-1.0884564909897369e-13
3.1,5.6,-1.4107526987113733e-13
3.1,6.1,-1.611481038608182e-13
3.1,6.6,-1.747184705017292e-13
3.1,7.1,-1.8263451770892727e-13
3.1,7.6,-1.888542690860115e-13
3.1,8.1,-1.882888371426402e-13
3.1,8.6,-1.851789614540981e-13
3.1,9.1,-1.8122093785049905e-13
3.1,9.6,-1.7245674272824402e-13
3.1,10.1,-1.6199625177587514e-13
3.1,10.6,-1.5464563651204833e-13
3.1,11.1,-1.4418514555967942e-13
3.1,11.6,-1.3429008655068183e-13
3.6,-11.9,1.0025108355973004e-12
3.6,-11.4,9.807417057775057e-13
3.6,-10.9,9.496429488920847e-13
3.6,-10.4,9.097799968844087e-13
3.6,-9.9,8.580429740659354e-13
3.6,-9.4,7.921701526631799e-13
3.6,-8.9,7.124442486478278e-13
3.6,-8.4,6.18017114104822e-13
3.6,-7.9,5.043652934871924e-13
3.6,-7.4,3.7403323054010957e-13
3.6,-6.9,2.2249746971660335e-13
3.6,-6.4,5.3150602676901435e-14
3.6,-5.9,-1.2891848308865456e-13
3.6,-5.4,-3.2540608341017847e-13
3.6,-4.9,-5.283961510804723e-13
3.6,-4.4,-7.214911597417684e-13
3.6,-3.9,-7.814269457391254e-13
3.6,-3.4,-1.000000000000422
3.6,-2.9,-1.0000000000003633
3.6,-2.4,-1.0000000000005513
3.6,-1.9,-1.0000000000007583
3.6,-1.4,-1.0000000000009615
3.6,-0.9,-1.0000000000011577
3.6,-0.4,-1.0000000000013387
3.6,0.1,-1.000000000001503
3.6,0.6,-1.0000000000016505
3.6,1.1,-1.0000000000017808
3.6,1.6,-1.0000000000019003
3.6,2.1,-1.00000000000201
3.6,2.6,-1.0000000000021176
3.6,3.1,-1.000000000002278
3.6,3.6,-0.8186450809532936
3.6,4.1,1.292011990603402e-13
3.6,4.6,1.4135798584282298e-15
3.6,5.1,-5.512961447870096e-14
3.6,5.6,-8.538022344906508e-14
3.6,6.1,-1.0686663729717416e-13
3.6,6.6,-1.1591354839111484e-13
3.6,7.1,-1.2382959559831292e-13
3.6,7.6,-1.2269873171157034e-13
3.6,8.1,-1.224160157398847e-13
3.6,8.6,-1.176098442212287e-13
3.6,9.1,-1.0997651298571627e-13
3.6,9.6,-1.0488762549537465e-13
3.6,10.1,-9.244812274120622e-14
3.6,10.6,-8.481479150569379e-14
3.6,11.1,-7.37888686099536e-14
3.6,11.6,-6.58728214027555e-14
4.1,-11.9,1.0452009473218331e-12
4.1,-11.4,1.0155157702948402e-12
4.1,-10.9,9.759355342588497e-13
4.1,-10.4,9.253293753271191e-13
4.1,-9.9,8.597392698960494e-13
4.1,-9.4,7.819923776824967e-13
4.1,-8.9,6.864343792527483e-13
4.1,-8.4,5.739134225218613e-13
4.1,-7.9,4.444295074898354e-13
4.1,-7.4,2.968517702699282e-13
4.1,-6.9,1.3146292683382536e-13
4.1,-6.4,-5.23024547618445e-14
4.1,-5.9,-2.5076906688516793e-13
4.1,-5.4,-4.548899984422043e-13
4.1,-4.9,-6.440269834999015e-13
4.1,-4.4,-7.062244972707436e-13
4.1,-3.9,-1.0000000000003484
4.1,-3.4,-1.0000000000002873
4.1,-2.9,-1.0000000000004745
4.1,-2.4,-1.00000000000068
4.1,-1.9,-1.0000000000008875
4.1,-1.4,-1.0000000000010874
4.1,-0.9,-1.0000000000012645
4.1,-0.4,-1.0000000000014275
4.1,0.1,-1.000000000001576
4.1,0.6,-1.0000000000017044
4.1,1.1,-1.000000000001818
4.1,1.6,-1.0000000000019162
4.1,2.1,-1.0000000000020053
4.1,2.6,-1.000000000002084
4.1,3.1,-1.00000000000217
4.1,3.6,-1.0000000000023093
4.1,4.1,-0.3214330242803313
4.1,4.6,1.3542095043742442e-13
4.1,5.1,2.233456176316603e-14
4.1,5.6,-2.1203697876423447e-14
4.1,6.1,-4.1841963809475597e-14
4.1,6.6,-5.3150602676901435e-14
4.1,7.1,-5.937035405398564e-14
4.1,7.6,-5.852220613892871e-14
4.1,8.1,-5.6260478365443545e-14
4.1,8.6,-4.947529504498804e-14
4.1,9.1,-4.0711099922733013e-14
4.1,9.6,-3.336048465890622e-14
4.1,10.1,-2.6009869395079426e-14
4.1,10.6,-1.4418514555967942e-14
4.1,11.1,-4.523455546970335e-15
4.1,11.6,7.916047207198087e-15
4.6,-11.9,1.0785614319807394e-12
4.6,-11.4,1.0418083556616052e-12
4.6,-10.9,9.903540488148178e-13
4.6,-10.4,9.281565350439755e-13
4.6,-9.9,8.487133470003091e-13
4.6,-9.4,7.565479402307885e-13
4.6,-8.9,6.457232793300153e-13
4.6,-8.4,5.156739323546182e-13
4.6,-7.9,3.712060708232531e-13
4.6,-7.4,2.0355549961366507e-13
4.6,-6.9,2.233456176316603e-14
4.6,-6.4,-1.747184705017292e-13
4.6,-5.9,-3.7488137845516654e-13
4.6,-5.4,-5.657146593429775e-13
4.6,-4.9,-6.304566168589905e-13
4.6,-4.4,-1.0000000000002713
4.6,-3.9,-1.0000000000002112
4.6,-3.4,-1.0000000000004006
4.6,-2.9,-1.0000000000006055
4.6,-2.4,-1.000000000000813
4.6,-1.9,-1.0000000000010096
4.6,-1.4,-1.0000000000011917
4.6,-0.9,-1.000000000001352
4.6,-0.4,-1.000000000001501
4.6,0.1,-1.0000000000016314
4.6,0.6,-1.0000000000017455
4.6,1.1,-1.0000000000018407
4.6,1.6,-1.0000000000019242
4.6,2.1,-1.0000000000019955
4.6,2.6,-1.0000000000020561
4.6,3.1,-1.000000000002114
4.6,3.6,-1.000000000002178
4.6,4.1,-1.0000000000023013
4.6,4.6,-0.5023001138561025
4.6,5.1,1.6934686703970191e-13
4.6,5.6,6.389380960095599e-14
4.6,6.1,2.911974508362153e-14
4.6,6.6,1.187407081079713e-14
4.6,7.1,1.0177774980683253e-14
4.6,7.6,1.0743206924054547e-14
4.6,8.1,1.3004934697539713e-14
4.6,8.6,1.7811106216195695e-14
4.6,9.1,2.629258536676507e-14
4.6,9.6,3.222962077216364e-14
4.6,10.1,4.5517271441389e-14
4.6,10.6,5.456418253532967e-14
4.6,11.1,6.417652557264163e-14
4.6,11.6,7.548516444006747e-14
5.1,-11.9,1.1048540173475043e-12
5.1,-11.4,1.054813290359145e-12
5.1,-10.9,9.923330606166172e-13
5.1,-10.4,9.18261476034978e-13
5.1,-9.9,8.238343414919722e-13
5.1,-9.4,7.138578285062561e-13
5.1,-8.9,5.888973690212005e-13
5.1,-8.4,4.4131963180129333e-13
5.1,-7.9,2.7790980016698997e-13
5.1,-7.4,9.612343037311962e-14
5.1,-6.9,-9.78197262032335e-14
5.1,-6.4,-2.996789299867847e-13
5.1,-5.9,-4.907949268462814e-13
5.1,-5.4,-5.518615767303809e-13
5.1,-4.9,-1.0000000000001954
5.1,-4.4,-1.0000000000001361
5.1,-3.9,-1.000000000000326
5.1,-3.4,-1.000000000000533
5.1,-2.9,-1.0000000000007399
5.1,-2.4,-1.0000000000009344
5.1,-1.9,-1.0000000000011147
5.1,-1.4,-1.0000000000012799
5.1,-0.9,-1.0000000000014295
5.1,-0.4,-1.0000000000015579
5.1,0.1,-1.0000000000016718
5.1,0.6,-1.0000000000017704
5.1,1.1,-1.000000000001853
5.1,1.6,-1.0000000000019202
5.1,2.1,-1.0000000000019769
5.1,2.6,-1.0000000000020275
5.1,3.1,-1.0000000000020701
5.1,3.6,-1.0000000000021116
5.1,4.1,-1.00000000000216
5.1,4.6,-1.0000000000022629
5.1,5.1,-0.4537414362870619
5.1,5.6,2.1627771833951915e-13
5.1,6.1,1.2100243588145648e-13
5.1,6.6,9.018639496772105e-14
5.1,7.1,8.029133595872344e-14
5.1,7.6,7.916047207198086e-14
5.1,8.1,8.198763178883732e-14
5.1,8.6,8.707651927917896e-14
5.1,9.1,9.753701023154786e-14
5.1,9.6,1.04604909523689e-13
5.1,10.1,1.1280367270257273e-13
5.1,10.6,1.2439502754168423e-13
5.1,11.1,1.323110747488823e-13
5.1,11.6,1.4361971361630814e-13
5.6,-11.9,1.1204033957902148e-12
5.6,-11.4,1.0607503257645436e-12
5.6,-10.9,9.832861495226765e-13
5.6,-10.4,8.936651864983268e-13
5.6,-9.9,7.836886735126105e-13
5.6,-9.4,6.575973501408125e-13
5.6,-8.9,5.125640566660761e-13
5.6,-8.4,3.483060771167158e-13
5.6,-7.9,1.6906415106801627e-13
5.6,-7.4,-2.3182709678222968e-14
5.6,-6.9,-2.2362833360334593e-13
5.6,-6.4,-4.1389618254778565e-13
5.6,-5.9,-4.749628324318851e-13
5.6,-5.4,-1.0000000000001201
5.6,-4.9,-1.0000000000000566
5.6,-4.4,-1.000000000000252
5.6,-3.9,-1.0000000000004576
5.6,-3.4,-1.000000000000666
5.6,-2.9,-1.0000000000008618
5.6,-2.4,-1.0000000000010443
5.6,-1.9,-1.0000000000012088
5.6,-1.4,-1.0000000000013578
5.6,-0.9,-1.0000000000014888
5.6,-0.4,-1.0000000000016038
5.6,0.1,-1.0000000000016978
5.6,0.6,-1.000000000001782
5.6,1.1,-1.0000000000018487
5.6,1.6,-1.0000000000019051
5.6,2.1,-1.000000000001953
5.6,2.6,-1.0000000000019926
5.6,3.1,-1.0000000000020257
5.6,3.6,-1.0000000000020497
5.6,4.1,-1.000000000002078
5.6,4.6,-1.0000000000021165
5.6,5.1,-1.0000000000022171
5.6,5.6,-0.5065406811438079
5.6,6.1,2.787579480820469e-13
5.6,6.6,1.877234051992689e-13
5.6,7.1,1.5916909205901866e-13
5.6,7.6,1.5549378442710528e-13
5.6,8.1,1.5662464831384786e-13
5.6,8.6,1.574727962289048e-13
5.6,9.1,1.6708513926621675e-13
5.6,9.6,1.761320503601574e-13
5.6,10.1,1.851789614540981e-13
5.6,10.6,1.9422587254803877e-13
5.6,11.1,2.0214191975523685e-13
5.6,11.6,2.128851266792914e-13
6.1,-11.9,1.1218169756486431e-12
6.1,-11.4,1.049158970925432e-12
6.1,-10.9,9.62082451646253e-13
6.1,-10.4,8.538022344906507e-13
6.1,-9.9,7.302553548640234e-13
6.1,-9.4,5.838084815308589e-13
6.1,-8.9,4.209640818399268e-13
6.1,-8.4,2.453974634231407e-13
6.1,-7.9,5.23024547618445e-14
6.1,-7.4,-1.4899131707833542e-13
6.1,-6.9,-3.3869373407940383e-13
6.1,-6.4,-3.9778137216170384e-13
6.1,-5.9,-1.0000000000000466
6.1,-5.4,-0.9999999999999845
6.1,-4.9,-1.0000000000001736
6.1,-4.4,-1.0000000000003841
6.1,-3.9,-1.0000000000005909
6.1,-3.4,-1.0000000000007838
6.1,-2.9,-1.0000000000009677
6.1,-2.4,-1.0000000000011346
6.1,-1.9,-1.0000000000012843
6.1,-1.4,-1.0000000000014193
6.1,-0.9,-1.0000000000015306
6.1,-0.4,-1.0000000000016267
6.1,0.1,-1.0000000000017095
6.1,0.6,-1.00000000000178
6.1,1.1,-1.0000000000018388
6.1,1.6,-1.0000000000018834
6.1,2.1,-1.000000000001922
6.1,2.6,-1.0000000000019507
6.1,3.1,-1.0000000000019762
6.1,3.6,-1.000000000001994
6.1,4.1,-1.0000000000020124
6.1,4.6,-1.0000000000020306
6.1,5.1,-1.000000000002062
6.1,5.6,-1.0000000000021558
6.1,6.1,-0.9501298347563762
6.1,6.6,3.471752132299732e-13
6.1,7.1,2.5614067034719523e-13
6.1,7.6,2.3493697247077176e-13
6.1,8.1,2.3154438081054404e-13
6.1,8.6,2.321098127539153e-13
6.1,9.1,2.3663326830088565e-13
6.1,9.6,2.4454931550808376e-13
6.1,10.1,2.5387894257371006e-13
6.1,10.6,2.620777057525938e-13
6.1,11.1,2.694283210164206e-13
6.1,11.6,2.813023918272177e-13
6.6,-11.9,1.1124873485830167e-12
6.6,-11.4,1.0262589772188948e-12
6.6,-10.9,9.196750558934063e-13
6.6,-10.4,7.955627443234077e-13
6.6,-9.9,6.54770190423956e-13
6.6,-9.4,4.922085067047095e-13
6.6,-8.9,3.1777275217466605e-13
6.6,-8.4,1.2298144768325598e-13
6.6,-7.9,-7.435430055332489e-14
6.6,-7.4,-2.6236042172427945e-13
6.6,-6.9,-3.231443556366933e-13
6.6,-6.4,-0.9999999999999711
6.6,-5.9,-0.9999999999999087
6.6,-5.4,-1.0000000000000961
6.6,-4.9,-1.000000000000305
6.6,-4.4,-1.000000000000513
6.6,-3.9,-1.000000000000711
6.6,-3.4,-1.0000000000008937
6.6,-2.9,-1.0000000000010623
6.6,-2.4,-1.0000000000012101
6.6,-1.9,-1.000000000001343
6.6,-1.4,-1.000000000001459
6.6,-0.9,-1.0000000000015579
6.6,-0.4,-1.642579795493603e-12
6.6,0.1,-1.000000000001712
6.6,0.6,-1.0000000000017715
6.6,1.1,-1.000000000001818
6.6,1.6,-1.0000000000018539
6.6,2.1,-1.0000000000018832
6.6,2.6,-1.0000000000019045
6.6,3.1,-1.0000000000019214
6.6,3.6,-1.0000000000019351
6.6,4.1,-1.0000000000019438
6.6,4.6,-1.000000000001953
6.6,5.1,-1.000000000001966
6.6,5.6,-1.0000000000019926
6.6,6.1,-1.0000000000020823
6.6,6.6,-0.5091468652859376
6.6,7.1,4.2124679781161247e-13
6.6,7.6,3.336048465890622e-13
6.6,8.1,3.1183571676926747e-13
6.6,8.6,3.0929127302409666e-13
6.6,9.1,3.101394209391536e-13
6.6,9.6,3.132492966276957e-13
6.6,10.1,3.2286163966500766e-13
6.6,10.6,3.3021225492883444e-13
6.6,11.1,3.3756287019266127e-13
6.6,11.6,3.4491348545648805e-13
7.1,-11.9,1.0884564909897369e-12
7.1,-11.4,9.855478772961617e-13
7.1,-10.9,8.605874178111063e-13
7.1,-10.4,7.203602958550259e-13
7.1,-9.9,5.648665114279206e-13
7.1,-9.4,3.86472733294278e-13
7.1,-8.9,1.9846661212332346e-13
7.1,-8.4,2.5444437451708133e-15
7.1,-7.9,-1.8659254131252633e-13
7.1,-7.4,-2.448320314797694e-13
7.1,-6.9,-0.9999999999998943
7.1,-6.4,-0.999999999999834
7.1,-5.9,-1.0000000000000215
7.1,-5.4,-1.0000000000002287
7.1,-4.9,-1.0000000000004374
7.1,-4.4,-1.0000000000006348
7.1,-3.9,-1.0000000000008176
7.1,-3.4,-1.0000000000009877
7.1,-2.9,-1.0000000000011404
7.1,-2.4,-1.0000000000012705
7.1,-1.9,-1.0000000000013882
7.1,-1.4,-1.000000000001487
7.1,-0.9,-1.0000000000015725
7.1,-0.4,-1.643993375352031e-12
7.1,0.1,-1.7030810134343312e-12
7.1,0.6,-1.7491637168190914e-12
7.1,1.1,-1.7867649410532823e-12
7.1,1.6,-1.0000000000018188
7.1,2.1,-1.0000000000018414
7.1,2.6,-1.0000000000018532
7.1,3.1,-1.0000000000018687
7.1,3.6,-1.000000000001875
7.1,4.1,-1.0000000000018838
7.1,4.6,-1.000000000001882
7.1,5.1,-1.0000000000018865
7.1,5.6,-1.0000000000018954
7.1,6.1,-1.000000000001919
7.1,6.6,-1.0000000000020064
7.1,7.1,-0.5106429522994967
7.1,7.6,4.970146782233655e-13
7.1,8.1,4.093727270008153e-13
7.1,8.6,3.890171770394488e-13
7.1,9.1,3.811011298322507e-13
7.1,9.6,3.8675544926596365e-13
7.1,10.1,3.901480409261914e-13
7.1,10.6,3.9891223604844645e-13
7.1,11.1,4.034356915954168e-13
7.1,11.6,4.1304803463272873e-13
7.6,-11.9,1.0463318112085757e-12
7.6,-11.4,9.2787381907229e-13
7.6,-10.9,7.904738568330661e-13
7.6,-10.4,6.338492085192182e-13
7.6,-9.9,4.577171581590608e-13
7.6,-9.4,2.6999375295979187e-13
7.6,-8.9,7.435430055332489e-14
7.6,-8.4,-1.1252095673088709e-13
7.6,-7.9,-1.6962958301138758e-13
7.6,-7.4,-0.9999999999998234
7.6,-6.9,-0.9999999999997605
7.6,-6.4,-0.9999999999999483
7.6,-5.9,-1.0000000000001583
7.6,-5.4,-1.000000000000364
7.6,-4.9,-1.0000000000005616
7.6,-4.4,-1.0000000000007467
7.6,-3.9,-1.0000000000009135
7.6,-3.4,-1.0000000000010603
7.6,-2.9,-1.0000000000011982
7.6,-2.4,-1.0000000000013174
7.6,-1.9,-1.0000000000014173
7.6,-1.4,-1.0000000000015037
7.6,-0.9,-1.0000000000015756
7.6,-0.4,-1.6352291802297761e-12
7.6,0.1,-1.682442747501279e-12
7.6,0.6,-1.7217402675655838e-12
7.6,1.1,-1.7517081605642622e-12
7.6,1.6,-1.0000000000017746
7.6,2.1,-1.0000000000017912
7.6,2.6,-1.0000000000018054
7.6,3.1,-1.0000000000018063
7.6,3.6,-1.0000000000018139
7.6,4.1,-1.0000000000018134
7.6,4.6,-1.0000000000018134
7.6,5.1,-1.000000000001814
7.6,5.6,-1.0000000000018154
7.6,6.1,-1.000000000001819
7.6,6.6,-1.000000000001843
7.6,7.1,-1.0000000000019273
7.6,7.6,-0.6868923909885369
7.6,8.1,5.722171266917473e-13
7.6,8.6,4.857060393559397e-13
7.6,9.1,4.630887616210881e-13
7.6,9.6,4.613924657909741e-13
7.6,10.1,4.616751817626598e-13
7.6,10.6,4.645023414795163e-13
7.6,11.1,4.704393768849148e-13
7.6,11.6,4.772245602053704e-13
8.1,-11.9,9.903540488148178e-13
8.1,-11.4,8.54367666434022e-13
8.1,-10.9,6.988738820069168e-13
8.1,-10.4,5.258517073353015e-13
8.1,-9.9,3.3897645005108947e-13
8.1,-9.4,1.4446786153136508e-13
8.1,-8.9,-3.958023603599043e-14
8.1,-8.4,-9.697157828817656e-14
8.1,-7.9,-0.999999999999753
8.1,-7.4,-0.9999999999996854
8.1,-6.9,-0.9999999999998705
8.1,-6.4,-1.0000000000000804
8.1,-5.9,-1.0000000000002895
8.1,-5.4,-1.000000000000483
8.1,-4.9,-1.000000000000671
8.1,-4.4,-1.000000000000838
8.1,-3.9,-1.0000000000009894
8.1,-3.4,-1.0000000000011242
8.1,-2.9,-1.0000000000012432
8.1,-2.4,-1.0000000000013438
8.1,-1.9,-1.0000000000014317
8.1,-1.4,-1.0000000000015055
8.1,-0.9,-1.0000000000015645
8.1,-0.4,-1.614590914296724e-12
8.1,0.1,-1.6536057183893432e-12
8.1,0.6,-1.682442747501279e-12
8.1,1.1,-1.7084526168963585e-12
8.1,1.6,-1.0000000000017257
8.1,2.1,-1.0000000000017344
8.1,2.6,-1.0000000000017475
8.1,3.1,-1.00000000000175
8.1,3.6,-1.0000000000017504
8.1,4.1,-1.0000000000017486
8.1,4.6,-1.000000000001743
8.1,5.1,-1.0000000000017437
8.1,5.6,-1.000000000001738
8.1,6.1,-1.0000000000017362
8.1,6.6,-1.0000000000017393
8.1,7.1,-1.0000000000017637
8.1,7.6,-1.0000000000018472
8.1,8.1,-0.5075580733871355
8.1,8.6,6.488331550185575e-13
8.1,9.1,5.59777623937579e-13
8.1,9.6,5.388566420328412e-13
8.1,10.1,5.340504705141852e-13
8.1,10.6,5.315060267690143e-13
8.1,11.1,5.37443062174413e-13
8.1,11.6,5.425319496647546e-13
8.6,-11.9,9.162824642331785e-13
8.6,-11.4,7.633331235512441e-13
8.6,-10.9,5.951171203982847e-13
8.6,-10.4,4.085245790857584e-13
8.6,-9.9,2.1627771833951915e-13
8.6,-9.4,2.996789299867847e-14
8.6,-8.9,-2.2051845791480385e-14
8.6,-8.4,-0.9999999999996763
8.6,-7.9,-0.999999999999615
8.6,-7.4,-0.999999999999799
8.6,-6.9,-1.0000000000000075
8.6,-6.4,-1.0000000000002145
8.6,-5.9,-1.000000000000411
8.6,-5.4,-1.000000000000596
8.6,-4.9,-1.000000000000765
8.6,-4.4,-1.0000000000009186
8.6,-3.9,-1.0000000000010518
8.6,-3.4,-1.000000000001173
8.6,-2.9,-1.0000000000012728
8.6,-2.4,-1.0000000000013614
8.6,-1.9,-1.000000000001434
8.6,-1.4,-1.0000000000014988
8.6,-0.9,-1.0000000000015428
8.6,-0.4,-1.5868847490715307e-12
8.6,0.1,-1.6205279497021225e-12
8.6,0.6,-1.6422970795219172e-12
8.6,1.1,-1.6612390496248556e-12
8.6,1.6,-1.0000000000016733
8.6,2.1,-1.0000000000016824
8.6,2.6,-1.0000000000016878
8.6,3.1,-1.0000000000016847
8.6,3.6,-1.0000000000016862
8.6,4.1,-1.00000000000168
8.6,4.6,-1.0000000000016773
8.6,5.1,-1.000000000001669
8.6,5.6,-1.0000000000016656
8.6,6.1,-1.0000000000016582
8.6,6.6,-1.0000000000016585
8.6,7.1,-1.000000000001661
8.6,7.6,-1.0000000000016827
8.6,8.1,-1.000000000001767
8.6,8.6,-0.4570515088314837
8.6,9.1,7.237528875152536e-13
8.6,9.6,6.366763682360747e-13
8.6,10.1,6.126455106427948e-13
8.6,10.6,6.041640314922254e-13
8.6,11.1,6.035985995488541e-13
8.6,11.6,6.067084752373962e-13
9.1,-11.9,8.275096491238857e-13
9.1,-11.4,6.598590779142976e-13
9.1,-10.9,4.741146845168282e-13
9.1,-10.4,2.8356411960070286e-13
9.1,-9.9,1.0064688592008995e-13
9.1,-9.4,4.890986310161675e-14
9.1,-8.9,-0.9999999999996084
9.1,-8.4,-0.9999999999995451
9.1,-7.9,-0.9999999999997269
9.1,-7.4,-0.9999999999999325
9.1,-6.9,-1.0000000000001446
9.1,-6.4,-1.0000000000003422
9.1,-5.9,-1.0000000000005247
9.1,-5.4,-1.0000000000006934
9.1,-4.9,-1.0000000000008455
9.1,-4.4,-1.0000000000009799
9.1,-3.9,-1.0000000000010976
9.1,-3.4,-1.000000000001203
9.1,-2.9,-1.0000000000012883
9.1,-2.4,-1.0000000000013647
9.1,-1.9,-1.0000000000014297
9.1,-1.4,-1.0000000000014786
9.1,-0.9,-1.0000000000015186
9.1,-0.4,-1.5526761164975676e-12
9.1,0.1,-1.5761415421474762e-12
9.1,0.6,-1.597910671967271e-12
9.1,1.1,-1.610632890693125e-12
9.1,1.6,-1.0000000000016178
9.1,2.1,-1.0000000000016225
9.1,2.6,-1.0000000000016245
9.1,3.1,-1.0000000000016225
9.1,3.6,-1.0000000000016196
9.1,4.1,-1.0000000000016143
9.1,4.6,-1.0000000000016076
9.1,5.1,-1.0000000000016054
9.1,5.6,-1.0000000000015947
9.1,6.1,-1.0000000000015894
9.1,6.6,-1.0000000000015812
9.1,7.1,-1.0000000000015816
9.1,7.6,-1.0000000000015863
9.1,8.1,-1.0000000000016047
9.1,8.6,-1.0000000000016909
9.1,9.1,-0.5100008870630185
9.1,9.6,7.941491644649795e-13
9.1,10.1,7.053763493556867e-13
9.1,10.6,6.807800598190354e-13
9.1,11.1,6.751257403853225e-13
9.1,11.6,6.711677167817235e-13
9.6,-11.9,7.231874555718824e-13
9.6,-11.4,5.388566420328412e-13
9.6,-10.9,3.5085052086188663e-13
9.6,-10.4,1.6906415106801627e-13
9.6,-9.9,1.1732712824954306e-13
9.6,-9.4,-0.9999999999995391
9.6,-8.9,-0.9999999999994762
9.6,-8.4,-0.9999999999996588
9.6,-7.9,-0.9999999999998652
9.6,-7.4,-1.0000000000000704
9.6,-6.9,-1.0000000000002662
9.6,-6.4,-1.000000000000452
9.6,-5.9,-1.000000000000619
9.6,-5.4,-1.0000000000007747
9.6,-4.9,-1.0000000000009082
9.6,-4.4,-1.0000000000010294
9.6,-3.9,-1.0000000000011326
9.6,-3.4,-1.0000000000012206
9.6,-2.9,-1.0000000000012945
9.6,-2.4,-1.0000000000013582
9.6,-1.9,-1.0000000000014093
9.6,-1.4,-1.0000000000014515
9.6,-0.9,-1.0000000000014857
9.6,-0.4,-1.510834152688092e-12
9.6,0.1,-1.5306242707060871e-12
9.6,0.6,-1.545042785262055e-12
9.6,1.1,-1.5540896963559957e-12
9.6,1.6,-1.0000000000015594
9.6,2.1,-1.000000000001563
9.6,2.6,-1.000000000001563
9.6,3.1,-1.0000000000015592
9.6,3.6,-1.0000000000015554
9.6,4.1,-1.0000000000015485
9.6,4.6,-1.0000000000015412
9.6,5.1,-1.0000000000015332
9.6,5.6,-1.0000000000015232
9.6,6.1,-1.0000000000015177
9.6,6.6,-1.000000000001513
9.6,7.1,-1.0000000000015055
9.6,7.6,-1.0000000000015021
9.6,8.1,-1.0000000000015057
9.6,8.6,-1.000000000001528
9.6,9.1,-1.0000000000016098
9.6,9.6,-1.1875634907104717
9.6,10.1,8.63980009471334e-13
9.6,10.6,7.72945466588556e-13
9.6,11.1,7.486318930235904e-13
9.6,11.6,7.384541180429072e-13
10.1,-11.9,5.990751440018838e-13
10.1,-11.4,4.1587519434958517e-13
10.1,-10.9,2.3578512038582873e-13
10.1,-10.4,1.8602710936915502e-13
10.1,-9.9,-0.9999999999994744
10.1,-9.4,-0.9999999999994108
10.1,-8.9,-0.9999999999995912
10.1,-8.4,-0.9999999999997962
10.1,-7.9,-0.9999999999999998
10.1,-7.4,-1.0000000000001943
10.1,-6.9,-1.0000000000003786
10.1,-6.4,-1.0000000000005491
10.1,-5.9,-1.0000000000007014
10.1,-5.4,-1.0000000000008389
10.1,-4.9,-1.0000000000009572
10.1,-4.4,-1.0000000000010607
10.1,-3.9,-1.0000000000011495
10.1,-3.4,-1.0000000000012246
10.1,-2.9,-1.0000000000012874
10.1,-2.4,-1.0000000000013438
10.1,-1.9,-1.0000000000013816
10.1,-1.4,-1.0000000000014135
10.1,-0.9,-1.000000000001445
10.1,-0.4,-1.4650341652750173e-12
10.1,0.1,-1.478887247887614e-12
10.1,0.6,-1.490761318698411e-12
10.1,1.1,-1.495567490217067e-12
10.1,1.6,-1.0000000000014988
10.1,2.1,-1.000000000001498
10.1,2.6,-1.0000000000014972
10.1,3.1,-1.0000000000014932
10.1,3.6,-1.000000000001488
10.1,4.1,-1.0000000000014806
10.1,4.6,-1.0000000000014742
10.1,5.1,-1.000000000001466
10.1,5.6,-1.000000000001456
10.1,6.1,-1.0000000000014486
10.1,6.6,-1.0000000000014364
10.1,7.1,-1.000000000001433
10.1,7.6,-1.000000000001431
10.1,8.1,-1.0000000000014289
10.1,8.6,-1.0000000000014302
10.1,9.1,-1.0000000000014537
10.1,9.6,-1.0000000000015397
10.1,10.1,-0.01670840062996526
10.1,10.6,9.292873989307183e-13
10.1,11.1,8.385355720196259e-13
10.1,11.6,8.142219984546603e-13
10.6,-11.9,4.772245602053704e-13
10.6,-11.4,3.008097938735273e-13
10.6,-10.9,2.521826467435962e-13
10.6,-10.4,-0.9999999999994089
10.6,-9.9,-0.9999999999993419
10.6,-9.4,-0.9999999999995217
10.6,-8.9,-0.9999999999997278
10.6,-8.4,-0.9999999999999338
10.6,-7.9,-1.0000000000001272
10.6,-7.4,-1.000000000000313
10.6,-6.9,-1.000000000000481
10.6,-6.4,-1.0000000000006324
10.6,-5.9,-1.0000000000007676
10.6,-5.4,-1.0000000000008884
10.6,-4.9,-1.0000000000009919
10.6,-4.4,-1.0000000000010794
10.6,-3.9,-1.000000000001158
10.6,-3.4,-1.0000000000012186
10.6,-2.9,-1.0000000000012719
10.6,-2.4,-1.0000000000013178
10.6,-1.9,-1.0000000000013505
10.6,-1.4,-1.0000000000013773
10.6,-0.9,-1.0000000000014
10.6,-0.4,-1.4164070181450861e-12
10.6,0.1,-1.4265847931257693e-12
10.6,0.6,-1.4328045445028536e-12
10.6,1.1,-1.436479852134767e-12
10.6,1.6,-1.0000000000014369
10.6,2.1,-1.0000000000014364
10.6,2.6,-1.0000000000014333
10.6,3.1,-1.0000000000014284
10.6,3.6,-1.0000000000014224
10.6,4.1,-1.0000000000014158
10.6,4.6,-1.0000000000014033
10.6,5.1,-1.000000000001396
10.6,5.6,-1.0000000000013904
10.6,6.1,-1.000000000001377
10.6,6.6,-1.0000000000013707
10.6,7.1,-1.000000000001364
10.6,7.6,-1.0000000000013578
10.6,8.1,-1.000000000001353
10.6,8.6,-1.00000000000135
10.6,9.1,-1.0000000000013585
10.6,9.6,-1.0000000000013813
10.6,10.1,-1.000000000001467
10.6,10.6,-1.0102623425555974
10.6,11.1,9.920503446449317e-13
10.6,11.6,9.044083934223814e-13
11.1,-11.9,3.6272459167268374e-13
11.1,-11.4,3.1777275217466605e-13
11.1,-10.9,-0.999999999999349
11.1,-10.4,-0.9999999999992802
11.1,-9.9,-0.9999999999994598
11.1,-9.4,-0.9999999999996619
11.1,-8.9,-0.9999999999998649
11.1,-8.4,-1.0000000000000613
11.1,-7.9,-1.000000000000245
11.1,-7.4,-1.0000000000004114
11.1,-6.9,-1.0000000000005624
11.1,-6.4,-1.0000000000006994
11.1,-5.9,-1.0000000000008167
11.1,-5.4,-1.0000000000009235
11.1,-4.9,-1.0000000000010112
11.1,-4.4,-1.0000000000010831
11.1,-3.9,-1.0000000000011517
11.1,-3.4,-1.0000000000012075
11.1,-2.9,-1.0000000000012486
11.1,-2.4,-1.0000000000012848
11.1,-1.9,-1.0000000000013172
11.1,-1.4,-1.0000000000013325
11.1,-0.9,-1.0000000000013511
11.1,-0.4,-1.3615601196380709e-12
11.1,0.1,-1.368628018930212e-12
11.1,0.6,-1.3731514744771824e-12
11.1,1.1,-1.3759786341940388e-12
11.1,1.6,-1.0000000000013722
11.1,2.1,-1.0000000000013718
11.1,2.6,-1.000000000001366
11.1,3.1,-1.0000000000013616
11.1,3.6,-1.0000000000013545
11.1,4.1,-1.000000000001346
11.1,4.6,-1.0000000000013387
11.1,5.1,-1.000000000001328
11.1,5.6,-1.000000000001322
11.1,6.1,-1.0000000000013132
11.1,6.6,-1.0000000000013043
11.1,7.1,-1.0000000000012983
11.1,7.6,-1.000000000001289
11.1,8.1,-1.000000000001283
11.1,8.6,-1.000000000001279
11.1,9.1,-1.0000000000012796
11.1,9.6,-1.000000000001288
11.1,10.1,-1.0000000000013107
11.1,10.6,-1.0000000000013975
11.1,11.1,-0.509765465271975
11.1,11.6,1.0550960063308306e-12
11.6,-11.9,3.7742582220033734e-13
11.6,-11.4,-0.9999999999992887
11.6,-10.9,-0.9999999999992152
11.6,-10.4,-0.9999999999993958
11.6,-9.9,-0.999999999999598
11.6,-9.4,-0.9999999999998009
11.6,-8.9,-0.9999999999999941
11.6,-8.4,-1.000000000000177
11.6,-7.9,-1.0000000000003442
11.6,-7.4,-1.0000000000004963
11.6,-6.9,-1.0000000000006302
11.6,-6.4,-1.000000000000751
11.6,-5.9,-1.0000000000008555
11.6,-5.4,-1.0000000000009428
11.6,-4.9,-1.0000000000010232
11.6,-4.4,-1.000000000001084
11.6,-3.9,-1.0000000000011378
11.6,-3.4,-1.0000000000011826
11.6,-2.9,-1.0000000000012168
11.6,-2.4,-1.0000000000012448
11.6,-1.9,-1.0000000000012663
11.6,-1.4,-1.000000000001286
11.6,-0.9,-1.0000000000012976
11.6,-0.4,-1.3052996412726273e-12
11.6,0.1,-1.3109539607063403e-12
11.6,0.6,-1.3112366766780258e-12
11.6,1.1,-1.3086922329328552e-12
11.6,1.6,-1.00000000000131
11.6,2.1,-1.0000000000013054
11.6,2.6,-1.0000000000012996
11.6,3.1,-1.0000000000012954
11.6,3.6,-1.0000000000012856
11.6,4.1,-1.0000000000012805
11.6,4.6,-1.0000000000012736
11.6,5.1,-1.0000000000012654
11.6,5.6,-1.000000000001255
11.6,6.1,-1.0000000000012466
11.6,6.6,-1.0000000000012381
11.6,7.1,-1.0000000000012308
11.6,7.6,-1.0000000000012248
11.6,8.1,-1.000000000001216
11.6,8.6,-1.0000000000012117
11.6,9.1,-1.0000000000012104
11.6,9.6,-1.0000000000012101
11.6,10.1,-1.0000000000012186
11.6,10.6,-1.0000000000012412
11.6,11.1,-1.0000000000013314
11.6,11.6,-1.0060887225901547
