deltaB,deltaAB,C
-12.0,-10.5,-1.0000000000000013
0.0,-8.5,-0.9999999999999986
-12.0,-12.0,3.025060897036412e-14
0.0,-7.0,-2.0000000000000004
0.0,-10.0,3.5931364003968535e-15
-12.0,-9.0,-1.0
0.0,-11.5,2.0000000000000013
-12.0,-7.5,-1.0000000000000007
-11.5,-10.5,-3.392591660227751e-15
-11.5,-12.0,6.219751377084211e-15
0.5,-8.5,5.654319433712919e-16
0.5,-7.0,0.0
0.5,-10.0,2.8271597168564595e-15
0.5,-11.5,1.6962958301138756e-15
-11.5,-9.0,-1.0000000000000007
-11.5,-7.5,-1.0000000000000009
-11.0,-10.5,-9.612343037311962e-15
1.0,-7.0,8.481479150569378e-16
1.0,-11.5,0.0
1.0,-10.0,8.481479150569378e-16
1.0,-8.5,3.675307631913397e-15
-11.0,-12.0,4.523455546970335e-15
-11.0,-9.0,-1.999999999999999
-11.0,-7.5,-1.0
-10.5,-10.5,3.081604091373541e-14
1.5,-10.0,1.4135798584282298e-15
1.5,-7.0,1.9790118017995217e-15
1.5,-11.5,3.1098756885421053e-15
-10.5,-9.0,-1.0000000000000007
1.5,-8.5,2.8271597168564595e-15
-10.5,-12.0,1.0000000000000053
-10.5,-7.5,-0.9999999999999998
2.0,-10.0,4.523455546970335e-15
2.0,-11.5,1.9790118017995217e-15
-10.0,-10.5,1.0000000000000084
2.0,-7.0,2.8271597168564594e-16
2.0,-8.5,8.481479150569378e-16
-10.0,-12.0,2.2617277734851675e-15
-10.0,-7.5,-0.9999999999999972
-10.0,-9.0,-1.0000000000000009
2.5,-11.5,3.1098756885421053e-15
-9.5,-10.5,3.1098756885421053e-15
2.5,-10.0,0.0
2.5,-8.5,8.481479150569378e-16
2.5,-7.0,1.9790118017995217e-15
-9.5,-12.0,5.654319433712919e-16
-9.5,-9.0,-1.000000000000005
-9.5,-7.5,-1.000000000000002
3.0,-11.5,2.8271597168564595e-15
-9.0,-10.5,1.0000000000000033
3.0,-10.0,1.4135798584282298e-15
3.0,-8.5,2.8271597168564594e-16
3.0,-7.0,5.654319433712919e-16
-9.0,-12.0,2.8271597168564594e-16
-9.0,-9.0,2.996789299867847e-14
-9.0,-7.5,-1.000000000000002
3.5,-11.5,8.481479150569378e-16
-8.5,-10.5,1.4135798584282298e-15
3.5,-10.0,-1.4135798584282298e-15
3.5,-7.0,1.4135798584282298e-15
-8.5,-12.0,2.8271597168564594e-16
3.5,-8.5,0.0
-8.5,-9.0,7.916047207198087e-15
-8.5,-7.5,-1.000000000000003
4.0,-10.0,1.9790118017995217e-15
4.0,-11.5,2.5444437451708133e-15
-8.0,-10.5,3.392591660227751e-15
4.0,-7.0,1.9790118017995217e-15
4.0,-8.5,1.6962958301138756e-15
-8.0,-12.0,-1.1308638867425838e-15
-8.0,-7.5,-1.0000000000000073
-8.0,-9.0,1.0000000000000042
4.5,-10.0,1.1308638867425838e-15
4.5,-8.5,5.654319433712919e-16
-7.5,-10.5,5.654319433712919e-16
4.5,-7.0,2.8271597168564594e-16
4.5,-11.5,1.9790118017995217e-15
-7.5,-12.0,-1.6962958301138756e-15
-7.5,-7.5,2.855431314025024e-14
-7.5,-9.0,3.392591660227751e-15
5.0,-8.5,2.8271597168564594e-16
5.0,-10.0,4.240739575284689e-15
5.0,-11.5,2.2617277734851675e-15
-7.0,-10.5,-2.8271597168564594e-16
5.0,-7.0,5.654319433712919e-16
-7.0,-9.0,-2.8271597168564594e-16
-7.0,-7.5,8.764195122255024e-15
-7.0,-12.0,-1.6962958301138756e-15
5.5,-10.0,2.5444437451708133e-15
5.5,-8.5,-8.481479150569378e-16
-6.5,-10.5,1.4135798584282298e-15
5.5,-7.0,-5.654319433712919e-16
5.5,-11.5,1.6962958301138756e-15
-6.5,-9.0,3.9580236035990435e-15
-6.5,-7.5,1.0000000000000049
-6.5,-12.0,-1.6962958301138756e-15
6.0,-10.0,8.481479150569378e-16
6.0,-8.5,-2.8271597168564594e-16
-6.0,-10.5,-8.481479150569378e-16
6.0,-11.5,-2.8271597168564594e-16
-6.0,-9.0,2.8271597168564594e-16
6.0,-7.0,-0.9999999999999999
-6.0,-12.0,-1.4135798584282298e-15
-6.0,-7.5,2.8271597168564595e-15
6.5,-10.0,5.654319433712919e-16
6.5,-8.5,1.1308638867425838e-15
-5.5,-10.5,-2.8271597168564594e-16
6.5,-11.5,2.8271597168564595e-15
-5.5,-12.0,-8.481479150569378e-16
6.5,-7.0,-1.0000000000000002
-5.5,-9.0,-2.8271597168564594e-16
-5.5,-7.5,-2.8271597168564594e-16
7.0,-10.0,-2.8271597168564595e-15
7.0,-8.5,-0.9999999999999996
-5.0,-10.5,-1.1308638867425838e-15
7.0,-11.5,3.1098756885421053e-15
-5.0,-12.0,-8.481479150569378e-16
-5.0,-9.0,-1.4135798584282298e-15
-5.0,-7.5,-5.654319433712919e-16
7.0,-7.0,3.166418882879235e-14
7.5,-10.0,-2.8271597168564594e-16
7.5,-8.5,2.8271597168564594e-16
-4.5,-10.5,8.481479150569378e-16
-4.5,-12.0,-1.6962958301138756e-15
7.5,-11.5,1.9790118017995217e-15
-4.5,-7.5,0.0
-4.5,-9.0,5.654319433712919e-16
7.5,-7.0,1.0000000000000027
8.0,-10.0,1.6962958301138756e-15
8.0,-8.5,-2.8271597168564595e-15
-4.0,-10.5,2.8271597168564594e-16
-4.0,-12.0,-5.654319433712919e-16
8.0,-11.5,3.1098756885421053e-15
-4.0,-7.5,2.2617277734851675e-15
-4.0,-9.0,-2.8271597168564594e-16
8.0,-7.0,0.9999999999999992
8.5,-10.0,-1.000000000000001
8.5,-8.5,1.2269873171157034e-13
-3.5,-10.5,-1.1308638867425838e-15
-3.5,-12.0,-8.481479150569378e-16
8.5,-11.5,5.654319433712919e-16
-3.5,-7.5,1.0000000000000007
-3.5,-9.0,-5.654319433712919e-16
8.5,-7.0,1.0000000000000002
9.0,-10.0,2.8271597168564594e-16
9.0,-8.5,1.0000000000000049
-3.0,-10.5,-1.4135798584282298e-15
-3.0,-12.0,-2.8271597168564594e-16
-3.0,-7.5,-5.654319433712919e-16
9.0,-11.5,5.654319433712919e-16
-3.0,-9.0,-1.1308638867425838e-15
9.0,-7.0,1.0000000000000027
9.5,-10.0,-3.392591660227751e-15
9.5,-8.5,0.999999999999998
-2.5,-10.5,1.4135798584282298e-15
-2.5,-12.0,-1.1308638867425838e-15
-2.5,-7.5,0.0
9.5,-11.5,-1.1308638867425838e-15
-2.5,-9.0,-2.8271597168564594e-16
9.5,-7.0,1.0000000000000013
10.0,-10.0,1.0000000000000655
10.0,-8.5,0.0
-2.0,-12.0,-2.2617277734851675e-15
-2.0,-10.5,-5.654319433712919e-16
10.0,-11.5,-2.2617277734851675e-15
-2.0,-7.5,-1.9790118017995217e-15
-2.0,-9.0,-1.4135798584282298e-15
10.0,-7.0,1.0000000000000013
10.5,-10.0,0.9999999999999994
10.5,-8.5,1.0000000000000018
-1.5,-12.0,-5.654319433712919e-16
-1.5,-10.5,8.481479150569378e-16
10.5,-11.5,-1.1308638867425838e-15
-1.5,-7.5,8.481479150569378e-16
10.5,-7.0,1.0000000000000018
-1.5,-9.0,-1.4135798584282298e-15
11.0,-10.0,0.9999999999999998
11.0,-8.5,0.9999999999999989
-1.0,-12.0,-1.6962958301138756e-15
-1.0,-10.5,-1.4135798584282298e-15
11.0,-11.5,-3.9580236035990435e-15
-1.0,-7.5,2.8271597168564594e-16
11.0,-7.0,0.9999999999999994
-1.0,-9.0,-1.1308638867425838e-15
11.5,-8.5,0.9999999999999992
11.5,-10.0,1.0000000000000018
-0.5,-12.0,-1.6962958301138756e-15
-0.5,-10.5,-1.9790118017995217e-15
11.5,-11.5,3.4491348545648806e-14
-0.5,-9.0,0.0
-0.5,-7.5,-2.2617277734851675e-15
11.5,-7.0,0.9999999999999986
-12.0,-9.5,-1.0000000000000029
-12.0,-8.0,-1.0000000000000018
0.0,-12.0,1.0000000000000013
0.0,-10.5,2.3472293384084082e-15
-12.0,-11.0,-1.0000000000000007
0.0,-9.0,-0.999999999999998
0.0,-7.5,-1.9999999999999996
-12.0,-6.5,-1.0000000000000027
-11.5,-9.5,-2.0000000000000004
-11.5,-8.0,-0.9999999999999989
0.5,-12.0,2.8271597168564595e-15
0.5,-10.5,5.654319433712919e-16
-11.5,-11.0,-6.785183320455502e-15
0.5,-9.0,1.6962958301138756e-15
-11.5,-6.5,-0.9999999999999978
0.5,-7.5,1.6962958301138756e-15
-11.0,-9.5,-1.0000000000000038
-11.0,-8.0,-0.9999999999999992
1.0,-12.0,5.654319433712919e-16
-11.0,-11.0,2.8271597168564595e-14
1.0,-10.5,2.2617277734851675e-15
1.0,-9.0,2.2617277734851675e-15
-11.0,-6.5,-1.000000000000002
1.0,-7.5,2.8271597168564594e-16
-10.5,-9.5,-1.000000000000004
-10.5,-8.0,-1.0000000000000018
1.5,-12.0,0.0
-10.5,-11.0,1.000000000000011
1.5,-10.5,1.4135798584282298e-15
1.5,-9.0,3.9580236035990435e-15
-10.5,-6.5,-0.999999999999998
1.5,-7.5,1.9790118017995217e-15
-10.0,-9.5,-1.000000000000007
-10.0,-8.0,-1.000000000000001
2.0,-12.0,2.5444437451708133e-15
-10.0,-11.0,4.523455546970335e-15
2.0,-10.5,1.6962958301138756e-15
-10.0,-6.5,-0.9999999999999998
2.0,-9.0,2.5444437451708133e-15
2.0,-7.5,3.1098756885421053e-15
-9.5,-9.5,2.8837029111935884e-14
-9.5,-8.0,-0.9999999999999998
2.5,-12.0,1.9790118017995217e-15
-9.5,-11.0,1.4135798584282298e-15
2.5,-10.5,1.1308638867425838e-15
-9.5,-6.5,-1.0000000000000009
2.5,-9.0,-0.9999999999999978
2.5,-7.5,2.2617277734851675e-15
-9.0,-9.5,1.0000000000000098
-9.0,-8.0,-1.000000000000003
3.0,-12.0,2.8271597168564595e-15
-9.0,-11.0,2.8271597168564594e-16
3.0,-10.5,1.6962958301138756e-15
-9.0,-6.5,-1.000000000000002
3.0,-9.0,1.1308638867425838e-15
3.0,-7.5,2.2617277734851675e-15
-8.5,-9.5,4.523455546970335e-15
-8.5,-8.0,-1.0000000000000064
-8.5,-11.0,-1.0
3.5,-12.0,8.481479150569378e-16
3.5,-10.5,8.481479150569378e-16
-8.5,-6.5,-1.000000000000002
3.5,-9.0,3.392591660227751e-15
3.5,-7.5,1.9790118017995217e-15
-8.0,-9.5,1.0000000000000029
-8.0,-8.0,2.798888119687895e-14
-8.0,-11.0,1.1308638867425838e-15
4.0,-12.0,2.2617277734851675e-15
4.0,-10.5,2.8271597168564594e-16
-8.0,-6.5,-2.0000000000000018
4.0,-9.0,1.6962958301138756e-15
4.0,-7.5,0.0
-7.5,-9.5,1.6962958301138756e-15
-7.5,-8.0,7.916047207198087e-15
-7.5,-11.0,5.654319433712919e-16
4.5,-12.0,1.9790118017995217e-15
4.5,-10.5,1.9790118017995217e-15
-7.5,-6.5,-1.0000000000000027
4.5,-9.0,8.481479150569378e-16
4.5,-7.5,2.8271597168564595e-15
-7.0,-9.5,2.8271597168564594e-16
-7.0,-8.0,1.0000000000000042
-7.0,-11.0,2.8271597168564594e-16
5.0,-12.0,-8.481479150569378e-16
5.0,-10.5,5.654319433712919e-16
-7.0,-6.5,-1.000000000000006
5.0,-9.0,2.8271597168564594e-16
5.0,-7.5,8.481479150569378e-16
-6.5,-9.5,2.8271597168564594e-16
-6.5,-8.0,1.1308638867425838e-15
-6.5,-11.0,-2.8271597168564594e-16
5.5,-12.0,1.1308638867425838e-15
5.5,-10.5,-2.8271597168564594e-16
-6.5,-6.5,2.8271597168564595e-14
5.5,-9.0,1.6962958301138756e-15
5.5,-7.5,2.8271597168564594e-16
-6.0,-9.5,-1.4135798584282298e-15
-6.0,-8.0,1.1308638867425838e-15
-6.0,-11.0,-8.481479150569378e-16
6.0,-12.0,1.4135798584282298e-15
6.0,-10.5,-2.8271597168564594e-16
-6.0,-6.5,7.916047207198087e-15
6.0,-7.5,-2.8271597168564594e-16
6.0,-9.0,1.6962958301138756e-15
-5.5,-9.5,-1.4135798584282298e-15
-5.5,-8.0,1.9790118017995217e-15
-5.5,-11.0,-3.675307631913397e-15
6.5,-12.0,1.9790118017995217e-15
6.5,-10.5,3.9580236035990435e-15
-5.5,-6.5,1.000000000000003
6.5,-9.0,2.8271597168564594e-16
6.5,-7.5,-1.0000000000000004
-5.0,-9.5,-2.8271597168564594e-16
-5.0,-8.0,8.481479150569378e-16
-5.0,-11.0,0.0
7.0,-12.0,1.6962958301138756e-15
7.0,-10.5,1.1308638867425838e-15
-5.0,-6.5,1.9790118017995217e-15
7.0,-9.0,-2.8271597168564594e-16
7.0,-7.5,-1.0000000000000002
-4.5,-9.5,-2.8271597168564595e-15
-4.5,-8.0,-2.8271597168564594e-16
-4.5,-11.0,-2.8271597168564594e-16
7.5,-12.0,8.481479150569378e-16
7.5,-10.5,1.9790118017995217e-15
-4.5,-6.5,-5.654319433712919e-16
7.5,-9.0,-1.000000000000001
7.5,-7.5,-9.555799842974833e-14
-4.0,-9.5,-5.654319433712919e-16
-4.0,-8.0,-0.9999999999999983
-4.0,-11.0,-5.654319433712919e-16
8.0,-12.0,1.6962958301138756e-15
8.0,-10.5,8.481479150569378e-16
-4.0,-6.5,1.1308638867425838e-15
8.0,-9.0,-1.4135798584282298e-15
8.0,-7.5,1.0000000000000022
-3.5,-9.5,-1.6962958301138756e-15
-3.5,-8.0,-2.2617277734851675e-15
-3.5,-11.0,-1.4135798584282298e-15
8.5,-12.0,1.6962958301138756e-15
8.5,-10.5,-2.8271597168564594e-16
-3.5,-6.5,2.8271597168564594e-16
8.5,-9.0,1.1308638867425838e-15
8.5,-7.5,0.9999999999999994
-3.0,-9.5,-5.654319433712919e-16
-3.0,-8.0,-1.1308638867425838e-15
-3.0,-11.0,-2.2617277734851675e-15
9.0,-10.5,-5.654319433712919e-16
9.0,-12.0,0.9999999999999984
-3.0,-6.5,-2.8271597168564594e-16
9.0,-9.0,-1.8659254131252632e-14
9.0,-7.5,2.0000000000000018
-2.5,-9.5,1.9790118017995217e-15
-2.5,-8.0,-5.654319433712919e-16
-2.5,-11.0,-8.481479150569378e-16
9.5,-10.5,-2.5444437451708133e-15
9.5,-12.0,-8.481479150569378e-16
-2.5,-6.5,8.481479150569378e-16
9.5,-9.0,1.0000000000000013
9.5,-7.5,1.000000000000003
-2.0,-9.5,-1.4135798584282298e-15
-2.0,-8.0,1.1308638867425838e-15
-2.0,-11.0,2.8271597168564594e-16
10.0,-10.5,-3.1098756885421053e-15
10.0,-12.0,-1.0000000000000007
10.0,-9.0,1.0000000000000007
-2.0,-6.5,5.654319433712919e-16
10.0,-7.5,0.9999999999999989
-1.5,-9.5,-5.654319433712919e-16
-1.5,-8.0,-1.6962958301138756e-15
-1.5,-11.0,8.481479150569378e-16
10.5,-10.5,-1.4135798584282298e-14
10.5,-12.0,-1.1308638867425838e-15
10.5,-9.0,0.9999999999999989
-1.5,-6.5,-1.9790118017995217e-15
10.5,-7.5,1.0000000000000002
-1.0,-8.0,-5.654319433712919e-16
-1.0,-9.5,-2.8271597168564594e-16
-1.0,-11.0,-2.5444437451708133e-15
11.0,-10.5,1.000000000000002
11.0,-12.0,-1.4135798584282298e-15
11.0,-9.0,0.9999999999999983
-1.0,-6.5,-1.1308638867425838e-15
11.0,-7.5,1.0000000000000018
-0.5,-8.0,-2.2617277734851675e-15
-0.5,-9.5,-2.2617277734851675e-15
-0.5,-11.0,-2.5444437451708133e-15
11.5,-10.5,1.0
11.5,-12.0,-8.481479150569378e-16
11.5,-9.0,0.9999999999999998
-0.5,-6.5,-4.240739575284689e-15
11.5,-7.5,1.0000000000000007
0.0,-8.0,-0.9999999999999969
0.0,-9.5,3.5235099998993208e-15
0.0,-11.0,1.000000000000001
-12.0,-10.0,-1.000000000000002
-12.0,-11.5,-1.0000000000000093
-12.0,-8.5,-8.481479150569378e-16
0.0,-6.5,-1.9999999999999991
-12.0,-7.0,-0.9999999999999958
0.5,-8.0,1.9790118017995217e-15
0.5,-9.5,8.481479150569378e-16
0.5,-11.0,1.1308638867425838e-15
-11.5,-10.0,-1.0000000000000013
-11.5,-11.5,3.1098756885421056e-14
-11.5,-8.5,-1.000000000000001
0.5,-6.5,-5.654319433712919e-16
-11.5,-7.0,-1.000000000000002
1.0,-9.5,1.6962958301138756e-15
1.0,-8.0,3.675307631913397e-15
1.0,-11.0,5.654319433712919e-16
-11.0,-10.0,-2.8271597168564595e-15
-11.0,-11.5,1.0000000000000089
-11.0,-8.5,-1.0000000000000009
1.0,-6.5,3.1098756885421053e-15
-11.0,-7.0,-0.9999999999999983
1.5,-9.5,2.2617277734851675e-15
1.5,-8.0,3.675307631913397e-15
1.5,-11.0,1.1308638867425838e-15
-10.5,-10.0,-1.0000000000000049
-10.5,-11.5,5.371603462027273e-15
-10.5,-8.5,-1.000000000000003
1.5,-6.5,2.2617277734851675e-15
-10.5,-7.0,-0.9999999999999998
2.0,-9.5,1.4135798584282298e-15
2.0,-8.0,1.1308638867425838e-15
2.0,-11.0,1.4135798584282298e-15
-10.0,-10.0,2.9402461055307175e-14
-10.0,-11.5,1.000000000000003
-10.0,-8.5,-1.0000000000000018
2.0,-6.5,-2.8271597168564594e-16
-10.0,-7.0,-1.0000000000000038
2.5,-9.5,2.5444437451708133e-15
2.5,-8.0,8.481479150569378e-16
2.5,-11.0,1.6962958301138756e-15
-9.5,-10.0,1.0000000000000089
-9.5,-11.5,1.1308638867425838e-15
-9.5,-8.5,-1.0000000000000018
2.5,-6.5,0.0
-9.5,-7.0,-0.9999999999999994
3.0,-9.5,2.8271597168564595e-15
3.0,-8.0,8.481479150569378e-16
3.0,-11.0,2.2617277734851675e-15
-9.0,-11.5,1.1308638867425838e-15
-9.0,-10.0,3.392591660227751e-15
-9.0,-8.5,-1.0000000000000082
3.0,-6.5,2.8271597168564594e-16
-9.0,-7.0,-1.0000000000000033
3.5,-9.5,1.4135798584282298e-15
3.5,-8.0,-1.999999999999999
3.5,-11.0,8.481479150569378e-16
-8.5,-10.0,1.0000000000000029
-8.5,-8.5,2.798888119687895e-14
-8.5,-11.5,2.2617277734851675e-15
3.5,-6.5,1.6962958301138756e-15
-8.5,-7.0,-2.000000000000003
4.0,-9.5,8.481479150569378e-16
4.0,-8.0,8.481479150569378e-16
4.0,-11.0,5.654319433712919e-16
-8.0,-10.0,1.1308638867425838e-15
-8.0,-11.5,-5.654319433712919e-16
-8.0,-8.5,7.067899292141149e-15
4.0,-6.5,-5.654319433712919e-16
-8.0,-7.0,-1.0000000000000038
4.5,-9.5,1.1308638867425838e-15
4.5,-8.0,1.1308638867425838e-15
4.5,-11.0,1.4135798584282298e-15
-7.5,-11.5,-8.481479150569378e-16
-7.5,-10.0,1.4135798584282298e-15
-7.5,-8.5,1.0000000000000044
4.5,-6.5,1.9790118017995217e-15
-7.5,-7.0,-1.0000000000000062
5.0,-9.5,0.0
5.0,-8.0,2.8271597168564594e-16
5.0,-11.0,-8.481479150569378e-16
-7.0,-11.5,1.9790118017995217e-15
-7.0,-10.0,1.4135798584282298e-15
-7.0,-8.5,4.240739575284689e-15
5.0,-6.5,-8.481479150569378e-16
-7.0,-7.0,2.8837029111935884e-14
5.5,-9.5,5.654319433712919e-16
5.5,-8.0,2.2617277734851675e-15
5.5,-11.0,1.1308638867425838e-15
-6.5,-11.5,-1.9790118017995217e-15
-6.5,-8.5,1.4135798584282298e-15
-6.5,-10.0,-8.481479150569378e-16
5.5,-6.5,-0.9999999999999988
-6.5,-7.0,7.350615263826794e-15
6.0,-9.5,1.4135798584282298e-15
6.0,-8.0,2.2617277734851675e-15
6.0,-11.0,-8.481479150569378e-16
-6.0,-11.5,2.8271597168564594e-16
-6.0,-10.0,-5.654319433712919e-16
-6.0,-8.5,1.6962958301138756e-15
6.0,-6.5,-0.9999999999999994
-6.0,-7.0,1.0000000000000049
6.5,-9.5,-5.654319433712919e-16
6.5,-8.0,-8.481479150569378e-16
6.5,-11.0,2.8271597168564594e-16
-5.5,-11.5,-1.6962958301138756e-15
-5.5,-8.5,1.1308638867425838e-15
-5.5,-10.0,1.6962958301138756e-15
6.5,-6.5,-3.3925916602277514e-14
-5.5,-7.0,1.4135798584282298e-15
7.0,-9.5,-5.654319433712919e-16
7.0,-8.0,-2.8271597168564594e-16
7.0,-11.0,-2.8271597168564594e-16
-5.0,-11.5,2.2617277734851675e-15
-5.0,-8.5,1.4135798584282298e-15
-5.0,-10.0,-1.4135798584282298e-15
7.0,-6.5,1.0000000000000009
-5.0,-7.0,8.481479150569378e-16
7.5,-9.5,-1.1308638867425838e-15
7.5,-8.0,-1.0000000000000029
7.5,-11.0,1.1308638867425838e-15
-4.5,-11.5,-1.6962958301138756e-15
-4.5,-8.5,-5.654319433712919e-16
-4.5,-10.0,-1.1308638867425838e-15
7.5,-6.5,1.0000000000000002
-4.5,-7.0,1.0000000000000002
8.0,-9.5,-0.9999999999999983
8.0,-8.0,1.2948391503202584e-13
8.0,-11.0,0.0
-4.0,-11.5,-1.9790118017995217e-15
-4.0,-8.5,2.8271597168564594e-16
-4.0,-10.0,0.0
8.0,-6.5,1.0000000000000009
-4.0,-7.0,8.481479150569378e-16
8.5,-8.0,1.0000000000000007
8.5,-9.5,-2.8271597168564594e-16
8.5,-11.0,1.0
-3.5,-11.5,-1.1308638867425838e-15
-3.5,-8.5,-5.654319433712919e-16
-3.5,-10.0,-5.654319433712919e-16
8.5,-6.5,1.000000000000003
-3.5,-7.0,8.481479150569378e-16
9.0,-8.0,0.9999999999999998
9.0,-9.5,-2.8271597168564594e-16
9.0,-11.0,5.654319433712919e-16
-3.0,-11.5,0.9999999999999978
-3.0,-10.0,-1.9790118017995217e-15
-3.0,-8.5,-1.6962958301138756e-15
9.0,-6.5,1.000000000000002
-3.0,-7.0,-1.4135798584282298e-15
9.5,-8.0,1.9999999999999991
9.5,-9.5,-1.2326416365494164e-13
9.5,-11.0,-0.9999999999999996
-2.5,-11.5,-1.9790118017995217e-15
-2.5,-10.0,-2.2617277734851675e-15
-2.5,-8.5,-1.1308638867425838e-15
9.5,-6.5,0.9999999999999978
-2.5,-7.0,-2.8271597168564595e-15
10.0,-8.0,1.000000000000001
10.0,-9.5,0.999999999999998
10.0,-11.0,1.6962958301138756e-15
-2.0,-11.5,-1.6962958301138756e-15
-2.0,-10.0,1.9790118017995217e-15
-2.0,-8.5,2.8271597168564594e-16
10.0,-6.5,0.9999999999999969
-2.0,-7.0,-2.2617277734851675e-15
10.5,-8.0,1.000000000000001
10.5,-9.5,0.9999999999999992
-1.5,-11.5,-8.481479150569378e-16
10.5,-11.0,-8.481479150569378e-16
-1.5,-10.0,5.654319433712919e-16
-1.5,-8.5,-4.240739575284689e-15
10.5,-6.5,0.9999999999999989
-1.5,-7.0,-1.1308638867425838e-15
11.0,-9.5,2.0
11.0,-8.0,1.0000000000000002
11.0,-11.0,1.3739996223922392e-13
-1.0,-11.5,-1.9790118017995217e-15
-1.0,-10.0,-5.654319433712919e-16
-1.0,-8.5,-1.4135798584282298e-15
11.0,-6.5,1.000000000000001
-1.0,-7.0,-2.2617277734851675e-15
11.5,-9.5,0.9999999999999994
-0.5,-11.5,-1.4135798584282298e-15
11.5,-8.0,1.0000000000000002
11.5,-11.0,0.9999999999999983
-0.5,-10.0,2.8271597168564594e-16
-0.5,-8.5,-5.654319433712919e-16
11.5,-6.5,0.9999999999999992
-0.5,-7.0,-8.481479150569378e-16
-12.0,-6.0,-1.0000000000000002
0.0,-5.5,-1.999999999999999
0.0,-4.0,-0.9999999999999996
-12.0,-4.5,-0.9999999999999998
-12.0,-3.0,-1.0000000000000009
0.0,-2.5,-0.9999999999999967
-12.0,-1.5,-1.0000000000000007
0.0,-1.0,-0.9999999999999927
0.5,-5.5,8.481479150569378e-16
0.5,-4.0,4.806171518655981e-15
-11.5,-4.5,-0.9999999999999994
-11.5,-6.0,-1.0
-11.5,-3.0,-0.9999999999999994
0.5,-2.5,1.1308638867425838e-15
-11.5,-1.5,5.654319433712919e-16
0.5,-1.0,-0.9999999999999949
1.0,-4.0,8.481479150569378e-16
1.0,-5.5,3.1098756885421053e-15
-11.0,-4.5,-0.9999999999999998
-11.0,-3.0,-1.0
-11.0,-6.0,-0.9999999999999992
-11.0,-1.5,-1.0000000000000002
1.0,-1.0,1.0000000000000482
1.0,-2.5,3.9580236035990435e-15
1.5,-5.5,-1.9790118017995217e-15
1.5,-4.0,2.5444437451708133e-15
-10.5,-4.5,-1.0000000000000007
-10.5,-3.0,-0.9999999999999986
1.5,-1.0,1.000000000000005
-10.5,-6.0,-0.9999999999999992
1.5,-2.5,1.4135798584282298e-15
-10.5,-1.5,-0.9999999999999989
2.0,-5.5,-1.6962958301138756e-15
2.0,-4.0,-2.8271597168564594e-16
-10.0,-4.5,-1.9790118017995217e-15
2.0,-1.0,1.0000000000000053
-10.0,-6.0,-1.0000000000000007
-10.0,-3.0,-0.9999999999999989
-10.0,-1.5,-0.9999999999999978
2.0,-2.5,1.1308638867425838e-15
2.5,-5.5,-1.999999999999999
2.5,-4.0,1.1308638867425838e-15
-9.5,-4.5,-0.9999999999999994
-9.5,-3.0,-1.0000000000000007
-9.5,-6.0,-1.0000000000000007
2.5,-1.0,1.0000000000000029
2.5,-2.5,1.000000000000004
-9.5,-1.5,-0.9999999999999974
3.0,-5.5,2.5444437451708133e-15
3.0,-4.0,-2.8271597168564594e-16
-9.0,-4.5,-1.0000000000000027
-9.0,-3.0,-1.000000000000005
-9.0,-6.0,-1.0000000000000018
3.0,-1.0,1.0000000000000002
3.0,-2.5,2.0000000000000004
-9.0,-1.5,-1.0
3.5,-5.5,0.0
3.5,-4.0,2.8271597168564594e-16
-8.5,-4.5,-0.9999999999999994
-8.5,-6.0,-1.0000000000000042
-8.5,-3.0,-1.0000000000000007
3.5,-1.0,1.0000000000000027
3.5,-2.5,1.0
-8.5,-1.5,-1.0000000000000002
4.0,-5.5,-5.654319433712919e-16
4.0,-4.0,0.9999999999999206
-8.0,-4.5,-1.0000000000000027
4.0,-1.0,1.0000000000000013
-8.0,-6.0,-1.000000000000002
-8.0,-3.0,-0.9999999999999992
-8.0,-1.5,-1.0000000000000007
4.0,-2.5,1.0000000000000044
4.5,-5.5,-1.0000000000000002
-7.5,-4.5,-1.0000000000000022
4.5,-4.0,1.000000000000002
-7.5,-3.0,-0.9999999999999998
-7.5,-1.5,-1.0000000000000013
4.5,-2.5,1.0
-7.5,-6.0,-1.0000000000000013
4.5,-1.0,1.000000000000002
5.0,-5.5,-2.8271597168564594e-16
-7.0,-3.0,-1.000000000000001
-7.0,-4.5,-1.0000000000000029
5.0,-4.0,1.000000000000002
-7.0,-1.5,-1.0000000000000033
-7.0,-6.0,-1.000000000000004
5.0,-2.5,1.0000000000000002
5.0,-1.0,1.0000000000000022
5.5,-5.5,-2.1486413848109093e-14
-6.5,-3.0,-1.0000000000000029
5.5,-4.0,1.0000000000000018
5.5,-2.5,0.9999999999999998
-6.5,-1.5,-1.000000000000002
-6.5,-4.5,-0.9999999999999994
-6.5,-6.0,-1.0000000000000073
5.5,-1.0,1.0000000000000002
6.0,-5.5,1.0000000000000038
-6.0,-3.0,-1.0000000000000007
6.0,-4.0,1.0000000000000007
-6.0,-1.5,-1.000000000000002
-6.0,-4.5,-1.0000000000000029
6.0,-2.5,1.0000000000000013
-6.0,-6.0,2.7423449253507658e-14
6.0,-1.0,1.0
6.5,-5.5,2.0
-5.5,-3.0,-0.9999999999999994
6.5,-4.0,1.000000000000001
-5.5,-4.5,-2.0000000000000027
-5.5,-1.5,-1.0000000000000018
-5.5,-6.0,5.654319433712919e-15
6.5,-1.0,1.0
6.5,-2.5,0.9999999999999983
7.0,-5.5,0.9999999999999989
-5.0,-3.0,-1.0000000000000007
7.0,-4.0,0.9999999999999998
-5.0,-4.5,-5.654319433712919e-15
-5.0,-6.0,5.654319433712919e-15
-5.0,-1.5,-0.9999999999999998
7.0,-1.0,1.0000000000000002
7.0,-2.5,1.0000000000000029
7.5,-5.5,1.0
-4.5,-3.0,-1.0000000000000002
7.5,-4.0,1.0000000000000013
-4.5,-4.5,2.8837029111935884e-14
-4.5,-6.0,2.5444437451708133e-15
7.5,-2.5,1.0000000000000013
-4.5,-1.5,-1.0000000000000009
7.5,-1.0,1.0000000000000009
8.0,-5.5,0.9999999999999994
-4.0,-3.0,-1.000000000000004
-4.0,-6.0,1.6962958301138756e-15
-4.0,-4.5,1.00000000000001
8.0,-2.5,1.000000000000001
8.0,-4.0,1.0000000000000002
-4.0,-1.5,-0.9999999999999974
8.0,-1.0,1.0000000000000002
8.5,-5.5,1.0000000000000013
-3.5,-3.0,-1.0000000000000062
-3.5,-6.0,-8.481479150569378e-16
8.5,-1.0,1.0000000000000018
-3.5,-4.5,3.392591660227751e-15
8.5,-2.5,0.9999999999999992
-3.5,-1.5,-1.0000000000000007
8.5,-4.0,0.9999999999999998
9.0,-5.5,0.9999999999999992
-3.0,-3.0,3.025060897036412e-14
-3.0,-6.0,8.481479150569378e-16
9.0,-1.0,1.0
-3.0,-4.5,3.675307631913397e-15
9.0,-2.5,0.9999999999999994
9.0,-4.0,1.0000000000000009
-3.0,-1.5,-1.000000000000003
9.5,-5.5,1.0000000000000007
-2.5,-3.0,1.0177774980683253e-14
9.5,-2.5,0.9999999999999967
-2.5,-6.0,2.8271597168564594e-16
-2.5,-4.5,8.481479150569378e-16
9.5,-1.0,1.0000000000000007
9.5,-4.0,1.0000000000000002
-2.5,-1.5,-1.4135798584282298e-15
10.0,-5.5,1.0
-2.0,-3.0,1.1308638867425838e-15
-2.0,-4.5,2.8271597168564595e-15
-2.0,-6.0,-2.8271597168564594e-16
10.0,-1.0,0.9999999999999992
10.0,-4.0,0.9999999999999998
10.0,-2.5,1.0000000000000007
-2.0,-1.5,-2.000000000000009
10.5,-5.5,0.9999999999999992
-1.5,-3.0,1.0000000000000029
-1.5,-6.0,-1.1308638867425838e-15
10.5,-2.5,0.999999999999998
-1.5,-4.5,-8.481479150569378e-16
10.5,-1.0,0.9999999999999986
10.5,-4.0,1.000000000000002
-1.5,-1.5,2.8271597168564595e-14
11.0,-5.5,0.9999999999999986
-1.0,-3.0,-5.654319433712919e-16
-1.0,-6.0,-5.654319433712919e-16
-1.0,-4.5,1.4135798584282298e-15
11.0,-1.0,1.0000000000000002
11.0,-2.5,0.9999999999999989
-1.0,-1.5,-0.9999999999999922
11.0,-4.0,0.9999999999999998
11.5,-5.5,1.0000000000000022
-0.5,-3.0,2.8271597168564594e-16
-0.5,-6.0,0.9999999999999984
-0.5,-4.5,0.9999999999999999
11.5,-1.0,2.0
-0.5,-1.5,-0.9999999999999979
11.5,-2.5,1.0
11.5,-4.0,0.999999999999998
-12.0,-5.0,-1.0000000000000013
0.0,-3.0,-0.9999999999999959
0.0,-6.0,-1.999999999999998
-12.0,-2.0,-1.0000000000000002
-12.0,-0.5,-0.9999999999999994
0.0,-1.5,5.654319433712919e-15
0.0,-4.5,-0.9999999999999996
-12.0,-3.5,-1.0000000000000002
-11.5,-5.0,-1.0000000000000018
0.5,-3.0,2.5444437451708133e-15
0.5,-6.0,-0.9999999999999977
-11.5,-2.0,-0.9999999999999983
-11.5,-0.5,-0.9999999999999983
0.5,-1.5,8.481479150569378e-16
0.5,-4.5,2.2617277734851675e-15
-11.5,-3.5,-0.9999999999999986
-11.0,-5.0,-0.9999999999999969
1.0,-3.0,2.8271597168564594e-16
1.0,-6.0,1.4135798584282298e-15
-11.0,-2.0,-0.9999999999999989
1.0,-4.5,1.1308638867425838e-15
1.0,-1.5,4.806171518655981e-15
-11.0,-0.5,2.8271597168564594e-16
-11.0,-3.5,-0.9999999999999989
1.5,-3.0,4.523455546970335e-15
-10.5,-5.0,-1.000000000000002
1.5,-6.0,5.654319433712919e-16
-10.5,-2.0,-0.999999999999998
1.5,-4.5,1.6962958301138756e-15
1.5,-1.5,0.9999999999998663
-10.5,-3.5,-1.0000000000000013
-10.5,-0.5,-0.9999999999999986
2.0,-3.0,-1.9790118017995217e-15
-10.0,-5.0,-1.000000000000001
2.0,-6.0,2.8271597168564594e-16
-10.0,-2.0,-0.9999999999999989
2.0,-4.5,-2.8271597168564594e-16
2.0,-1.5,1.0000000000000038
-10.0,-0.5,-1.0
-10.0,-3.5,-1.0000000000000018
2.5,-3.0,-8.481479150569378e-16
-9.5,-5.0,-1.0000000000000009
2.5,-6.0,3.675307631913397e-15
-9.5,-2.0,-1.0000000000000002
2.5,-1.5,1.0000000000000022
2.5,-4.5,8.481479150569378e-16
-9.5,-3.5,-1.000000000000003
-9.5,-0.5,-0.9999999999999998
3.0,-3.0,4.523455546970335e-14
-9.0,-5.0,-1.0000000000000009
3.0,-6.0,1.1308638867425838e-15
-9.0,-2.0,-1.000000000000003
3.0,-1.5,1.000000000000001
3.0,-4.5,0.0
-9.0,-3.5,-1.0000000000000018
-9.0,-0.5,-1.0000000000000007
3.5,-3.0,2.0000000000000027
-8.5,-5.0,-1.0000000000000009
3.5,-6.0,4.240739575284689e-15
-8.5,-2.0,-1.0000000000000029
3.5,-1.5,1.0000000000000007
3.5,-4.5,2.8271597168564595e-15
-8.5,-3.5,-1.0000000000000009
-8.5,-0.5,-1.0000000000000022
4.0,-3.0,1.000000000000003
-8.0,-5.0,-1.000000000000001
4.0,-6.0,8.481479150569378e-16
-8.0,-2.0,-1.0
4.0,-4.5,-5.654319433712919e-16
4.0,-1.5,1.0000000000000042
-8.0,-3.5,-1.0000000000000018
-8.0,-0.5,-1.0
4.5,-3.0,1.0000000000000007
-7.5,-5.0,-1.0000000000000029
4.5,-6.0,1.1308638867425838e-15
-7.5,-2.0,-1.0000000000000002
4.5,-1.5,1.0000000000000013
4.5,-4.5,1.0000000000000244
-7.5,-3.5,-1.0000000000000007
-7.5,-0.5,-1.0000000000000009
5.0,-3.0,0.9999999999999994
-7.0,-5.0,-1.000000000000004
5.0,-6.0,-0.9999999999999974
-7.0,-2.0,-1.000000000000002
5.0,-4.5,1.0000000000000013
-7.0,-3.5,-1.000000000000001
5.0,-1.5,0.9999999999999998
-7.0,-0.5,-1.0000000000000018
5.5,-3.0,0.9999999999999983
-6.5,-2.0,-1.000000000000002
-6.5,-5.0,-0.9999999999999998
5.5,-6.0,-5.654319433712919e-16
5.5,-4.5,0.9999999999999994
-6.5,-3.5,-1.0000000000000009
-6.5,-0.5,-1.9999999999999987
5.5,-1.5,1.0000000000000007
6.0,-3.0,0.9999999999999998
-6.0,-2.0,-1.0000000000000002
-6.0,-5.0,-1.000000000000004
6.0,-6.0,-2.2617277734851675e-15
6.0,-4.5,0.9999999999999992
-6.0,-0.5,-2.0000000000000013
6.0,-1.5,0.9999999999999961
-6.0,-3.5,-1.0
6.5,-3.0,1.000000000000001
-5.5,-5.0,-1.0000000000000104
6.5,-6.0,1.0000000000000038
-5.5,-2.0,-0.9999999999999994
6.5,-4.5,1.0
-5.5,-0.5,-1.9999999999999996
-5.5,-3.5,-0.9999999999999998
6.5,-1.5,1.000000000000001
7.0,-6.0,2.000000000000003
7.0,-3.0,1.0000000000000009
-5.0,-2.0,-1.0000000000000007
-5.0,-5.0,3.025060897036412e-14
7.0,-4.5,1.0000000000000013
-5.0,-3.5,-1.000000000000002
-5.0,-0.5,-1.0000000000000013
7.0,-1.5,1.0000000000000007
7.5,-6.0,1.0000000000000009
7.5,-3.0,1.0000000000000009
-4.5,-5.0,1.000000000000008
7.5,-4.5,1.0
-4.5,-2.0,-1.0000000000000013
-4.5,-0.5,-2.0
7.5,-1.5,0.9999999999999986
-4.5,-3.5,-1.0000000000000064
8.0,-6.0,1.0000000000000002
8.0,-3.0,0.9999999999999998
-4.0,-5.0,6.219751377084211e-15
8.0,-4.5,1.0
8.0,-1.5,1.0000000000000013
-4.0,-3.5,-3.9580236035990435e-15
-4.0,-2.0,-1.0000000000000007
-4.0,-0.5,-1.9999999999999996
8.5,-6.0,0.9999999999999989
8.5,-3.0,1.000000000000001
8.5,-4.5,0.9999999999999994
-3.5,-5.0,1.4135798584282298e-15
8.5,-1.5,1.0
-3.5,-3.5,2.911974508362153e-14
-3.5,-2.0,-1.0000000000000009
-3.5,-0.5,-2.000000000000001
9.0,-6.0,1.0000000000000013
9.0,-4.5,0.9999999999999992
9.0,-3.0,0.9999999999999998
9.0,-1.5,1.0
-3.0,-3.5,1.0000000000000095
-3.0,-2.0,-1.000000000000001
-3.0,-5.0,0.0
-3.0,-0.5,-2.0000000000000018
9.5,-6.0,1.0000000000000009
9.5,-3.0,0.9999999999999998
9.5,-4.5,0.9999999999999986
9.5,-1.5,1.0000000000000018
-2.5,-2.0,-2.000000000000006
-2.5,-5.0,1.0000000000000007
-2.5,-0.5,-2.0000000000000004
-2.5,-3.5,5.371603462027273e-15
10.0,-6.0,0.9999999999999986
10.0,-4.5,0.9999999999999983
10.0,-3.0,1.0000000000000009
10.0,-1.5,0.9999999999999986
-2.0,-2.0,2.7706165225193304e-14
-2.0,-5.0,-2.8271597168564594e-16
-2.0,-0.5,-2.0000000000000013
-2.0,-3.5,4.523455546970335e-15
10.5,-6.0,1.000000000000001
10.5,-3.0,0.9999999999999983
10.5,-4.5,0.9999999999999989
10.5,-1.5,0.9999999999999986
-1.5,-2.0,7.633331235512441e-15
-1.5,-0.5,-2.000000000000003
-1.5,-5.0,1.000000000000001
-1.5,-3.5,1.1308638867425838e-15
11.0,-6.0,1.0000000000000018
11.0,-3.0,0.9999999999999983
11.0,-4.5,1.0000000000000009
11.0,-1.5,1.000000000000001
-1.0,-2.0,2.5444437451708133e-15
-1.0,-0.5,-8.622837136412201e-15
-1.0,-5.0,1.0000000000000009
-1.0,-3.5,1.6962958301138756e-15
11.5,-6.0,1.0
11.5,-3.0,1.0000000000000007
-0.5,-0.5,2.5444437451708134e-14
11.5,-4.5,0.9999999999999998
-0.5,-2.0,1.6962958301138756e-15
11.5,-1.5,1.000000000000001
-0.5,-5.0,1.0000000000000002
-0.5,-3.5,2.8271597168564594e-16
-12.0,-5.5,-0.9999999999999978
-12.0,-2.5,5.654319433712919e-16
0.0,-2.0,4.806171518655981e-15
0.0,-0.5,1.0000000000000082
-12.0,-4.0,-1.0000000000000007
-12.0,-1.0,-1.9999999999999984
0.0,-5.0,-1.999999999999999
0.0,-3.5,-0.9999999999999973
-11.5,-5.5,-1.0000000000000009
0.5,-2.0,2.8271597168564595e-15
-11.5,-2.5,-1.0
-11.5,-4.0,-1.0000000000000002
0.5,-5.0,2.8271597168564595e-15
-11.5,-1.0,-1.0000000000000002
0.5,-0.5,-1.9999999999999447
0.5,-3.5,1.4135798584282298e-15
-11.0,-5.5,-0.9999999999999967
1.0,-5.0,1.9790118017995217e-15
-11.0,-2.5,-0.9999999999999994
1.0,-2.0,1.1308638867425838e-15
-11.0,-1.0,-0.9999999999999989
-11.0,-4.0,-1.0
1.0,-0.5,1.0000000000000042
1.0,-3.5,2.5444437451708133e-15
-10.5,-5.5,-1.0000000000000009
1.5,-5.0,2.2617277734851675e-15
1.5,-2.0,1.6962958301138756e-15
-10.5,-2.5,-1.0000000000000002
-10.5,-1.0,-0.9999999999999998
-10.5,-4.0,-0.9999999999999998
1.5,-0.5,2.5444437451708133e-15
1.5,-3.5,1.9790118017995217e-15
-10.0,-5.5,-0.9999999999999998
2.0,-5.0,1.4135798584282298e-15
-10.0,-1.0,-0.9999999999999989
-10.0,-2.5,-1.0000000000000009
2.0,-2.0,4.721356727150287e-14
-10.0,-4.0,-1.000000000000001
2.0,-0.5,1.000000000000002
2.0,-3.5,2.2617277734851675e-15
-9.5,-5.5,-0.9999999999999998
2.5,-5.0,5.654319433712919e-16
-9.5,-2.5,-1.000000000000001
-9.5,-1.0,-0.9999999999999992
2.5,-2.0,1.0000000000000042
-9.5,-4.0,-1.0000000000000009
2.5,-0.5,1.000000000000001
2.5,-3.5,1.6962958301138756e-15
-9.0,-5.5,-1.0000000000000007
3.0,-5.0,1.1308638867425838e-15
-9.0,-2.5,-1.0000000000000018
-9.0,-1.0,8.481479150569378e-16
3.0,-2.0,1.0000000000000022
-9.0,-4.0,-1.0
3.0,-0.5,1.0000000000000038
3.0,-3.5,2.5444437451708133e-15
-8.5,-5.5,-1.0000000000000018
3.5,-5.0,-2.8271597168564594e-16
3.5,-2.0,1.000000000000002
-8.5,-2.5,-1.0
-8.5,-1.0,-1.000000000000002
-8.5,-4.0,-1.0000000000000002
3.5,-0.5,1.0000000000000033
3.5,-3.5,-9.1034542882778e-14
-8.0,-5.5,-1.0000000000000009
4.0,-5.0,-0.9999999999999996
4.0,-2.0,0.9999999999999986
-8.0,-2.5,-1.0000000000000002
-8.0,-1.0,-1.0000000000000013
4.0,-0.5,1.0000000000000018
-8.0,-4.0,-1.0000000000000033
4.0,-3.5,1.0000000000000002
-7.5,-5.5,-1.000000000000002
4.5,-2.0,1.0000000000000013
4.5,-5.0,5.654319433712919e-16
-7.5,-2.5,-1.0
-7.5,-1.0,-1.0000000000000007
4.5,-0.5,1.000000000000004
-7.5,-4.0,-1.0000000000000007
4.5,-3.5,1.000000000000003
-7.0,-5.5,-1.000000000000001
5.0,-2.0,0.9999999999999994
5.0,-5.0,-1.0743206924054547e-14
-7.0,-2.5,-1.0000000000000029
-7.0,-1.0,-0.9999999999999994
5.0,-0.5,1.0000000000000013
-7.0,-4.0,-1.0000000000000038
5.0,-3.5,0.9999999999999974
-6.5,-5.5,-1.000000000000005
5.5,-2.0,1.0
-6.5,-2.5,-1.000000000000002
5.5,-5.0,1.0000000000000038
5.5,-0.5,1.0000000000000009
-6.5,-1.0,-1.0000000000000007
-6.5,-4.0,-1.0000000000000022
5.5,-3.5,0.9999999999999998
-6.0,-5.5,0.9999999999999937
-6.0,-2.5,-1.0000000000000022
6.0,-2.0,1.0
6.0,-5.0,1.0000000000000016
6.0,-0.5,1.0000000000000007
-6.0,-1.0,-1.0
-6.0,-4.0,-1.6962958301138756e-15
6.0,-3.5,1.0000000000000029
-5.5,-5.5,2.0000000000000275
-5.5,-2.5,-1.0000000000000013
6.5,-2.0,1.0000000000000013
6.5,-0.5,0.9999999999999994
-5.5,-1.0,-1.0000000000000013
6.5,-5.0,0.9999999999999978
-5.5,-4.0,-1.0000000000000009
6.5,-3.5,1.0000000000000013
-5.0,-5.5,3.0000000000000098
-5.0,-2.5,-1.000000000000001
7.0,-2.0,1.0000000000000009
7.0,-0.5,0.9999999999999989
7.0,-5.0,1.0000000000000018
-5.0,-4.0,-2.0000000000000036
-5.0,-1.0,-1.0000000000000002
7.0,-3.5,1.0
-4.5,-5.5,2.0000000000000044
-4.5,-2.5,-1.0000000000000013
7.5,-2.0,1.0000000000000013
7.5,-0.5,0.9999999999999992
7.5,-5.0,1.0000000000000002
-4.5,-4.0,-7.350615263826794e-15
-4.5,-1.0,-1.0000000000000018
7.5,-3.5,1.0000000000000002
-4.0,-5.5,2.0000000000000044
-4.0,-2.5,-1.0
8.0,-2.0,0.9999999999999998
8.0,-0.5,1.0000000000000007
8.0,-5.0,1.0000000000000013
-4.0,-4.0,2.911974508362153e-14
8.0,-3.5,1.000000000000002
-4.0,-1.0,-0.9999999999999994
-3.5,-5.5,2.000000000000002
-3.5,-2.5,-1.0
8.5,-0.5,1.0
8.5,-2.0,0.9999999999999998
8.5,-5.0,1.0000000000000029
-3.5,-4.0,1.0000000000000089
8.5,-3.5,1.0
-3.5,-1.0,-1.0
-3.0,-5.5,1.9999999999999996
-3.0,-2.5,-1.000000000000006
9.0,-0.5,1.000000000000001
9.0,-2.0,1.0000000000000002
9.0,-5.0,1.0000000000000002
-3.0,-4.0,1.000000000000005
9.0,-3.5,1.0
-3.0,-1.0,-0.9999999999999994
-2.5,-5.5,1.9999999999999996
-2.5,-2.5,2.714073328182201e-14
9.5,-0.5,1.0000000000000007
9.5,-2.0,0.9999999999999992
-2.5,-4.0,3.1098756885421053e-15
9.5,-3.5,0.9999999999999969
9.5,-5.0,0.999999999999998
-2.5,-1.0,-1.0000000000000009
-2.0,-5.5,2.0000000000000004
-2.0,-2.5,8.198763178883733e-15
10.0,-0.5,1.0000000000000018
10.0,-2.0,1.000000000000001
-2.0,-4.0,1.0000000000000018
10.0,-3.5,1.0000000000000013
-2.0,-1.0,-1.000000000000004
10.0,-5.0,1.0000000000000013
-1.5,-5.5,1.9999999999999998
-1.5,-2.5,1.1308638867425838e-15
10.5,-0.5,1.0000000000000013
10.5,-2.0,0.9999999999999998
-1.5,-4.0,1.1308638867425838e-15
10.5,-3.5,1.000000000000003
-1.5,-1.0,-3.0000000000000044
10.5,-5.0,0.9999999999999992
-1.0,-5.5,1.0000000000000016
11.0,-0.5,0.9999999999999998
-1.0,-2.5,3.1098756885421053e-15
11.0,-2.0,0.9999999999999967
-1.0,-4.0,-5.654319433712919e-16
11.0,-3.5,1.000000000000002
-1.0,-1.0,-0.9999999999999706
11.0,-5.0,1.0000000000000029
-0.5,-5.5,1.000000000000001
11.5,-0.5,0.9999999999999986
11.5,-2.0,-5.654319433712919e-16
-0.5,-2.5,1.1308638867425838e-15
11.5,-3.5,0.9999999999999994
-0.5,-4.0,-2.8271597168564594e-16
-0.5,-1.0,-0.9999999999999923
11.5,-5.0,1.0
-12.0,0.0,-2.999999999999998
0.0,0.5,2.999999999999997
-12.0,1.5,-0.999999999999998
0.0,2.0,0.9999999999999998
-12.0,3.0,1.4135798584282298e-15
0.0,3.5,-3.392591660227751e-15
0.0,5.0,-0.9999999999999994
-12.0,4.5,-1.0000000000000007
-11.5,0.0,-2.999999999999999
0.5,0.5,2.000000000000028
-11.5,1.5,-0.9999999999999998
0.5,2.0,-1.000000000000004
-11.5,3.0,-0.9999999999999998
0.5,3.5,-2.5444437451708133e-15
0.5,5.0,-1.4135798584282298e-15
-11.5,4.5,-1.0000000000000009
-11.0,0.0,-3.0000000000000018
1.0,0.5,1.0000000000000058
-11.0,1.5,-1.0
1.0,2.0,-3.9580236035990435e-15
1.0,3.5,-1.0000000000000022
-11.0,3.0,-0.9999999999999992
1.0,5.0,2.8271597168564594e-16
-11.0,4.5,-1.0000000000000002
-10.5,0.0,-3.0000000000000004
1.5,0.5,1.000000000000002
-10.5,1.5,-1.0000000000000009
1.5,2.0,-7.633331235512441e-15
1.5,3.5,-1.0000000000000002
-10.5,3.0,-0.999999999999998
1.5,5.0,-0.9999999999999996
-10.5,4.5,-0.9999999999999998
-10.0,0.0,-2.9999999999999982
2.0,0.5,1.0000000000000033
-10.0,1.5,-0.9999999999999961
2.0,2.0,1.000000000000032
2.0,3.5,-2.2617277734851675e-15
-10.0,3.0,-0.9999999999999998
2.0,5.0,-1.1308638867425838e-15
-10.0,4.5,-1.0
-9.5,0.0,-3.9999999999999996
2.5,0.5,2.0
2.5,2.0,1.0000000000000095
-9.5,1.5,-0.9999999999999994
2.5,3.5,-6.219751377084211e-15
-9.5,3.0,-0.9999999999999967
2.5,5.0,-2.8271597168564594e-16
-9.5,4.5,-1.0
-9.0,0.0,-3.0000000000000004
3.0,0.5,1.999999999999999
3.0,2.0,1.0000000000000009
3.0,3.5,-1.0000000000000089
-9.0,1.5,-1.0
-9.0,3.0,-0.9999999999999961
3.0,5.0,0.0
-9.0,4.5,-0.9999999999999989
-8.5,0.0,-2.9999999999999982
3.5,0.5,1.9999999999999996
3.5,2.0,1.0000000000000009
3.5,3.5,1.000000000000026
-8.5,1.5,-0.9999999999999963
-8.5,3.0,-0.9999999999999954
3.5,5.0,-3.392591660227751e-15
-8.5,4.5,-0.9999999999999978
-8.0,0.0,-3.0000000000000018
4.0,0.5,1.9999999999999991
4.0,2.0,1.0000000000000018
4.0,3.5,1.0000000000000073
-8.0,1.5,-0.9999999999999978
-8.0,3.0,-0.9999999999999967
4.0,5.0,-4.240739575284689e-15
-8.0,4.5,-1.0000000000000007
-7.5,0.0,-3.0000000000000018
4.5,0.5,2.0
4.5,3.5,1.0000000000000007
-7.5,1.5,-2.0
4.5,2.0,1.0000000000000027
-7.5,3.0,-1.0000000000000002
4.5,5.0,-1.0000000000000073
-7.5,4.5,-0.9999999999999978
-7.0,0.0,-3.9999999999999996
5.0,0.5,2.0
5.0,3.5,1.0000000000000027
-7.0,1.5,-0.9999999999999969
-7.0,3.0,-0.9999999999999969
5.0,2.0,0.9999999999999992
-7.0,4.5,-0.9999999999999972
-6.5,0.0,-3.999999999999999
5.0,5.0,1.00000000000003
5.5,0.5,2.0000000000000018
5.5,3.5,0.9999999999999989
-6.5,3.0,-0.9999999999999994
-6.5,1.5,-0.9999999999999983
5.5,2.0,0.9999999999999992
-6.5,4.5,1.4135798584282298e-15
-6.0,0.0,-3.9999999999999982
5.5,5.0,1.000000000000008
6.0,0.5,0.9999999999999988
6.0,3.5,1.000000000000002
-6.0,3.0,-0.9999999999999978
6.0,2.0,1.0000000000000007
-6.0,1.5,-0.9999999999999989
-6.0,4.5,-1.0000000000000033
-5.5,0.0,-3.0000000000000004
6.5,0.5,0.9999999999999984
6.0,5.0,1.0000000000000033
6.5,3.5,0.9999999999999998
-5.5,3.0,-1.0000000000000002
6.5,2.0,0.9999999999999994
-5.5,1.5,-0.9999999999999969
-5.5,4.5,-1.0000000000000018
-5.0,0.0,-2.0000000000000004
7.0,0.5,0.9999999999999984
6.5,5.0,1.0000000000000018
7.0,3.5,0.9999999999999992
-5.0,3.0,-0.9999999999999983
-5.0,4.5,-1.0
7.0,2.0,0.9999999999999989
-5.0,1.5,-0.9999999999999983
-4.5,0.0,-1.0000000000000002
7.5,0.5,0.9999999999999986
7.0,5.0,1.000000000000001
7.5,3.5,0.9999999999999992
-4.5,3.0,-0.9999999999999998
-4.5,4.5,0.9999999999999672
-4.5,1.5,-0.9999999999999994
-4.0,0.0,-0.999999999999999
7.5,2.0,1.0000000000000009
8.0,0.5,0.9999999999999969
7.5,5.0,1.0000000000000007
8.0,3.5,0.9999999999999992
-4.0,3.0,-0.9999999999999974
-4.0,1.5,-0.9999999999999978
-4.0,4.5,1.6962958301138756e-15
-3.5,0.0,-1.0000000000000002
8.0,2.0,0.9999999999999978
8.5,0.5,0.9999999999999986
8.0,5.0,1.0000000000000002
8.5,3.5,0.9999999999999992
-3.5,3.0,-0.9999999999999992
-3.5,1.5,-0.9999999999999974
-3.0,0.0,-0.9999999999999998
8.5,2.0,0.9999999999999992
-3.5,4.5,-2.8271597168564594e-16
9.0,0.5,1.9999999999999971
8.5,5.0,1.0000000000000013
9.0,3.5,1.000000000000001
-3.0,3.0,2.000000000000009
-3.0,1.5,-0.9999999999999998
-2.5,0.0,-1.0000000000000013
9.0,2.0,1.0000000000000007
-3.0,4.5,2.8271597168564594e-16
9.5,0.5,0.9999999999999992
9.0,5.0,0.9999999999999992
9.5,3.5,0.9999999999999992
-2.5,3.0,3.675307631913397e-15
-2.5,1.5,-1.0000000000000007
-2.0,0.0,-2.0000000000000013
9.5,2.0,1.000000000000001
-2.5,4.5,1.4135798584282298e-15
10.0,0.5,1.0000000000000009
9.5,5.0,0.9999999999999994
10.0,3.5,0.9999999999999986
-2.0,3.0,1.6962958301138756e-15
-2.0,1.5,-1.0
-1.5,0.0,-1.0000000000000016
10.0,2.0,1.0000000000000002
-2.0,4.5,1.6962958301138756e-15
10.5,0.5,1.0000000000000002
10.0,5.0,0.9999999999999992
10.5,3.5,0.9999999999999983
-1.5,1.5,-1.0000000000000375
-1.5,3.0,2.0000000000000013
-1.0,0.0,0.9999999999999958
10.5,2.0,0.9999999999999989
-1.5,4.5,-2.8271597168564594e-16
11.0,0.5,0.9999999999999989
10.5,5.0,1.0000000000000009
11.0,3.5,0.9999999999999983
-1.0,1.5,-0.999999999999998
-1.0,3.0,0.0
-0.5,0.0,-2.000000000000009
11.0,2.0,0.999999999999998
-1.0,4.5,2.2617277734851675e-15
11.5,0.5,1.0
11.0,5.0,0.9999999999999998
11.5,3.5,1.0000000000000002
-0.5,1.5,1.000000000000001
-0.5,3.0,-2.2617277734851675e-15
0.0,0.0,4.9999999999999325
11.5,2.0,0.9999999999999994
-0.5,4.5,8.481479150569378e-16
-12.0,1.0,-1.0000000000000002
11.5,5.0,1.0000000000000013
-12.0,4.0,-0.9999999999999983
0.0,1.5,-3.1098756885421053e-15
0.0,3.0,0.9999999999999958
0.5,0.0,1.0000000000000113
-12.0,2.5,-0.9999999999999998
0.0,4.5,-1.0000000000000009
-11.5,1.0,-0.9999999999999974
-12.0,5.5,-0.9999999999999998
-11.5,4.0,-1.0000000000000009
0.5,1.5,-2.0000000000000013
0.5,3.0,0.0
1.0,0.0,7.916047207198087e-15
0.5,4.5,0.999999999999998
-11.5,2.5,-0.9999999999999972
-11.0,1.0,-0.9999999999999992
-11.5,5.5,-0.9999999999999992
-11.0,4.0,-0.9999999999999994
1.0,1.5,-9.329627065626316e-15
1.0,3.0,-0.9999999999999996
1.5,0.0,4.240739575284689e-15
1.0,4.5,-5.654319433712919e-16
-10.5,1.0,-0.9999999999999998
-11.0,2.5,-1.0000000000000009
-11.0,5.5,-1.0000000000000007
-10.5,4.0,-0.9999999999999994
1.5,1.5,1.0000000000000306
2.0,0.0,1.0000000000000022
1.5,3.0,-1.4135798584282298e-15
1.5,4.5,-1.000000000000003
-10.5,2.5,-0.9999999999999992
-10.0,1.0,-0.9999999999999992
-10.5,5.5,-1.0000000000000002
-10.0,4.0,-0.9999999999999963
2.0,1.5,1.000000000000008
2.5,0.0,1.0000000000000042
2.0,3.0,-4.240739575284689e-15
2.0,4.5,-1.0000000000000009
-10.0,2.5,-1.0
-9.5,1.0,-1.000000000000001
-10.0,5.5,-0.9999999999999992
-9.5,4.0,-1.0
2.5,1.5,1.000000000000006
3.0,0.0,1.0000000000000007
2.5,3.0,-7.633331235512441e-15
2.5,4.5,-5.654319433712919e-16
-9.5,2.5,-1.0000000000000007
-9.0,1.0,-0.9999999999999969
-9.5,5.5,-1.0000000000000009
-9.0,4.0,-0.9999999999999992
3.0,1.5,1.0000000000000044
3.5,0.0,1.0000000000000013
3.0,3.0,1.0000000000000286
3.0,4.5,-2.8271597168564595e-15
-9.0,2.5,-0.9999999999999978
-8.5,1.0,-0.9999999999999986
-9.0,5.5,-0.9999999999999974
-8.5,4.0,-0.9999999999999972
3.5,1.5,1.0000000000000029
4.0,0.0,1.0000000000000004
3.5,3.0,1.0000000000000095
3.5,4.5,-4.806171518655981e-15
-8.0,1.0,-0.9999999999999978
-8.5,2.5,-0.9999999999999969
-8.5,5.5,-1.000000000000001
-8.0,4.0,-0.9999999999999961
4.0,1.5,1.0000000000000013
4.5,0.0,2.0000000000000004
4.0,3.0,1.0000000000000044
4.0,4.5,-1.0000000000000093
-7.5,1.0,-0.9999999999999969
-8.0,2.5,-0.9999999999999961
-7.5,4.0,-0.9999999999999969
-8.0,5.5,-0.999999999999998
4.5,1.5,0.9999999999999994
5.0,0.0,1.0000000000000002
4.5,3.0,1.0000000000000044
4.5,4.5,1.000000000000029
-7.0,1.0,2.8271597168564594e-16
-7.5,2.5,-0.9999999999999974
-7.0,4.0,-0.9999999999999994
-7.5,5.5,-0.9999999999999983
5.0,1.5,1.0000000000000009
5.5,0.0,1.0000000000000007
5.0,3.0,1.0000000000000007
5.0,4.5,1.0000000000000095
-6.5,1.0,-0.9999999999999992
-7.0,2.5,-0.9999999999999994
-6.5,4.0,-1.0000000000000002
-7.0,5.5,-1.000000000000001
5.5,1.5,1.0000000000000009
5.5,3.0,1.0000000000000033
6.0,0.0,2.0000000000000018
5.5,4.5,1.0000000000000027
-6.0,1.0,-0.9999999999999994
-6.5,2.5,-0.9999999999999989
-6.0,4.0,-0.9999999999999989
-6.5,5.5,-0.9999999999999978
6.0,1.5,1.0000000000000009
6.0,3.0,0.999999999999998
6.5,0.0,2.0000000000000018
6.0,4.5,0.9999999999999992
-5.5,1.0,-5.654319433712919e-16
-6.0,2.5,-0.9999999999999972
-5.5,4.0,-1.0000000000000007
-6.0,5.5,8.481479150569378e-16
6.5,1.5,1.0000000000000007
6.5,3.0,1.0000000000000029
7.0,0.0,0.9999999999999998
-5.0,1.0,-0.9999999999999989
6.5,4.5,1.0000000000000018
-5.5,2.5,-0.9999999999999998
-5.0,4.0,-0.9999999999999974
-5.5,5.5,2.0000000000000306
7.0,1.5,1.9999999999999967
7.5,0.0,0.9999999999999986
7.0,3.0,1.0000000000000007
-4.5,1.0,-0.9999999999999983
7.0,4.5,1.0000000000000007
-5.0,2.5,-0.999999999999998
-4.5,4.0,-1.0000000000000009
-5.0,5.5,1.0000000000000029
7.5,1.5,0.9999999999999983
8.0,0.0,1.0000000000000002
7.5,3.0,0.9999999999999969
7.5,4.5,1.0000000000000009
-4.0,1.0,-0.9999999999999986
-4.5,2.5,-0.9999999999999983
-4.0,4.0,1.0000000000000586
-4.5,5.5,1.0000000000000033
8.0,1.5,0.9999999999999974
8.5,0.0,0.999999999999998
8.0,3.0,0.9999999999999983
8.0,4.5,1.0000000000000007
-3.5,1.0,-0.9999999999999992
-4.0,2.5,-0.999999999999998
-3.5,4.0,8.481479150569378e-16
-4.0,5.5,1.0000000000000016
8.5,1.5,1.0000000000000007
9.0,0.0,0.9999999999999992
8.5,3.0,0.9999999999999998
8.5,4.5,1.0000000000000002
-3.0,1.0,-0.9999999999999989
-3.5,2.5,-0.9999999999999989
-3.0,4.0,3.392591660227751e-15
-3.5,5.5,1.000000000000001
9.0,1.5,1.0000000000000013
9.0,3.0,1.0000000000000009
9.5,0.0,0.9999999999999984
9.0,4.5,0.9999999999999998
-2.5,1.0,-1.9999999999999991
-3.0,2.5,-1.0000000000000002
-2.5,4.0,3.675307631913397e-15
-3.0,5.5,1.000000000000001
9.5,1.5,0.9999999999999978
9.5,3.0,0.9999999999999986
10.0,0.0,0.9999999999999989
9.5,4.5,1.000000000000002
-2.0,1.0,-2.0000000000000018
-2.5,2.5,1.999999999999983
-2.0,4.0,2.5444437451708133e-15
-2.5,5.5,1.0000000000000029
10.0,1.5,0.9999999999999989
10.0,3.0,0.9999999999999963
10.5,0.0,-1.2722218725854067e-15
10.0,4.5,1.0000000000000009
-1.5,1.0,-2.0000000000000013
-2.0,2.5,3.392591660227751e-15
-1.5,4.0,1.0000000000000029
-2.0,5.5,2.0000000000000018
10.5,1.5,0.9999999999999952
10.5,3.0,0.9999999999999992
11.0,0.0,0.9999999999999973
10.5,4.5,0.9999999999999983
-1.0,1.0,-3.9999999999999525
-1.5,2.5,1.4135798584282298e-15
-1.0,4.0,2.8271597168564594e-16
-1.5,5.5,3.392591660227751e-15
11.0,1.5,1.0000000000000009
11.0,3.0,1.0000000000000002
11.5,0.0,0.9999999999999969
11.0,4.5,1.0000000000000013
-0.5,1.0,1.0000000000000016
-1.0,2.5,0.999999999999998
-0.5,4.0,-2.8271597168564594e-16
-1.0,5.5,-2.8271597168564594e-16
11.5,1.5,1.0000000000000013
11.5,3.0,1.0000000000000002
-12.0,0.5,-1.9999999999999998
11.5,4.5,0.9999999999999986
0.0,1.0,0.9999999999999963
-0.5,2.5,-1.4135798584282298e-15
0.0,4.0,-1.4135798584282298e-15
-0.5,5.5,8.481479150569378e-16
-12.0,2.0,-0.9999999999999992
-11.5,0.5,-1.9999999999999996
-12.0,3.5,-0.9999999999999983
0.5,1.0,-5.937035405398565e-15
-12.0,5.0,-0.9999999999999986
0.0,2.5,0.9999999999999978
0.5,4.0,-1.4135798584282298e-15
0.0,5.5,-1.0000000000000007
-11.5,2.0,-0.9999999999999978
-11.0,0.5,-2.0000000000000004
-11.5,3.5,-0.9999999999999972
1.0,1.0,1.0000000000000278
-11.5,5.0,-0.9999999999999972
0.5,2.5,-1.0000000000000018
1.0,4.0,-1.0000000000000027
0.5,5.5,-8.481479150569378e-16
-11.0,2.0,-0.999999999999998
-10.5,0.5,-2.0000000000000004
-11.0,3.5,-0.9999999999999967
1.5,1.0,1.0000000000000093
-11.0,5.0,-0.9999999999999949
1.0,2.5,-2.000000000000002
1.5,4.0,-1.0000000000000018
1.0,5.5,-1.4135798584282298e-15
-10.5,2.0,-0.9999999999999974
-10.0,0.5,-1.9999999999999978
-10.5,3.5,-0.9999999999999998
2.0,1.0,1.0000000000000022
-10.5,5.0,-1.0000000000000002
1.5,2.5,-2.5444437451708133e-15
2.0,4.0,2.8271597168564594e-16
1.5,5.5,-1.0000000000000004
-10.0,2.0,-0.9999999999999967
-9.5,0.5,-1.9999999999999978
-10.0,3.5,-0.9999999999999989
2.5,1.0,1.0000000000000038
-10.0,5.0,-1.0000000000000009
2.0,2.5,-8.198763178883733e-15
2.5,4.0,-1.4135798584282298e-15
2.0,5.5,-1.0000000000000018
-9.5,2.0,-0.9999999999999978
-9.0,0.5,-1.9999999999999991
-9.5,3.5,-0.9999999999999986
3.0,1.0,0.9999999999999994
-9.5,5.0,-0.9999999999999983
2.5,2.5,1.0000000000000258
3.0,4.0,-3.9580236035990435e-15
2.5,5.5,-3.392591660227751e-15
-9.0,2.0,-0.9999999999999983
-8.5,0.5,-0.9999999999999969
-9.0,3.5,-0.9999999999999998
3.5,1.0,0.9999999999999994
-9.0,5.0,-0.9999999999999978
3.0,2.5,1.0000000000000073
3.5,4.0,-1.0000000000000075
3.0,5.5,-3.392591660227751e-15
-8.5,2.0,-0.9999999999999974
-8.0,0.5,-0.9999999999999986
-8.5,3.5,-0.999999999999998
4.0,1.0,1.0000000000000009
-8.5,5.0,-0.9999999999999941
3.5,2.5,1.000000000000006
4.0,4.0,1.0000000000000309
3.5,5.5,-2.5444437451708133e-15
-8.0,2.0,-0.9999999999999989
-7.5,0.5,-0.9999999999999973
-8.0,3.5,-0.9999999999999961
4.5,1.0,1.0000000000000022
-8.0,5.0,-0.9999999999999967
4.0,2.5,1.0000000000000013
4.5,4.0,1.0000000000000038
4.0,5.5,-2.8271597168564595e-15
-7.5,2.0,-0.9999999999999978
-7.0,0.5,-1.9999999999999996
-7.5,3.5,-0.9999999999999983
5.0,1.0,-2.5444437451708133e-15
-7.5,5.0,-0.9999999999999992
4.5,2.5,1.0
5.0,4.0,1.0000000000000038
4.5,5.5,-5.088887490341627e-15
-7.0,2.0,-0.9999999999999998
-6.5,0.5,-1.9999999999999976
-7.0,3.5,-0.999999999999998
5.5,1.0,0.9999999999999989
-7.0,5.0,-0.9999999999999989
5.0,2.5,1.0000000000000018
5.5,4.0,1.000000000000001
5.0,5.5,-1.0000000000000089
-6.5,2.0,-0.9999999999999983
-6.0,0.5,-1.999999999999998
-6.5,3.5,-1.0000000000000013
6.0,1.0,0.9999999999999969
-6.5,5.0,-0.9999999999999998
5.5,2.5,1.000000000000001
6.0,4.0,1.0000000000000018
5.5,5.5,1.000000000000028
-6.0,2.0,-0.9999999999999983
-5.5,0.5,-1.9999999999999984
-6.0,3.5,-0.9999999999999969
6.5,1.0,0.9999999999999992
-6.0,5.0,-0.9999999999999989
6.0,2.5,1.0000000000000029
6.5,4.0,1.0000000000000018
6.0,5.5,1.000000000000009
-5.5,2.0,-0.9999999999999974
-5.5,3.5,-1.0000000000000009
7.0,1.0,0.0
-5.5,5.0,-1.0000000000000022
-5.0,0.5,-0.9999999999999998
6.5,2.5,1.0000000000000009
7.0,4.0,0.9999999999999986
6.5,5.5,1.000000000000006
-5.0,2.0,-0.9999999999999994
-5.0,3.5,2.2617277734851675e-15
7.5,1.0,1.0000000000000002
-5.0,5.0,1.0000000000000713
-4.5,0.5,-1.9999999999999984
7.0,2.5,0.9999999999999978
7.5,4.0,0.9999999999999989
7.0,5.5,1.0000000000000013
-4.5,2.0,-0.9999999999999972
-4.5,3.5,-0.9999999999999986
8.0,1.0,0.9999999999999992
-4.5,5.0,1.6962958301138756e-15
7.5,2.5,0.9999999999999969
-4.0,0.5,-1.999999999999999
8.0,4.0,0.9999999999999998
7.5,5.5,1.0000000000000013
-4.0,2.0,-1.9999999999999967
8.5,1.0,0.9999999999999958
-4.0,3.5,-0.9999999999999989
-4.0,5.0,5.654319433712919e-16
8.0,2.5,0.9999999999999963
-3.5,0.5,-1.999999999999998
8.5,4.0,0.9999999999999983
8.0,5.5,1.0000000000000018
-3.5,2.0,-0.9999999999999994
9.0,1.0,0.9999999999999986
-3.5,3.5,1.9999999999999805
-3.5,5.0,1.1308638867425838e-15
-3.0,0.5,-2.0000000000000013
8.5,2.5,0.999999999999998
9.0,4.0,0.9999999999999986
8.5,5.5,0.9999999999999989
-3.0,2.0,-0.9999999999999992
9.5,1.0,1.0
-3.0,5.0,-5.654319433712919e-16
-3.0,3.5,3.1098756885421053e-15
-2.5,0.5,-1.9999999999999987
9.0,2.5,1.000000000000001
9.5,4.0,0.9999999999999972
9.0,5.5,0.9999999999999998
-2.5,2.0,-1.0
10.0,1.0,1.0000000000000002
-2.5,3.5,1.6962958301138756e-15
-2.5,5.0,1.6962958301138756e-15
-2.0,0.5,-2.0
9.5,2.5,1.0000000000000018
10.0,4.0,0.9999999999999998
9.5,5.5,1.0000000000000013
-2.0,2.0,1.0000000000001141
10.5,1.0,1.0000000000000002
-2.0,3.5,3.1098756885421053e-15
-2.0,5.0,2.2617277734851675e-15
10.0,2.5,0.9999999999999967
-1.5,0.5,-1.9999999999999996
10.5,4.0,0.9999999999999998
10.0,5.5,0.9999999999999992
-1.5,2.0,1.9790118017995217e-15
11.0,1.0,0.9999999999999978
-1.5,5.0,-2.8271597168564595e-15
-1.5,3.5,5.654319433712919e-16
10.5,2.5,0.9999999999999961
-1.0,0.5,-1.0000000000000029
11.0,4.0,1.0000000000000002
10.5,5.5,0.9999999999999992
-1.0,2.0,2.0000000000000013
11.5,1.0,0.9999999999999986
-1.0,5.0,1.0000000000000002
-1.0,3.5,3.1098756885421053e-15
11.0,2.5,0.9999999999999978
-0.5,0.5,-1.7245674272824403e-14
11.5,4.0,0.9999999999999986
11.0,5.5,1.0000000000000018
-0.5,2.0,-1.6962958301138756e-15
-0.5,5.0,2.8271597168564594e-16
-0.5,3.5,1.9790118017995217e-15
-12.0,6.0,-0.9999999999999983
11.5,2.5,0.9999999999999983
0.0,6.5,-1.000000000000002
-12.0,7.5,-0.9999999999999989
11.5,5.5,1.0000000000000022
0.0,8.0,-1.000000000000002
-12.0,9.0,-1.000000000000001
-11.5,6.0,-1.000000000000001
0.0,9.5,-3.5368313335261105e-15
-12.0,10.5,-1.0000000000000013
0.5,6.5,-1.9790118017995217e-15
-11.5,7.5,-1.000000000000001
0.0,11.0,-2.681039181685924e-15
0.5,8.0,-1.4135798584282298e-15
-11.5,9.0,-0.9999999999999992
-11.0,6.0,-0.999999999999998
0.5,9.5,-3.675307631913397e-15
-11.5,10.5,-1.0000000000000009
1.0,6.5,-2.5444437451708133e-15
-11.0,7.5,-1.000000000000001
0.5,11.0,-1.9790118017995217e-15
1.0,8.0,-1.9790118017995217e-15
-11.0,9.0,-0.9999999999999961
-10.5,6.0,-1.0000000000000018
1.0,9.5,-2.8271597168564595e-15
-11.0,10.5,-1.0000000000000027
1.5,6.5,-1.4135798584282298e-15
-10.5,7.5,2.8271597168564594e-16
1.0,11.0,-1.1308638867425838e-15
1.5,8.0,-3.675307631913397e-15
-10.5,9.0,-0.9999999999999998
-10.0,6.0,-1.0000000000000009
1.5,9.5,-1.6962958301138756e-15
-10.5,10.5,1.0000000000000049
2.0,6.5,-1.000000000000001
-10.0,7.5,-1.0000000000000002
1.5,11.0,-1.1308638867425838e-15
2.0,8.0,-2.8271597168564594e-16
-10.0,9.0,-0.9999999999999986
-9.5,6.0,-1.000000000000002
2.0,9.5,-1.1308638867425838e-15
-10.0,10.5,2.5444437451708133e-15
2.5,6.5,-3.9580236035990435e-15
-9.5,7.5,-0.9999999999999998
2.5,8.0,-1.9790118017995217e-15
2.0,11.0,-2.2617277734851675e-15
-9.5,9.0,-0.9999999999999994
-9.0,6.0,-1.0000000000000002
2.5,9.5,-2.8271597168564595e-15
-9.5,10.5,1.4135798584282298e-15
3.0,6.5,-1.9790118017995217e-15
-9.0,7.5,-2.0000000000000004
3.0,8.0,8.481479150569378e-16
2.5,11.0,-1.1308638867425838e-15
-9.0,9.0,0.9999999999999621
-8.5,6.0,-5.654319433712919e-16
3.0,9.5,-1.4135798584282298e-15
-9.0,10.5,4.806171518655981e-15
-8.5,7.5,-0.9999999999999972
3.5,6.5,-1.1308638867425838e-15
3.5,8.0,-1.9790118017995217e-15
3.0,11.0,-5.654319433712919e-16
-8.5,9.0,3.9580236035990435e-15
-8.0,6.0,-0.9999999999999989
3.5,9.5,8.481479150569378e-16
-8.5,10.5,1.1308638867425838e-15
-8.0,7.5,-5.654319433712919e-16
4.0,6.5,-4.806171518655981e-15
4.0,8.0,-1.9790118017995217e-15
3.5,11.0,-2.5444437451708133e-15
-8.0,9.0,1.4135798584282298e-15
-7.5,6.0,-0.9999999999999998
4.0,9.5,-3.1098756885421053e-15
-8.0,10.5,1.1308638867425838e-15
-7.5,7.5,0.9999999999999746
4.5,6.5,-4.240739575284689e-15
4.5,8.0,2.8271597168564594e-16
4.0,11.0,-1.4135798584282298e-15
-7.5,9.0,1.1308638867425838e-15
-7.0,6.0,-0.9999999999999983
4.5,9.5,-2.2617277734851675e-15
-7.5,10.5,2.5444437451708133e-15
-7.0,7.5,1.0000000000000053
5.0,6.5,-1.9790118017995217e-15
5.0,8.0,-1.6962958301138756e-15
4.5,11.0,-2.5444437451708133e-15
-7.0,9.0,3.1098756885421053e-15
-6.5,6.0,-0.9999999999999986
5.0,9.5,-2.5444437451708133e-15
-7.0,10.5,-2.8271597168564594e-16
-6.5,7.5,2.2617277734851675e-15
5.5,6.5,-3.675307631913397e-15
5.5,8.0,-5.654319433712919e-16
5.0,11.0,-3.1098756885421053e-15
-6.5,9.0,2.8271597168564595e-15
-6.0,6.0,2.000000000000077
5.5,9.5,-1.9790118017995217e-15
-6.5,10.5,1.4135798584282298e-15
-6.0,7.5,2.5444437451708133e-15
6.0,6.5,-1.0177774980683253e-14
6.0,8.0,-1.9790118017995217e-15
5.5,11.0,-5.654319433712919e-16
-6.0,9.0,2.5444437451708133e-15
-5.5,6.0,1.0000000000000038
6.0,9.5,-1.6962958301138756e-15
-6.0,10.5,1.9790118017995217e-15
-5.5,7.5,1.1308638867425838e-15
6.5,6.5,1.000000000000027
6.0,11.0,-2.8271597168564594e-16
6.5,8.0,-2.8271597168564595e-15
-5.5,9.0,-5.654319433712919e-16
-5.0,6.0,1.000000000000004
6.5,9.5,-3.392591660227751e-15
-5.5,10.5,2.8271597168564594e-16
-5.0,7.5,3.675307631913397e-15
7.0,6.5,1.0000000000000084
6.5,11.0,-3.1098756885421053e-15
7.0,8.0,-3.1098756885421053e-15
-5.0,9.0,1.6962958301138756e-15
-4.5,6.0,1.0000000000000024
7.0,9.5,-1.9790118017995217e-15
-5.0,10.5,2.2617277734851675e-15
-4.5,7.5,8.481479150569378e-16
7.5,6.5,3.9580236035990435e-15
7.0,11.0,-4.806171518655981e-15
7.5,8.0,-8.764195122255024e-15
-4.5,9.0,5.654319433712919e-16
-4.0,6.0,1.0000000000000013
7.5,9.5,-2.8271597168564595e-15
-4.5,10.5,2.8271597168564594e-16
-4.0,7.5,1.6962958301138756e-15
8.0,6.5,1.0000000000000013
7.5,11.0,-2.8271597168564595e-15
8.0,8.0,2.714073328182201e-14
-4.0,9.0,2.0000000000000018
-3.5,6.0,1.0000000000000013
8.0,9.5,-1.0000000000000022
-4.0,10.5,5.654319433712919e-16
-3.5,7.5,2.5444437451708133e-15
8.5,6.5,1.0000000000000013
8.0,11.0,-3.1098756885421053e-15
8.5,8.0,1.0000000000000084
-3.5,9.0,5.654319433712919e-16
-3.0,6.0,1.0
8.5,9.5,-5.937035405398565e-15
-3.5,10.5,1.9790118017995217e-15
-3.0,7.5,1.1308638867425838e-15
9.0,6.5,0.999999999999998
8.5,11.0,-2.2617277734851675e-15
9.0,8.0,1.000000000000003
-3.0,9.0,2.5444437451708133e-15
-2.5,6.0,1.0000000000000009
9.0,9.5,-7.350615263826794e-15
-3.0,10.5,8.481479150569378e-16
-2.5,7.5,2.8271597168564594e-16
9.5,6.5,1.0000000000000033
9.0,11.0,-1.0000000000000013
9.5,8.0,1.0000000000000064
-2.5,9.0,4.240739575284689e-15
-2.0,6.0,1.0000000000000013
9.5,9.5,1.0000000000000258
-2.5,10.5,1.6962958301138756e-15
-2.0,7.5,2.8271597168564594e-16
10.0,6.5,1.0000000000000042
9.5,11.0,-1.9790118017995217e-15
10.0,8.0,1.0000000000000042
-2.0,9.0,1.9790118017995217e-15
-1.5,6.0,1.0000000000000022
10.0,9.5,1.000000000000007
-2.0,10.5,1.1308638867425838e-15
-1.5,7.5,1.6962958301138756e-15
10.5,6.5,1.0000000000000033
10.0,11.0,-3.392591660227751e-15
10.5,8.0,1.000000000000001
-1.5,9.0,3.392591660227751e-15
-1.0,6.0,1.0000000000000004
10.5,9.5,1.0000000000000058
-1.5,10.5,5.371603462027273e-15
-1.0,7.5,1.1308638867425838e-15
11.0,6.5,1.0000000000000009
10.5,11.0,-7.067899292141149e-15
11.0,8.0,1.0000000000000013
-1.0,9.0,2.2617277734851675e-15
-0.5,6.0,-5.654319433712919e-16
11.0,9.5,2.000000000000002
-1.0,10.5,8.481479150569378e-16
-0.5,7.5,-2.8271597168564594e-16
11.5,6.5,0.9999999999999983
11.0,11.0,1.000000000000026
11.5,8.0,1.0000000000000009
-0.5,9.0,1.6962958301138756e-15
0.0,6.0,-1.0
11.5,9.5,2.0000000000000004
-0.5,10.5,2.8271597168564594e-16
0.0,7.5,-1.9999999999999991
-12.0,7.0,-1.000000000000001
11.5,11.0,1.0000000000000093
-12.0,8.5,-0.9999999999999994
0.0,9.0,-1.0000000000000029
0.5,6.0,-2.5444437451708133e-15
-12.0,10.0,-1.9999999999999971
0.0,10.5,-4.446771600548765e-17
0.5,7.5,-1.1308638867425838e-15
-11.5,7.0,-0.9999999999999989
-12.0,11.5,-0.9999999999999998
-11.5,8.5,-0.9999999999999989
0.5,9.0,-3.9580236035990435e-15
1.0,6.0,-2.8271597168564594e-16
-11.5,10.0,-1.000000000000001
0.5,10.5,-2.2617277734851675e-15
1.0,7.5,-1.9790118017995217e-15
-11.0,7.0,-0.9999999999999986
-11.5,11.5,1.0000000000000164
-11.0,8.5,-0.9999999999999967
1.0,9.0,2.8271597168564594e-16
1.5,6.0,-2.5444437451708133e-15
-11.0,10.0,-0.9999999999999994
1.0,10.5,-2.2617277734851675e-15
1.5,7.5,-1.1308638867425838e-15
-10.5,7.0,-0.9999999999999994
-11.0,11.5,1.6962958301138756e-15
-10.5,8.5,-1.0000000000000007
1.5,9.0,5.654319433712919e-16
2.0,6.0,-1.0000000000000022
-10.5,10.0,-1.000000000000001
1.5,10.5,-2.8271597168564594e-16
2.0,7.5,-1.1308638867425838e-15
-10.0,7.0,-1.0000000000000002
-10.5,11.5,-2.8271597168564594e-16
-10.0,8.5,-1.9999999999999971
2.0,9.0,-2.2617277734851675e-15
2.5,6.0,-2.5444437451708133e-15
-10.0,10.0,1.0000000000000446
2.0,10.5,-3.675307631913397e-15
2.5,7.5,2.8271597168564594e-16
-9.5,7.0,-0.9999999999999983
-10.0,11.5,1.4135798584282298e-15
-9.5,8.5,-1.000000000000003
2.5,9.0,-3.392591660227751e-15
3.0,6.0,-2.2617277734851675e-15
-9.5,10.0,1.6962958301138756e-15
2.5,10.5,-1.1308638867425838e-15
3.0,7.5,-2.2617277734851675e-15
-9.0,7.0,-0.9999999999999986
-9.5,11.5,2.5444437451708133e-15
-9.0,8.5,-0.9999999999999992
3.0,9.0,-4.240739575284689e-15
3.5,6.0,-3.1098756885421053e-15
-9.0,10.0,1.9790118017995217e-15
3.0,10.5,-1.6962958301138756e-15
3.5,7.5,-1.4135798584282298e-15
-8.5,7.0,-0.9999999999999998
-9.0,11.5,1.6962958301138756e-15
-8.5,8.5,1.0000000000000504
3.5,9.0,8.481479150569378e-16
4.0,6.0,-3.675307631913397e-15
4.0,7.5,-5.654319433712919e-16
-8.5,10.0,2.5444437451708133e-15
3.5,10.5,-2.8271597168564595e-15
-8.0,7.0,-0.9999999999999994
-8.5,11.5,1.9790118017995217e-15
-8.0,8.5,2.5444437451708133e-15
4.0,9.0,-1.1308638867425838e-15
4.5,6.0,-2.8271597168564595e-15
4.5,7.5,-1.6962958301138756e-15
4.0,10.5,-2.5444437451708133e-15
-7.5,7.0,-5.654319433712919e-16
-8.0,10.0,1.1308638867425838e-15
-8.0,11.5,-5.654319433712919e-16
-7.5,8.5,1.6962958301138756e-15
5.0,6.0,-2.2617277734851675e-15
4.5,9.0,-1.9790118017995217e-15
4.5,10.5,0.0
5.0,7.5,-1.9790118017995217e-15
-7.0,7.0,0.9999999999999684
-7.5,10.0,2.8271597168564594e-16
-7.5,11.5,0.0
-7.0,8.5,5.654319433712919e-16
5.5,6.0,-7.350615263826794e-15
5.0,9.0,-2.8271597168564595e-15
5.5,7.5,-3.675307631913397e-15
5.0,10.5,-2.8271597168564594e-16
-6.5,7.0,1.000000000000002
-7.0,11.5,0.0
-7.0,10.0,3.392591660227751e-15
-6.5,8.5,2.8271597168564594e-16
5.5,9.0,-3.392591660227751e-15
6.0,6.0,1.000000000000026
5.5,10.5,-1.9790118017995217e-15
6.0,7.5,-1.9790118017995217e-15
-6.0,7.0,4.240739575284689e-15
-6.5,11.5,-1.1308638867425838e-15
-6.5,10.0,1.1308638867425838e-15
-6.0,8.5,3.392591660227751e-15
6.0,9.0,-5.654319433712919e-16
6.5,6.0,1.0000000000000075
6.0,10.5,8.481479150569378e-16
-5.5,7.0,0.0
6.5,7.5,-4.523455546970335e-15
-6.0,11.5,1.4135798584282298e-15
-6.0,10.0,2.5444437451708133e-15
-5.5,8.5,1.4135798584282298e-15
6.5,9.0,-2.8271597168564595e-15
7.0,6.0,1.0000000000000038
6.5,10.5,-8.481479150569378e-16
7.0,7.5,-1.0460490952368899e-14
-5.0,7.0,1.9790118017995217e-15
-5.5,11.5,-2.8271597168564594e-16
-5.5,10.0,2.8271597168564594e-16
-5.0,8.5,1.4135798584282298e-15
7.0,9.0,-1.9790118017995217e-15
7.5,6.0,1.000000000000004
7.0,10.5,-1.6962958301138756e-15
7.5,7.5,2.9402461055307175e-14
-4.5,7.0,2.5444437451708133e-15
-5.0,11.5,5.654319433712919e-16
-5.0,10.0,-5.654319433712919e-16
-4.5,8.5,1.4135798584282298e-15
7.5,9.0,-1.0000000000000038
8.0,6.0,1.000000000000002
7.5,10.5,-3.392591660227751e-15
8.0,7.5,1.0000000000000089
-4.0,7.0,-1.1308638867425838e-15
-4.5,11.5,1.9790118017995217e-15
-4.5,10.0,2.5444437451708133e-15
-4.0,8.5,3.1098756885421053e-15
8.0,9.0,-5.937035405398565e-15
8.5,6.0,1.0000000000000013
8.0,10.5,-1.1308638867425838e-15
8.5,7.5,1.0000000000000007
-3.5,7.0,1.1308638867425838e-15
-4.0,11.5,1.9790118017995217e-15
-4.0,10.0,5.654319433712919e-16
-3.5,8.5,3.1098756885421053e-15
8.5,9.0,-8.481479150569379e-15
9.0,6.0,1.0000000000000018
8.5,10.5,-1.0000000000000013
9.0,7.5,1.0000000000000007
-3.0,7.0,3.675307631913397e-15
-3.5,11.5,2.2617277734851675e-15
-3.5,10.0,1.9790118017995217e-15
-3.0,8.5,2.8271597168564595e-15
9.0,9.0,1.0000000000000269
9.5,6.0,1.0000000000000002
9.0,10.5,-8.481479150569378e-16
9.5,7.5,1.0000000000000013
-2.5,7.0,1.6962958301138756e-15
-3.0,11.5,8.481479150569378e-16
-3.0,10.0,8.481479150569378e-16
-2.5,8.5,3.1098756885421053e-15
10.0,6.0,1.000000000000002
9.5,9.0,1.00000000000001
9.5,10.5,0.9999999999999973
10.0,7.5,1.000000000000002
-2.0,7.0,0.0
-2.5,11.5,8.481479150569378e-16
-2.5,10.0,1.6962958301138756e-15
-2.0,8.5,2.5444437451708133e-15
10.5,6.0,1.0000000000000002
10.0,9.0,1.0000000000000029
10.5,7.5,1.0000000000000013
10.0,10.5,-8.481479150569379e-15
-1.5,7.0,1.6962958301138756e-15
-2.0,11.5,5.654319433712919e-16
-2.0,10.0,2.2617277734851675e-15
-1.5,8.5,3.392591660227751e-15
11.0,6.0,0.9999999999999974
10.5,9.0,2.000000000000004
11.0,7.5,1.0000000000000027
10.5,10.5,1.000000000000027
-1.0,7.0,1.1308638867425838e-15
-1.5,10.0,3.392591660227751e-15
-1.5,11.5,1.1308638867425838e-15
-1.0,8.5,2.8271597168564594e-16
11.5,6.0,0.999999999999998
11.0,9.0,1.0000000000000009
11.5,7.5,1.0000000000000013
11.0,10.5,1.0000000000000104
-0.5,7.0,-0.9999999999999969
-1.0,10.0,0.0
-1.0,11.5,1.9790118017995217e-15
-0.5,8.5,1.0000000000000033
-12.0,6.5,-0.9999999999999967
11.5,9.0,1.0000000000000018
-12.0,8.0,-1.0
11.5,10.5,1.0000000000000013
0.0,7.0,-2.0000000000000013
-0.5,10.0,8.481479150569378e-16
-0.5,11.5,8.481479150569378e-16
0.0,8.5,-1.0000000000000009
-11.5,6.5,-1.0000000000000009
-12.0,9.5,-0.9999999999999972
-11.5,8.0,-1.0000000000000007
-12.0,11.0,-0.9999999999999994
0.5,7.0,-2.8271597168564595e-15
0.0,10.0,-3.095208417061832e-15
0.0,11.5,-1.8625364106326447e-15
0.5,8.5,-3.9580236035990435e-15
-11.0,6.5,-0.9999999999999992
-11.5,9.5,-0.9999999999999998
-11.0,8.0,-0.9999999999999967
-11.5,11.0,-1.0000000000000042
0.5,10.0,-2.2617277734851675e-15
1.0,7.0,-2.2617277734851675e-15
0.5,11.5,-1.1308638867425838e-15
1.0,8.5,-2.5444437451708133e-15
-10.5,6.5,-1.0000000000000007
-11.0,9.5,-1.0000000000000022
-10.5,8.0,-1.0
-11.0,11.0,1.00000000000001
1.0,10.0,-1.4135798584282298e-15
1.5,7.0,-2.2617277734851675e-15
1.0,11.5,-2.5444437451708133e-15
1.5,8.5,-3.392591660227751e-15
-10.0,6.5,-0.9999999999999998
-10.5,9.5,-0.9999999999999978
-10.0,8.0,-0.9999999999999994
-10.5,11.0,1.4135798584282298e-15
1.5,10.0,-2.5444437451708133e-15
2.0,7.0,-1.0000000000000022
1.5,11.5,-3.9580236035990435e-15
2.0,8.5,-3.1098756885421053e-15
-9.5,6.5,-0.9999999999999983
-10.0,9.5,-0.9999999999999994
-9.5,8.0,-2.0000000000000013
2.0,10.0,-2.8271597168564595e-15
-10.0,11.0,-5.654319433712919e-16
2.5,7.0,-1.6962958301138756e-15
2.0,11.5,-2.8271597168564595e-15
2.5,8.5,8.481479150569378e-16
-9.0,6.5,-0.9999999999999986
-9.5,9.5,1.0000000000000764
-9.0,8.0,-0.9999999999999983
2.5,10.0,-2.2617277734851675e-15
-9.5,11.0,1.0000000000000044
3.0,7.0,-1.000000000000001
2.5,11.5,-1.6962958301138756e-15
3.0,8.5,-5.654319433712919e-16
-8.5,6.5,-0.9999999999999992
-9.0,9.5,2.5444437451708133e-15
-8.5,8.0,-0.9999999999999986
3.0,10.0,-2.2617277734851675e-15
-9.0,11.0,-0.9999999999999983
3.5,7.0,-3.675307631913397e-15
3.5,8.5,-1.1308638867425838e-15
3.0,11.5,-2.5444437451708133e-15
-8.0,6.5,-0.9999999999999972
-8.5,9.5,2.8271597168564595e-15
-8.0,8.0,1.000000000000042
3.5,10.0,-3.1098756885421053e-15
-8.5,11.0,5.654319433712919e-16
4.0,7.0,-1.9790118017995217e-15
3.5,11.5,5.654319433712919e-16
4.0,8.5,-2.8271597168564594e-16
-7.5,6.5,-0.9999999999999967
4.0,10.0,-5.654319433712919e-16
-8.0,9.5,1.1308638867425838e-15
-7.5,8.0,1.0000000000000027
-8.0,11.0,5.654319433712919e-16
4.5,7.0,-3.675307631913397e-15
4.0,11.5,-2.2617277734851675e-15
4.5,8.5,-1.4135798584282298e-15
-7.0,6.5,5.088887490341627e-15
4.5,10.0,-1.6962958301138756e-15
-7.5,9.5,1.4135798584282298e-15
-7.0,8.0,0.0
-7.5,11.0,2.8271597168564594e-16
5.0,7.0,-4.240739575284689e-15
4.5,11.5,-1.1308638867425838e-15
5.0,8.5,-5.654319433712919e-16
-6.5,6.5,0.9999999999999468
5.0,10.0,0.0
-6.5,8.0,1.4135798584282298e-15
-7.0,9.5,5.654319433712919e-16
-7.0,11.0,1.1308638867425838e-15
5.5,7.0,-1.9790118017995217e-15
5.0,11.5,-1.1308638867425838e-15
5.5,8.5,-1.1308638867425838e-15
-6.0,6.5,4.523455546970335e-15
5.5,10.0,-4.523455546970335e-15
-6.5,9.5,3.1098756885421053e-15
-6.0,8.0,1.6962958301138756e-15
-6.5,11.0,-5.654319433712919e-16
5.5,11.5,-1.6962958301138756e-15
6.0,7.0,-2.5444437451708133e-15
6.0,8.5,-1.1308638867425838e-15
-5.5,6.5,3.9580236035990435e-15
6.0,10.0,-2.8271597168564594e-16
-6.0,9.5,3.675307631913397e-15
-5.5,8.0,1.1308638867425838e-15
-6.0,11.0,1.9790118017995217e-15
6.0,11.5,-8.481479150569378e-16
6.5,7.0,-6.5024673487698564e-15
6.5,8.5,-1.9790118017995217e-15
-5.0,6.5,2.8271597168564595e-15
6.5,10.0,-1.1308638867425838e-15
-5.0,8.0,3.392591660227751e-15
-5.5,9.5,1.1308638867425838e-15
-5.5,11.0,1.4135798584282298e-15
6.5,11.5,-5.654319433712919e-16
7.0,7.0,2.4879005508336843e-14
7.0,8.5,-1.0000000000000029
-4.5,6.5,1.6962958301138756e-15
7.0,10.0,-2.8271597168564595e-15
-4.5,8.0,1.9790118017995217e-15
-5.0,9.5,5.654319433712919e-16
-5.0,11.0,8.481479150569378e-16
7.5,7.0,1.0000000000000058
7.0,11.5,5.654319433712919e-16
7.5,8.5,-6.219751377084211e-15
-4.0,6.5,2.8271597168564594e-16
7.5,10.0,-4.240739575284689e-15
-4.5,9.5,2.8271597168564595e-15
-4.0,8.0,3.392591660227751e-15
-4.5,11.0,2.2617277734851675e-15
7.5,11.5,0.9999999999999977
8.0,7.0,1.0000000000000044
8.0,8.5,-8.198763178883733e-15
8.0,10.0,-3.392591660227751e-15
-3.5,6.5,5.654319433712919e-16
-4.0,9.5,8.481479150569378e-16
-3.5,8.0,1.9790118017995217e-15
-4.0,11.0,8.481479150569378e-16
8.0,11.5,-1.1308638867425838e-15
8.5,8.5,1.0000000000000286
8.5,7.0,1.0000000000000013
8.5,10.0,-1.000000000000002
-3.0,6.5,2.0000000000000027
-3.5,9.5,1.1308638867425838e-15
-3.0,8.0,2.8271597168564594e-16
-3.5,11.0,2.5444437451708133e-15
8.5,11.5,0.999999999999998
9.0,7.0,1.0000000000000022
9.0,8.5,1.0000000000000104
9.0,10.0,-5.088887490341627e-15
-2.5,6.5,1.4135798584282298e-15
-3.0,9.5,1.1308638867425838e-15
-2.5,8.0,2.8271597168564595e-15
9.0,11.5,-1.6962958301138756e-15
-3.0,11.0,3.675307631913397e-15
9.5,7.0,1.0000000000000022
9.5,8.5,1.000000000000007
9.5,10.0,-8.198763178883733e-15
-2.0,6.5,3.392591660227751e-15
-2.0,8.0,1.4135798584282298e-15
-2.5,9.5,8.481479150569378e-16
9.5,11.5,-1.0000000000000007
-2.5,11.0,1.6962958301138756e-15
10.0,7.0,0.999999999999998
10.0,8.5,0.9999999999999998
10.0,10.0,1.0000000000000266
-1.5,6.5,-5.654319433712919e-16
-1.5,8.0,2.8271597168564595e-15
-2.0,9.5,1.4135798584282298e-15
-2.0,11.0,2.8271597168564595e-15
10.0,11.5,-1.4135798584282298e-15
10.5,8.5,1.0000000000000009
10.5,7.0,1.0000000000000029
10.5,10.0,1.0000000000000073
-1.0,6.5,1.9790118017995217e-15
-1.0,8.0,8.481479150569378e-16
-1.5,9.5,2.8271597168564595e-15
-1.5,11.0,2.5444437451708133e-15
10.5,11.5,-1.0000000000000029
11.0,7.0,1.0000000000000022
11.0,8.5,1.0000000000000002
11.0,10.0,1.0000000000000058
-0.5,6.5,1.6962958301138756e-15
-0.5,8.0,-8.481479150569378e-16
-1.0,9.5,1.9790118017995217e-15
-1.0,11.0,5.654319433712919e-16
11.0,11.5,-1.1025922895740192e-14
11.5,7.0,1.0
11.5,8.5,1.0000000000000009
11.5,10.0,1.0000000000000027
-0.5,11.0,4.806171518655981e-15
-0.5,9.5,3.675307631913397e-15
11.5,11.5,1.0000000000000286
