-30.0,8.71476192267015
-29.0,8.725284968962928
-28.0,8.734090497217434
-27.0,8.741358907571263
-26.0,8.7472529919265
-25.0,8.75191966319691
-24.0,8.755491561591842
-23.0,8.758088541346009
-22.0,7.999999998752147
-21.0,5.999999998752148
-20.0,3.999999998752144
-19.0,1.9999999987521537
-18.0,-1.2463194920542264e-09
-17.0,1.9999999987521422
-16.0,3.999999998752145
-15.0,5.999999998752147
-14.0,7.99999999875215
-13.0,9.999999998752145
-12.0,11.999999998752143
-11.0,13.999999998752145
-10.0,15.999999998752145
-9.0,17.999999998752145
-8.0,19.999999998752145
-7.0,21.999999998752145
-6.0,23.999999998752145
-5.0,25.999999998752152
-4.0,27.999999998752145
-3.0,29.999999998752145
-2.0,31.999999998752145
-1.0,33.99999999875216
0.0,35.99999999873167
1.0,33.999999998752145
2.0,31.99999999875214
3.0,29.999999998752127
4.0,27.999999998752138
5.0,25.99999999875216
6.0,23.99999999875216
7.0,21.999999998752152
8.0,19.999999998752152
9.0,17.999999998752152
10.0,15.999999998752138
11.0,13.999999998752136
12.0,11.999999998752148
13.0,9.999999998752143
14.0,7.999999998752145
15.0,5.999999998752147
16.0,3.9999999987521555
17.0,1.9999999987521484
18.0,-1.2460521503498967e-09
19.0,1.9999999987521475
20.0,3.9999999987521457
21.0,5.999999998752147
22.0,7.999999998752147
23.0,8.758088541319196
24.0,8.755491561565023
25.0,8.751919663170089
26.0,8.747252991899686
27.0,8.741358907544447
28.0,8.734090497190634
29.0,8.725284968936098
30.0,8.714761922643333
