0.05,23.95365046121419,0.9999999999999961
0.060000000000000005,14.171851750892312,0.9999999999999989
0.07,9.161601264971505,0.9999999999999992
0.08,6.3289544729678315,1.0000000000000033
0.09,3.535308684245379,1.0000000000000002
0.1,1.426197544111143,0.9999999999999978
0.11,3.5482665691106687,-2.8271597168564594e-16
0.12000000000000001,7.642793215419319,1.1308638867425838e-15
0.13,10.676858606107258,-1.4135798584282297e-16
0.14,12.981001270699995,1.1308638867425838e-15
