-30.0,0.0
-29.0,0.0
-28.0,0.0
-27.0,0.0
-26.0,0.0
-25.0,0.0
-24.0,0.0
-23.0,0.0
-22.0,0.0
-21.0,0.6807119497857403
-20.0,1.4306640656368552
-19.0,2.2022229840881224
-18.0,2.9960185114029425
-17.0,3.8126388462206835
-16.0,4.652620080100911
-15.0,5.45208733581922
-14.0,6.237100173570756
-13.0,7.041880221689598
-12.0,7.7744945186264935
-11.0,8.523160330225423
-10.0,9.292950607423574
-9.0,10.084068343029823
-8.0,10.89669573685821
-7.0,11.730994415018934
-6.0,12.587105732165652
-5.0,13.46515112815344
-4.0,14.36523251013884
-3.0,15.287432631953486
-2.0,16.231815444574593
-1.0,17.198426394604617
0.0,18.010236774162472
1.0,17.19842642458219
2.0,16.231815464969536
3.0,15.287432642983429
4.0,14.365232512077885
5.0,13.465151121336927
6.0,12.587105716995652
7.0,11.730994391971102
8.0,10.896695706489467
9.0,10.084068305987422
10.0,9.292950564455088
11.0,8.52316028219038
12.0,7.7744944665102125
13.0,7.0229099292934976
14.0,6.215895907684664
15.0,5.385306092762245
16.0,4.5206493638631
17.0,3.6794785857648233
18.0,2.8613152924887144
19.0,2.06562165396991
20.0,1.2918106672344618
21.0,0.5392562677714419
22.0,0.0
23.0,0.0
24.0,0.0
25.0,0.0
26.0,0.0
27.0,0.0
28.0,0.0
29.0,0.0
30.0,0.0
