-30.0,0.1634024989893188
-29.0,2.006672427752834
-28.0,4.003344236857621
-27.0,6.0022323245059015
-26.0,8.001675923739642
-25.0,10.001341868584232
-24.0,12.001119013981615
-23.0,12.83479127924734
-22.0,13.558775231110062
-21.0,14.294381892151439
-20.0,15.041695158243948
-19.0,15.800796685857554
-18.0,16.571765215709817
-17.0,17.35467618094549
-16.0,18.149601460830574
-15.0,18.95660921493341
-14.0,19.77576376511243
-13.0,20.60712550783585
-12.0,21.450750846944295
-11.0,22.306692140952492
-10.0,23.174997661169833
-9.0,24.055711558168802
-8.0,24.948873834868678
-7.0,25.854520324958976
-6.0,26.772682675681523
-5.0,27.703388334190596
-4.0,28.646660536854753
-3.0,29.60251830097851
-2.0,30.57097641851316
-1.0,31.552045451411168
0.0,32.54573172835293
1.0,31.552045590669685
2.0,30.570976557155735
3.0,29.602518439485497
4.0,28.64666067577268
5.0,27.70338847414015
6.0,26.772682817367844
7.0,25.854520469183427
8.0,24.948873982544015
9.0,24.05571171033748
10.0,23.174997819027105
11.0,22.306692305875927
12.0,21.450751020530774
13.0,20.60712569195053
14.0,19.775763961952308
15.0,18.956609427112653
16.0,18.149601691496468
17.0,17.35467643393906
18.0,16.57176549579342
19.0,15.80079699904672
20.0,15.0416955123049
21.0,14.294382297375634
22.0,13.558775701573111
23.0,12.834791834966952
24.0,12.00112066722198
25.0,10.001343854702466
26.0,8.001678408941583
27.0,6.002235641030045
28.0,4.003349214236965
29.0,2.006682366900085
30.0,0.16352461813103503
