<?xml version="1.0" encoding="UTF-8" standalone="no"?>
<svg
   version="1.1"
   id="svg539"
   sodipodi:docname="gap_and_chern_annotated.svg"
   width="649.89172"
   height="668.2309"
   inkscape:version="1.2.2 (b0a8486541, 2022-12-01)"
   xmlns:inkscape="http://www.inkscape.org/namespaces/inkscape"
   xmlns:sodipodi="http://sodipodi.sourceforge.net/DTD/sodipodi-0.dtd"
   xmlns:xlink="http://www.w3.org/1999/xlink"
   xmlns="http://www.w3.org/2000/svg"
   xmlns:svg="http://www.w3.org/2000/svg">
  <defs
     id="defs541">
    <defs
       id="defs6">
      <style
         type="text/css"
         id="style4">*{stroke-linejoin: round; stroke-linecap: butt}</style>
    </defs>
    <defs
       id="defs423">
      <clipPath
         id="pd80d1ea262">
        <rect
           x="84.691727"
           y="7.1999998"
           width="558"
           height="554.40002"
           id="rect420" />
      </clipPath>
    </defs>
  </defs>
  <g
     id="g537">
    <g
       id="figure_1">
      <g
         id="patch_1">
        <path
           d="M 0,668.23091 H 649.89173 V 0 H 0 Z"
           style="fill:#ffffff"
           id="path8" />
      </g>
      <g
         id="axes_1">
        <g
           id="patch_2">
          <path
             d="m 84.69173,561.6 h 558 V 7.2 h -558 z"
             style="fill:#ffffff"
             id="path11" />
        </g>
        <g
           id="line2d_1">
          <path
             d="m 84.69173,66.6 h 558"
             clip-path="url(#pd80d1ea262)"
             style="fill:none;stroke:#808080;stroke-width:1.5;stroke-dasharray:5.55, 2.4;stroke-dashoffset:0"
             id="path14" />
        </g>
        <g
           id="line2d_2">
          <path
             d="m 84.69173,541.8 h 558"
             clip-path="url(#pd80d1ea262)"
             style="fill:none;stroke:#000000;stroke-width:1.5;stroke-dasharray:5.55, 2.4;stroke-dashoffset:0"
             id="path17" />
        </g>
        <g
           id="matplotlib.axis_1">
          <g
             id="xtick_1">
            <g
               id="line2d_3">
              <defs
                 id="defs21">
                <path
                   id="me82ce54fdb"
                   d="M 0,0 V 3.5"
                   style="stroke:#000000;stroke-width:0.8" />
              </defs>
              <g
                 id="g25">
                <use
                   xlink:href="#me82ce54fdb"
                   x="84.691727"
                   y="561.59998"
                   style="stroke:#000000;stroke-width:0.8"
                   id="use23" />
              </g>
            </g>
            <g
               id="text_1">
              <!-- $0.05$ -->
              <g
                 transform="matrix(0.25980762,-0.15,-0.15,-0.25980762,67.097852,611.66727)"
                 id="g41">
                <defs
                   id="defs31">
                  <path
                     id="CMR17-30"
                     d="m 2688,2038 c 0,392 -6,1061 -275,1575 -237,450 -615,611 -947,611 -308,0 -698,-142 -941,-604 C 269,3137 243,2539 243,2038 c 0,-367 7,-926 205,-1415 275,-662 768,-751 1018,-751 294,0 742,121 1004,732 192,444 218,964 218,1434 z M 1466,-26 c -410,0 -653,354 -743,842 -70,380 -70,933 -70,1293 0,495 0,906 83,1298 122,547 480,714 730,714 262,0 601,-174 723,-701 83,-366 89,-797 89,-1311 0,-418 0,-933 -76,-1312 C 2067,96 1690,-26 1466,-26 Z"
                     transform="scale(0.015625)" />
                  <path
                     id="CMMI12-3a"
                     d="M 1178,307 C 1178,492 1024,620 870,620 685,620 557,467 557,313 557,128 710,0 864,0 c 186,0 314,153 314,307 z"
                     transform="scale(0.015625)" />
                  <path
                     id="CMR17-35"
                     d="m 730,3750 c 64,-26 326,-109 595,-109 595,0 921,320 1107,499 0,51 0,84 -38,84 -7,0 -20,0 -71,-26 -224,-96 -486,-166 -806,-166 -192,0 -480,23 -794,159 -70,33 -83,33 -89,33 -32,0 -39,-7 -39,-134 V 2231 c 0,-118 0,-151 64,-151 32,0 45,13 77,59 205,296 486,421 806,421 224,0 704,-145 704,-1267 0,-206 0,-577 -192,-871 C 1894,159 1645,25 1370,25 947,25 518,319 403,812 c 26,-6 77,-19 103,-19 83,0 243,45 243,243 0,173 -122,244 -243,244 -148,0 -244,-90 -244,-269 0,-557 442,-1139 1120,-1139 660,0 1287,569 1287,1395 0,787 -499,1395 -1120,1395 -327,0 -602,-122 -819,-358 z"
                     transform="scale(0.015625)" />
                </defs>
                <use
                   xlink:href="#CMR17-30"
                   transform="scale(0.996264)"
                   id="use33" />
                <use
                   xlink:href="#CMMI12-3a"
                   transform="matrix(0.996264,0,0,0.996264,45.690477,0)"
                   id="use35" />
                <use
                   xlink:href="#CMR17-30"
                   transform="matrix(0.996264,0,0,0.996264,72.787654,0)"
                   id="use37" />
                <use
                   xlink:href="#CMR17-35"
                   transform="matrix(0.996264,0,0,0.996264,118.47813,0)"
                   id="use39" />
              </g>
            </g>
          </g>
          <g
             id="xtick_2">
            <g
               id="line2d_4">
              <g
                 id="g47">
                <use
                   xlink:href="#me82ce54fdb"
                   x="158.11278"
                   y="561.59998"
                   style="stroke:#000000;stroke-width:0.8"
                   id="use45" />
              </g>
            </g>
            <g
               id="text_2">
              <!-- $0.08$ -->
              <g
                 transform="matrix(0.25980762,-0.15,-0.15,-0.25980762,140.5189,611.66727)"
                 id="g61">
                <defs
                   id="defs51">
                  <path
                     id="CMR17-38"
                     d="m 1741,2289 c 403,205 813,514 813,1009 0,586 -564,926 -1082,926 -582,0 -1094,-424 -1094,-1009 0,-161 38,-438 288,-682 64,-64 332,-257 505,-379 C 883,2006 211,1652 211,945 211,282 838,-128 1459,-128 c 685,0 1261,494 1261,1150 0,585 -390,855 -646,1029 z m -839,566 c -51,32 -307,231 -307,533 0,393 403,688 864,688 506,0 877,-360 877,-778 0,-598 -666,-939 -698,-939 -6,0 -12,0 -64,39 z M 2080,1536 c 96,-70 403,-283 403,-675 C 2483,385 2010,25 1472,25 890,25 448,443 448,951 c 0,508 390,933 832,1132 z"
                     transform="scale(0.015625)" />
                </defs>
                <use
                   xlink:href="#CMR17-30"
                   transform="scale(0.996264)"
                   id="use53" />
                <use
                   xlink:href="#CMMI12-3a"
                   transform="matrix(0.996264,0,0,0.996264,45.690477,0)"
                   id="use55" />
                <use
                   xlink:href="#CMR17-30"
                   transform="matrix(0.996264,0,0,0.996264,72.787654,0)"
                   id="use57" />
                <use
                   xlink:href="#CMR17-38"
                   transform="matrix(0.996264,0,0,0.996264,118.47813,0)"
                   id="use59" />
              </g>
            </g>
          </g>
          <g
             id="xtick_3">
            <g
               id="line2d_5">
              <g
                 id="g67">
                <use
                   xlink:href="#me82ce54fdb"
                   x="231.53383"
                   y="561.59998"
                   style="stroke:#000000;stroke-width:0.8"
                   id="use65" />
              </g>
            </g>
            <g
               id="text_3">
              <!-- $0.10$ -->
              <g
                 transform="matrix(0.25980762,-0.15,-0.15,-0.25980762,213.93996,611.66727)"
                 id="g81">
                <defs
                   id="defs71">
                  <path
                     id="CMR17-31"
                     d="m 1702,4083 c 0,134 -6,141 -96,141 -249,-297 -627,-391 -985,-404 -19,0 -51,0 -58,-12 -6,-13 -6,-26 -6,-160 198,0 531,38 787,191 V 467 C 1344,243 1331,166 781,166 H 589 V 0 c 307,6 627,12 934,12 307,0 627,-6 935,-12 v 166 h -192 c -551,0 -564,70 -564,301 z"
                     transform="scale(0.015625)" />
                </defs>
                <use
                   xlink:href="#CMR17-30"
                   transform="scale(0.996264)"
                   id="use73" />
                <use
                   xlink:href="#CMMI12-3a"
                   transform="matrix(0.996264,0,0,0.996264,45.690477,0)"
                   id="use75" />
                <use
                   xlink:href="#CMR17-31"
                   transform="matrix(0.996264,0,0,0.996264,72.787654,0)"
                   id="use77" />
                <use
                   xlink:href="#CMR17-30"
                   transform="matrix(0.996264,0,0,0.996264,118.47813,0)"
                   id="use79" />
              </g>
            </g>
          </g>
          <g
             id="xtick_4">
            <g
               id="line2d_6">
              <g
                 id="g87">
                <use
                   xlink:href="#me82ce54fdb"
                   x="304.9549"
                   y="561.59998"
                   style="stroke:#000000;stroke-width:0.8"
                   id="use85" />
              </g>
            </g>
            <g
               id="text_4">
              <!-- $0.12$ -->
              <g
                 transform="matrix(0.25980762,-0.15,-0.15,-0.25980762,287.36101,611.66727)"
                 id="g101">
                <defs
                   id="defs91">
                  <path
                     id="CMR17-32"
                     d="M 2669,990 H 2554 C 2490,537 2438,460 2413,422 2381,371 1920,371 1830,371 H 602 c 230,249 678,702 1222,1225 390,370 845,804 845,1437 0,755 -602,1191 -1274,1191 -704,0 -1133,-621 -1133,-1197 0,-250 186,-282 263,-282 64,0 256,38 256,262 0,199 -167,257 -256,257 -39,0 -77,-7 -103,-20 122,544 493,813 884,813 556,0 921,-441 921,-1024 0,-556 -326,-1035 -691,-1450 L 262,147 V 0 h 2253 z"
                     transform="scale(0.015625)" />
                </defs>
                <use
                   xlink:href="#CMR17-30"
                   transform="scale(0.996264)"
                   id="use93" />
                <use
                   xlink:href="#CMMI12-3a"
                   transform="matrix(0.996264,0,0,0.996264,45.690477,0)"
                   id="use95" />
                <use
                   xlink:href="#CMR17-31"
                   transform="matrix(0.996264,0,0,0.996264,72.787654,0)"
                   id="use97" />
                <use
                   xlink:href="#CMR17-32"
                   transform="matrix(0.996264,0,0,0.996264,118.47813,0)"
                   id="use99" />
              </g>
            </g>
          </g>
          <g
             id="xtick_5">
            <g
               id="line2d_7">
              <g
                 id="g107">
                <use
                   xlink:href="#me82ce54fdb"
                   x="378.37595"
                   y="561.59998"
                   style="stroke:#000000;stroke-width:0.8"
                   id="use105" />
              </g>
            </g>
            <g
               id="text_5">
              <!-- $0.15$ -->
              <g
                 transform="matrix(0.25980762,-0.15,-0.15,-0.25980762,360.78206,611.66727)"
                 id="g118">
                <use
                   xlink:href="#CMR17-30"
                   transform="scale(0.996264)"
                   id="use110" />
                <use
                   xlink:href="#CMMI12-3a"
                   transform="matrix(0.996264,0,0,0.996264,45.690477,0)"
                   id="use112" />
                <use
                   xlink:href="#CMR17-31"
                   transform="matrix(0.996264,0,0,0.996264,72.787654,0)"
                   id="use114" />
                <use
                   xlink:href="#CMR17-35"
                   transform="matrix(0.996264,0,0,0.996264,118.47813,0)"
                   id="use116" />
              </g>
            </g>
          </g>
          <g
             id="xtick_6">
            <g
               id="line2d_8">
              <g
                 id="g124">
                <use
                   xlink:href="#me82ce54fdb"
                   x="451.797"
                   y="561.59998"
                   style="stroke:#000000;stroke-width:0.8"
                   id="use122" />
              </g>
            </g>
            <g
               id="text_6">
              <!-- $0.17$ -->
              <g
                 transform="matrix(0.25980762,-0.15,-0.15,-0.25980762,434.20312,611.66727)"
                 id="g138">
                <defs
                   id="defs128">
                  <path
                     id="CMR17-37"
                     d="m 2886,3955 v 141 H 1382 c -748,0 -761,70 -787,192 H 480 L 294,3104 h 116 c 19,122 64,448 140,569 39,51 512,51 621,51 H 2579 L 1869,2670 C 1395,1961 1069,1003 1069,166 c 0,-77 0,-294 230,-294 231,0 231,217 231,300 v 294 c 0,1048 179,1738 473,2178 z"
                     transform="scale(0.015625)" />
                </defs>
                <use
                   xlink:href="#CMR17-30"
                   transform="scale(0.996264)"
                   id="use130" />
                <use
                   xlink:href="#CMMI12-3a"
                   transform="matrix(0.996264,0,0,0.996264,45.690477,0)"
                   id="use132" />
                <use
                   xlink:href="#CMR17-31"
                   transform="matrix(0.996264,0,0,0.996264,72.787654,0)"
                   id="use134" />
                <use
                   xlink:href="#CMR17-37"
                   transform="matrix(0.996264,0,0,0.996264,118.47813,0)"
                   id="use136" />
              </g>
            </g>
          </g>
          <g
             id="xtick_7">
            <g
               id="line2d_9">
              <g
                 id="g144">
                <use
                   xlink:href="#me82ce54fdb"
                   x="525.21802"
                   y="561.59998"
                   style="stroke:#000000;stroke-width:0.8"
                   id="use142" />
              </g>
            </g>
            <g
               id="text_7">
              <!-- $0.20$ -->
              <g
                 transform="matrix(0.25980762,-0.15,-0.15,-0.25980762,507.62417,611.66727)"
                 id="g155">
                <use
                   xlink:href="#CMR17-30"
                   transform="scale(0.996264)"
                   id="use147" />
                <use
                   xlink:href="#CMMI12-3a"
                   transform="matrix(0.996264,0,0,0.996264,45.690477,0)"
                   id="use149" />
                <use
                   xlink:href="#CMR17-32"
                   transform="matrix(0.996264,0,0,0.996264,72.787654,0)"
                   id="use151" />
                <use
                   xlink:href="#CMR17-30"
                   transform="matrix(0.996264,0,0,0.996264,118.47813,0)"
                   id="use153" />
              </g>
            </g>
          </g>
          <g
             id="xtick_8">
            <g
               id="line2d_10">
              <g
                 id="g161">
                <use
                   xlink:href="#me82ce54fdb"
                   x="598.6391"
                   y="561.59998"
                   style="stroke:#000000;stroke-width:0.8"
                   id="use159" />
              </g>
            </g>
            <g
               id="text_8">
              <!-- $0.23$ -->
              <g
                 transform="matrix(0.25980762,-0.15,-0.15,-0.25980762,581.04522,611.66727)"
                 id="g175">
                <defs
                   id="defs165">
                  <path
                     id="CMR17-33"
                     d="m 1414,2176 c 570,0 820,-503 820,-1082 C 2234,322 1824,25 1453,25 1114,25 563,193 390,691 c 32,-13 64,-13 96,-13 154,0 269,102 269,269 0,185 -141,269 -269,269 -108,0 -275,-52 -275,-289 0,-592 576,-1055 1255,-1055 710,0 1254,560 1254,1215 0,631 -512,1089 -1120,1159 486,101 954,530 954,1107 0,503 -506,871 -1082,871 -582,0 -1094,-362 -1094,-877 0,-224 166,-263 249,-263 135,0 250,83 250,250 0,166 -115,250 -250,250 -25,0 -57,0 -83,-13 186,428 691,505 915,505 224,0 647,-110 647,-729 0,-180 -26,-496 -244,-773 -192,-245 -409,-258 -620,-277 -32,0 -180,-13 -205,-13 -45,-6 -71,-12 -71,-57 0,-45 7,-51 135,-51 z"
                     transform="scale(0.015625)" />
                </defs>
                <use
                   xlink:href="#CMR17-30"
                   transform="scale(0.996264)"
                   id="use167" />
                <use
                   xlink:href="#CMMI12-3a"
                   transform="matrix(0.996264,0,0,0.996264,45.690477,0)"
                   id="use169" />
                <use
                   xlink:href="#CMR17-32"
                   transform="matrix(0.996264,0,0,0.996264,72.787654,0)"
                   id="use171" />
                <use
                   xlink:href="#CMR17-33"
                   transform="matrix(0.996264,0,0,0.996264,118.47813,0)"
                   id="use173" />
              </g>
            </g>
          </g>
          <g
             id="text_9">
            <!-- $\textrm{Lattice spacing } k_0a/2\pi$ -->
            <g
               transform="matrix(0.4,0,0,-0.4,179.90565,651.06827)"
               id="g235">
              <defs
                 id="defs193">
                <path
                   id="CMR17-4c"
                   d="M 3469,1612 H 3354 C 3302,981 3219,166 2125,166 h -595 c -256,0 -269,32 -269,248 v 3478 c 0,229 13,293 499,293 h 141 v 167 c -263,-13 -570,-13 -832,-13 -199,0 -557,0 -743,13 v -167 c 442,0 512,0 512,-287 V 453 C 838,166 768,166 326,166 V 0 h 2989 z"
                   transform="scale(0.015625)" />
                <path
                   id="CMR17-61"
                   d="m 2304,1656 c 0,392 0,619 -269,878 -237,217 -512,282 -729,282 -506,0 -871,-408 -871,-839 0,-237 192,-249 231,-249 83,0 230,51 230,230 0,160 -122,230 -230,230 -26,0 -58,-6 -77,-12 134,418 480,537 704,537 320,0 672,-292 672,-838 V 1632 C 1587,1619 1133,1568 774,1373 371,1147 256,822 256,576 256,77 832,-64 1171,-64 c 352,0 679,199 819,569 13,-286 192,-544 474,-544 134,0 474,90 474,602 V 926 H 2822 V 557 c 0,-396 -172,-448 -256,-448 -262,0 -262,337 -262,623 z M 1965,887 C 1965,323 1568,38 1216,38 896,38 646,278 646,576 c 0,195 84,538 455,746 307,175 659,201 864,214 z"
                   transform="scale(0.015625)" />
                <path
                   id="CMR17-74"
                   d="m 966,2585 h 896 v 167 H 966 V 3968 H 851 C 838,3292 614,2700 70,2687 V 2585 H 627 V 778 c 0,-123 0,-842 743,-842 377,0 595,372 595,848 v 367 H 1850 V 790 C 1850,347 1677,51 1408,51 1222,51 966,179 966,765 Z"
                   transform="scale(0.015625)" />
                <path
                   id="CMR17-69"
                   d="m 992,3961 c 0,141 -115,263 -262,263 -141,0 -263,-116 -263,-263 0,-141 115,-262 263,-262 140,0 262,115 262,262 z M 243,2745 v -166 c 359,0 410,-39 410,-348 V 443 C 653,198 627,166 218,166 V 0 c 153,12 428,12 588,12 154,0 416,0 564,-12 v 166 c -378,0 -391,39 -391,270 v 2380 z"
                   transform="scale(0.015625)" />
                <path
                   id="CMR17-63"
                   d="m 2234,2240 c -122,0 -301,0 -301,-225 0,-179 147,-230 230,-230 45,0 231,19 231,243 0,448 -436,788 -928,788 C 787,2816 211,2201 211,1379 211,521 813,-64 1466,-64 c 793,0 992,740 992,811 0,26 -7,45 -52,45 -44,0 -51,-6 -76,-90 C 2163,180 1798,51 1523,51 1114,51 621,431 621,1385 c 0,973 473,1315 851,1315 250,0 621,-118 762,-460 z"
                   transform="scale(0.015625)" />
                <path
                   id="CMR17-65"
                   d="m 2438,1503 c 26,26 26,39 26,103 0,645 -346,1210 -1075,1210 C 710,2816 173,2175 173,1394 173,554 781,-64 1459,-64 c 717,0 999,683 999,819 0,45 -39,45 -52,45 -44,0 -51,-13 -76,-91 C 2189,270 1837,51 1504,51 1229,51 954,206 781,490 582,819 582,1200 582,1503 Z m -1849,97 c 45,911 537,1113 793,1113 436,0 730,-405 736,-1113 z"
                   transform="scale(0.015625)" />
                <path
                   id="CMR17-73"
                   d="m 1978,2688 c 0,115 -7,121 -45,121 -26,0 -32,-6 -109,-102 -19,-26 -77,-90 -96,-115 -205,217 -493,224 -602,224 -710,0 -966,-372 -966,-743 0,-576 653,-710 838,-749 404,-83 544,-108 679,-224 83,-76 224,-217 224,-448 0,-268 -154,-614 -743,-614 -556,0 -755,422 -870,986 -19,89 -19,96 -70,96 -52,0 -58,-7 -58,-135 V 64 c 0,-116 6,-122 45,-122 32,0 38,6 70,58 39,57 135,211 173,275 128,-173 352,-339 710,-339 634,0 973,345 973,844 0,327 -173,500 -256,576 -192,199 -416,244 -685,295 -352,77 -800,166 -800,557 0,166 90,518 736,518 685,0 724,-640 736,-845 7,-32 39,-38 58,-38 58,0 58,19 58,128 z"
                   transform="scale(0.015625)" />
                <path
                   id="CMR17-70"
                   d="m 1408,-1114 c -410,0 -435,26 -435,280 V 380 c 185,-271 454,-444 793,-444 640,0 1287,567 1287,1446 0,814 -557,1434 -1216,1434 -384,0 -698,-213 -877,-471 v 471 l -762,-71 v -168 c 378,0 436,-38 436,-349 V -834 c 0,-247 -26,-280 -436,-280 v -166 c 154,12 436,12 602,12 166,0 454,0 608,-12 z M 973,2015 c 0,91 0,226 249,466 32,25 250,219 570,219 467,0 851,-588 851,-1324 C 2643,639 2234,38 1728,38 1498,38 1248,148 1056,451 973,594 973,632 973,736 Z"
                   transform="scale(0.015625)" />
                <path
                   id="CMR17-6e"
                   d="m 2656,1954 c 0,328 -64,862 -819,862 -506,0 -768,-392 -864,-650 h -7 v 650 l -755,-71 v -167 c 378,0 435,-38 435,-347 V 443 C 646,198 621,166 211,166 V 0 c 154,12 435,12 602,12 166,0 454,0 608,-12 v 166 c -410,0 -435,26 -435,277 v 1235 c 0,591 358,1035 806,1035 474,0 525,-424 525,-733 V 443 c 0,-245 -26,-277 -435,-277 V 0 c 153,12 435,12 601,12 167,0 455,0 608,-12 v 166 c -409,0 -435,26 -435,277 z"
                   transform="scale(0.015625)" />
                <path
                   id="CMR17-67"
                   d="m 710,1165 c 122,-97 333,-205 589,-205 506,0 941,399 941,935 0,168 -51,426 -243,626 179,192 441,256 589,256 25,0 64,0 96,-19 -26,-7 -84,-32 -84,-135 0,-83 58,-140 141,-140 96,0 147,64 147,147 0,121 -96,250 -300,250 -256,0 -480,-122 -660,-289 -192,173 -422,237 -627,237 -505,0 -941,-397 -941,-933 0,-368 212,-601 276,-665 C 442,1004 442,742 442,710 442,544 506,300 723,166 390,82 128,-184 128,-517 c 0,-479 608,-827 1338,-827 704,0 1337,335 1337,834 0,894 -947,894 -1440,894 -147,0 -409,0 -441,6 -199,32 -333,211 -333,435 0,58 0,199 121,340 z m 589,-97 c -563,0 -563,698 -563,827 0,129 0,824 563,824 563,0 563,-695 563,-824 0,-129 0,-827 -563,-827 z m 167,-2304 c -640,0 -1082,353 -1082,719 0,206 109,399 250,506 160,113 224,113 659,113 525,0 1254,0 1254,-619 0,-366 -441,-719 -1081,-719 z"
                   transform="scale(0.015625)" />
                <path
                   id="CMMI12-6b"
                   d="m 1798,4255 c 7,26 20,64 20,96 0,65 -64,65 -77,65 -7,0 -237,-20 -352,-33 -109,-6 -205,-19 -320,-25 -154,-13 -199,-19 -199,-135 0,-64 64,-64 128,-64 327,0 327,-56 327,-119 0,-26 0,-38 -32,-152 L 378,250 C 352,153 352,141 352,102 352,-39 461,-64 525,-64 704,-64 742,76 794,275 l 300,1201 c 461,-51 736,-244 736,-552 0,-39 0,-64 -19,-161 -25,-96 -25,-173 -25,-205 0,-373 243,-622 569,-622 295,0 448,269 499,359 135,237 218,597 218,622 0,32 -26,58 -64,58 -58,0 -64,-26 -90,-128 -89,-334 -224,-783 -550,-783 -128,0 -211,64 -211,308 0,122 25,263 51,359 26,116 26,122 26,199 0,379 -340,591 -928,668 230,141 460,391 550,488 365,409 614,601 909,601 147,0 185,-32 230,-63 -237,-26 -326,-193 -326,-321 0,-153 121,-204 211,-204 173,0 326,147 326,352 0,183 -147,365 -435,365 -352,0 -640,-237 -1094,-749 -64,-78 -301,-321 -538,-411 z"
                   transform="scale(0.015625)" />
                <path
                   id="CMMI12-61"
                   d="M 1926,759 C 1894,651 1894,638 1805,517 1664,338 1382,64 1082,64 819,64 672,300 672,676 c 0,352 198,1067 320,1335 218,447 518,676 768,676 422,0 506,-523 506,-574 0,-6 -20,-89 -26,-102 z m 410,1635 c -70,166 -243,422 -576,422 C 1037,2816 256,1883 256,938 256,306 627,-64 1062,-64 c 352,0 653,274 832,485 64,-377 365,-485 557,-485 192,0 346,115 461,344 102,216 192,605 192,630 0,32 -26,58 -64,58 -58,0 -64,-32 -90,-128 -96,-375 -217,-776 -480,-776 -185,0 -198,165 -198,292 0,147 19,217 77,465 45,159 77,299 128,484 237,955 294,1184 294,1223 0,89 -70,160 -166,160 -205,0 -256,-224 -269,-300 z"
                   transform="scale(0.015625)" />
                <path
                   id="CMMI12-3d"
                   d="m 2746,4563 c 0,6 38,102 38,115 0,77 -64,122 -115,122 -32,0 -90,0 -141,-141 L 384,-1364 c 0,-6 -38,-102 -38,-115 0,-77 64,-121 115,-121 38,0 96,6 141,140 z"
                   transform="scale(0.015625)" />
                <path
                   id="CMMI12-19"
                   d="m 1658,2406 h 723 C 2208,1691 2099,1225 2099,715 c 0,-90 0,-779 263,-779 134,0 249,121 249,230 0,32 0,44 -45,140 -172,440 -172,989 -172,1034 0,38 0,492 134,1066 h 717 c 83,0 294,0 294,205 0,141 -121,141 -237,141 H 1197 c -147,0 -365,0 -659,-314 -167,-185 -372,-523 -372,-562 0,-38 32,-51 71,-51 45,0 51,19 83,58 333,523 666,523 826,523 h 364 C 1370,1927 1210,1372 685,255 634,153 634,140 634,102 634,-32 749,-64 806,-64 c 186,0 237,166 314,434 102,325 102,338 166,594 z"
                   transform="scale(0.015625)" />
              </defs>
              <use
                 xlink:href="#CMR17-4c"
                 transform="scale(0.996264)"
                 id="use195" />
              <use
                 xlink:href="#CMR17-61"
                 transform="matrix(0.996264,0,0,0.996264,57.381408,0)"
                 id="use197" />
              <use
                 xlink:href="#CMR17-74"
                 transform="matrix(0.996264,0,0,0.996264,103.07188,0)"
                 id="use199" />
              <use
                 xlink:href="#CMR17-74"
                 transform="matrix(0.996264,0,0,0.996264,138.35265,0)"
                 id="use201" />
              <use
                 xlink:href="#CMR17-69"
                 transform="matrix(0.996264,0,0,0.996264,173.63342,0)"
                 id="use203" />
              <use
                 xlink:href="#CMR17-63"
                 transform="matrix(0.996264,0,0,0.996264,198.50448,0)"
                 id="use205" />
              <use
                 xlink:href="#CMR17-65"
                 transform="matrix(0.996264,0,0,0.996264,238.99014,0)"
                 id="use207" />
              <use
                 xlink:href="#CMR17-73"
                 transform="matrix(0.996264,0,0,0.996264,309.55177,0)"
                 id="use209" />
              <use
                 xlink:href="#CMR17-70"
                 transform="matrix(0.996264,0,0,0.996264,345.3531,0)"
                 id="use211" />
              <use
                 xlink:href="#CMR17-61"
                 transform="matrix(0.996264,0,0,0.996264,396.24847,0)"
                 id="use213" />
              <use
                 xlink:href="#CMR17-63"
                 transform="matrix(0.996264,0,0,0.996264,441.93895,0)"
                 id="use215" />
              <use
                 xlink:href="#CMR17-69"
                 transform="matrix(0.996264,0,0,0.996264,482.42461,0)"
                 id="use217" />
              <use
                 xlink:href="#CMR17-6e"
                 transform="matrix(0.996264,0,0,0.996264,507.29567,0)"
                 id="use219" />
              <use
                 xlink:href="#CMR17-67"
                 transform="matrix(0.996264,0,0,0.996264,558.19104,0)"
                 id="use221" />
              <use
                 xlink:href="#CMMI12-6b"
                 transform="matrix(0.996264,0,0,0.996264,633.95748,0)"
                 id="use223" />
              <use
                 xlink:href="#CMR17-30"
                 transform="matrix(0.697382,0,0,0.697382,684.69267,-14.943915)"
                 id="use225" />
              <use
                 xlink:href="#CMMI12-61"
                 transform="matrix(0.996264,0,0,0.996264,717.17399,0)"
                 id="use227" />
              <use
                 xlink:href="#CMMI12-3d"
                 transform="matrix(0.996264,0,0,0.996264,768.38184,0)"
                 id="use229" />
              <use
                 xlink:href="#CMR17-32"
                 transform="matrix(0.996264,0,0,0.996264,817.15676,0)"
                 id="use231" />
              <use
                 xlink:href="#CMMI12-19"
                 transform="matrix(0.996264,0,0,0.996264,862.84724,0)"
                 id="use233" />
            </g>
          </g>
        </g>
        <g
           id="matplotlib.axis_2">
          <g
             id="ytick_1">
            <g
               id="line2d_11">
              <defs
                 id="defs240">
                <path
                   id="mea02dc4b73"
                   d="M 0,0 H -3.5"
                   style="stroke:#000000;stroke-width:0.8" />
              </defs>
              <g
                 id="g244">
                <use
                   xlink:href="#mea02dc4b73"
                   x="84.691727"
                   y="541.79999"
                   style="stroke:#000000;stroke-width:0.8"
                   id="use242" />
              </g>
            </g>
            <g
               id="text_10">
              <!-- $\mathdefault{0}$ -->
              <g
                 transform="matrix(0.3,0,0,-0.3,63.984586,552.44748)"
                 id="g249">
                <use
                   xlink:href="#CMR17-30"
                   transform="scale(0.996264)"
                   id="use247" />
              </g>
            </g>
          </g>
          <g
             id="ytick_2">
            <g
               id="line2d_12">
              <g
                 id="g255">
                <use
                   xlink:href="#mea02dc4b73"
                   x="84.691727"
                   y="442.79999"
                   style="stroke:#000000;stroke-width:0.8"
                   id="use253" />
              </g>
            </g>
            <g
               id="text_11">
              <!-- $\mathdefault{5}$ -->
              <g
                 transform="matrix(0.3,0,0,-0.3,63.984586,453.44748)"
                 id="g260">
                <use
                   xlink:href="#CMR17-35"
                   transform="scale(0.996264)"
                   id="use258" />
              </g>
            </g>
          </g>
          <g
             id="ytick_3">
            <g
               id="line2d_13">
              <g
                 id="g266">
                <use
                   xlink:href="#mea02dc4b73"
                   x="84.691727"
                   y="343.79999"
                   style="stroke:#000000;stroke-width:0.8"
                   id="use264" />
              </g>
            </g>
            <g
               id="text_12">
              <!-- $\mathdefault{10}$ -->
              <g
                 transform="matrix(0.3,0,0,-0.3,50.277443,354.44748)"
                 id="g273">
                <use
                   xlink:href="#CMR17-31"
                   transform="scale(0.996264)"
                   id="use269" />
                <use
                   xlink:href="#CMR17-30"
                   transform="matrix(0.996264,0,0,0.996264,45.690477,0)"
                   id="use271" />
              </g>
            </g>
          </g>
          <g
             id="ytick_4">
            <g
               id="line2d_14">
              <g
                 id="g279">
                <use
                   xlink:href="#mea02dc4b73"
                   x="84.691727"
                   y="244.8"
                   style="stroke:#000000;stroke-width:0.8"
                   id="use277" />
              </g>
            </g>
            <g
               id="text_13">
              <!-- $\mathdefault{15}$ -->
              <g
                 transform="matrix(0.3,0,0,-0.3,50.277443,255.44748)"
                 id="g286">
                <use
                   xlink:href="#CMR17-31"
                   transform="scale(0.996264)"
                   id="use282" />
                <use
                   xlink:href="#CMR17-35"
                   transform="matrix(0.996264,0,0,0.996264,45.690477,0)"
                   id="use284" />
              </g>
            </g>
          </g>
          <g
             id="ytick_5">
            <g
               id="line2d_15">
              <g
                 id="g292">
                <use
                   xlink:href="#mea02dc4b73"
                   x="84.691727"
                   y="145.8"
                   style="stroke:#000000;stroke-width:0.8"
                   id="use290" />
              </g>
            </g>
            <g
               id="text_14">
              <!-- $\mathdefault{20}$ -->
              <g
                 transform="matrix(0.3,0,0,-0.3,50.277443,156.44748)"
                 id="g299">
                <use
                   xlink:href="#CMR17-32"
                   transform="scale(0.996264)"
                   id="use295" />
                <use
                   xlink:href="#CMR17-30"
                   transform="matrix(0.996264,0,0,0.996264,45.690477,0)"
                   id="use297" />
              </g>
            </g>
          </g>
          <g
             id="ytick_6">
            <g
               id="line2d_16">
              <g
                 id="g305">
                <use
                   xlink:href="#mea02dc4b73"
                   x="84.691727"
                   y="46.799999"
                   style="stroke:#000000;stroke-width:0.8"
                   id="use303" />
              </g>
            </g>
            <g
               id="text_15">
              <!-- $\mathdefault{25}$ -->
              <g
                 transform="matrix(0.3,0,0,-0.3,50.277443,57.44748)"
                 id="g312">
                <use
                   xlink:href="#CMR17-32"
                   transform="scale(0.996264)"
                   id="use308" />
                <use
                   xlink:href="#CMR17-35"
                   transform="matrix(0.996264,0,0,0.996264,45.690477,0)"
                   id="use310" />
              </g>
            </g>
          </g>
          <g
             id="text_16">
            <!-- $\textrm{Gap width } \Delta_{\textrm{gap}}$ -->
            <g
               transform="matrix(0,-0.4,-0.4,0,34.874009,411.21163)"
               id="g347">
              <defs
                 id="defs321">
                <path
                   id="CMR17-47"
                   d="m 3974,1258 c 0,245 20,278 416,278 v 166 c -153,-13 -499,-13 -672,-13 -179,0 -678,7 -921,13 v -166 h 192 c 550,0 563,-72 563,-304 V 806 C 3552,96 2720,38 2522,38 1862,38 781,496 781,2179 c 0,1683 1062,2134 1683,2134 723,0 1248,-632 1370,-1528 12,-77 12,-90 70,-90 70,0 70,13 70,129 v 1527 c 0,116 -6,122 -44,122 -26,0 -32,-6 -77,-83 l -282,-541 c -313,400 -697,631 -1190,631 -1095,0 -2087,-973 -2087,-2301 0,-1321 973,-2307 2100,-2307 518,0 1024,185 1222,553 109,-264 288,-445 320,-445 32,0 38,7 38,122 z"
                   transform="scale(0.015625)" />
                <path
                   id="CMR17-77"
                   d="m 3725,2186 c 128,380 384,393 480,399 v 167 c -128,-7 -256,-13 -384,-13 -122,0 -397,0 -506,13 v -167 c 199,-13 307,-129 307,-289 0,-45 -12,-103 -25,-148 L 2995,398 2342,2296 c -12,45 -32,96 -32,122 0,167 218,167 320,167 v 167 c -147,-13 -416,-13 -569,-13 -160,0 -327,0 -474,13 v -167 c 352,0 352,-13 487,-418 L 1485,443 851,2302 c -32,84 -32,97 -32,116 0,167 218,167 320,167 v 167 c -153,-13 -422,-13 -582,-13 -141,0 -359,0 -493,13 v -167 c 282,0 352,-19 422,-232 L 1274,38 c 25,-83 44,-102 96,-102 44,0 70,12 102,108 L 2131,1987 2797,44 c 32,-96 57,-108 102,-108 51,0 71,19 96,102 z"
                   transform="scale(0.015625)" />
                <path
                   id="CMR17-64"
                   d="m 1869,4345 v -166 c 377,0 435,-38 435,-336 V 2371 c -26,32 -288,445 -806,445 C 845,2816 211,2228 211,1376 211,529 806,-64 1434,-64 c 544,0 825,425 857,470 V -64 l 775,51 v 167 c -378,0 -436,39 -436,349 V 4416 Z M 2291,762 C 2291,568 2176,393 2029,264 1811,70 1594,38 1472,38 c -186,0 -851,97 -851,1331 0,1267 742,1344 909,1344 294,0 531,-168 678,-400 83,-136 83,-156 83,-272 z"
                   transform="scale(0.015625)" />
                <path
                   id="CMR17-68"
                   d="m 2656,1954 c 0,328 -64,862 -819,862 -525,0 -781,-424 -858,-637 h -6 v 2237 l -762,-71 v -166 c 378,0 435,-38 435,-336 V 443 C 646,198 621,166 211,166 V 0 c 154,12 435,12 602,12 166,0 454,0 608,-12 v 166 c -410,0 -435,26 -435,277 v 1235 c 0,591 358,1035 806,1035 474,0 525,-424 525,-733 V 443 c 0,-245 -26,-277 -435,-277 V 0 c 153,12 435,12 601,12 167,0 455,0 608,-12 v 166 c -409,0 -435,26 -435,277 z"
                   transform="scale(0.015625)" />
                <path
                   id="CMR17-1"
                   d="m 2598,4435 c -51,109 -76,109 -128,109 -76,0 -83,-13 -128,-103 L 269,108 C 262,96 237,38 237,32 237,6 243,0 358,0 h 4218 c 115,0 122,6 122,32 0,6 -26,64 -32,76 z M 2310,4056 4083,358 H 531 Z"
                   transform="scale(0.015625)" />
              </defs>
              <use
                 xlink:href="#CMR17-47"
                 transform="scale(0.996264)"
                 id="use323" />
              <use
                 xlink:href="#CMR17-61"
                 transform="matrix(0.996264,0,0,0.996264,72.355346,0)"
                 id="use325" />
              <use
                 xlink:href="#CMR17-70"
                 transform="matrix(0.996264,0,0,0.996264,118.04582,0)"
                 id="use327" />
              <use
                 xlink:href="#CMR17-77"
                 transform="matrix(0.996264,0,0,0.996264,199.01716,0)"
                 id="use329" />
              <use
                 xlink:href="#CMR17-69"
                 transform="matrix(0.996264,0,0,0.996264,265.52704,0)"
                 id="use331" />
              <use
                 xlink:href="#CMR17-64"
                 transform="matrix(0.996264,0,0,0.996264,290.3981,0)"
                 id="use333" />
              <use
                 xlink:href="#CMR17-74"
                 transform="matrix(0.996264,0,0,0.996264,341.29347,0)"
                 id="use335" />
              <use
                 xlink:href="#CMR17-68"
                 transform="matrix(0.996264,0,0,0.996264,376.57424,0)"
                 id="use337" />
              <use
                 xlink:href="#CMR17-1"
                 transform="matrix(0.996264,0,0,0.996264,457.54557,0)"
                 id="use339" />
              <use
                 xlink:href="#CMR17-67"
                 transform="matrix(0.697382,0,0,0.697382,534.46516,-14.943915)"
                 id="use341" />
              <use
                 xlink:href="#CMR17-61"
                 transform="matrix(0.697382,0,0,0.697382,566.44834,-14.943915)"
                 id="use343" />
              <use
                 xlink:href="#CMR17-70"
                 transform="matrix(0.697382,0,0,0.697382,598.43153,-14.943915)"
                 id="use345" />
            </g>
          </g>
        </g>
        <g
           id="line2d_17">
          <path
             d="m 84.69173,66.59712 49.92631,0.0024 2.93685,1.954518 2.93684,6.470327 2.93684,6.006204 2.93684,5.573034 2.93685,5.168362 2.93684,4.789987 2.93684,4.435898 2.93684,4.10431 2.93684,3.79352 2.93685,3.50207 2.93684,3.22859 2.93684,2.97184 2.93684,2.73065 2.93684,2.50402 2.93685,2.29099 2.93684,2.09066 2.93684,1.90227 2.93684,1.72505 2.93684,1.55832 2.93685,1.40147 2.93684,1.25391 5.87368,3.15254 2.93685,1.38316 2.93684,1.23499 2.93684,1.09048 2.93684,1.5714 2.93684,1.94113 2.93685,1.75747 2.93684,1.57541 2.93684,1.3806 2.93684,1.19779 2.93684,1.02735 2.93685,0.86857 2.93684,0.72074 2.93684,0.58318 2.93684,0.45528 5.87369,0.56263 5.87368,0.15294 5.87369,-0.19846 5.87368,-0.49856 5.87368,-0.75358 5.87369,-0.96901 5.87368,-1.14969 8.81053,-1.9979 8.81052,-2.24996 11.74737,-3.2715 14.68421,-4.34637 46.98948,-14.09713 17.62105,-4.95262 14.68421,-3.90556 14.68421,-3.68775 14.68421,-3.46454 14.68421,-3.24232 14.68421,-3.02536 14.68421,-2.81646 14.68421,-2.617361 17.62106,-2.893165 17.62105,-2.64124 17.62105,-2.408632 17.62106,-2.194788 20.55789,-2.31412 20.55789,-2.073892 20.5579,-1.858056 22.88421,-1.841194 v 0"
             clip-path="url(#pd80d1ea262)"
             style="fill:none;stroke:#0d0887;stroke-width:3;stroke-linecap:square"
             id="path351" />
        </g>
        <g
           id="line2d_18">
          <path
             d="m 243.2812,534.40972 5.87369,-22.38578 5.87368,-20.91534 5.87369,-19.56428 5.87368,-18.32372 5.87368,-17.183 5.87369,-16.13249 5.87368,-15.16363 5.87369,-14.26879 5.87368,-13.44118 5.87368,-12.67471 5.87369,-11.96396 5.87368,-11.30405 5.87369,-10.69059 5.87368,-10.11966 5.87369,-9.58771 5.87368,-9.09147 5.87368,-8.62814 5.87369,-8.19504 5.87368,-7.78978 5.87369,-7.41021 5.87368,-7.0544 5.87369,-6.72047 5.87368,-6.40689 5.87368,-6.11208 5.87369,-5.83475 5.87368,-5.57356 5.87369,-5.32748 5.87368,-5.09536 5.87368,-4.87626 5.87369,-4.66935 5.87368,-4.47372 8.81053,-6.36679 8.81053,-5.9831 8.81052,-5.62914 8.81053,-5.30206 8.81052,-4.99943 8.81053,-4.71901 8.81053,-4.45881 8.81052,-4.2171 8.81053,-3.99223 8.81053,-3.78281 8.81052,-3.58753 11.74737,-4.50186 11.74737,-4.2055 11.74737,-3.93411 11.74737,-3.6851 11.74737,-3.45623 11.74736,-3.24549 11.74737,-3.05112 14.68421,-3.56301 14.68421,-3.30826 14.68421,-3.07649 2.32632,-0.46681 v 0"
             clip-path="url(#pd80d1ea262)"
             style="fill:none;stroke:#0d0887;stroke-width:3;stroke-linecap:square"
             id="path354" />
        </g>
        <g
           id="line2d_19">
          <path
             d="m 84.69173,67.517721 2.936842,26.447215 2.936842,24.467504 2.936842,22.67038 2.936842,21.03598 2.936842,19.54688 2.93684,18.18783 2.93684,16.9454 2.93685,15.80776 2.93684,14.76445 2.93684,13.80621 2.93684,12.92483 2.93685,12.113 2.93684,11.36421 2.93684,10.67267 2.93684,10.03318 2.93684,9.44109 2.93684,8.89223 2.93685,8.38284 2.93684,7.90957 2.93684,7.46935 2.93684,7.05944 2.93685,6.67738 2.93684,6.32089 2.93684,5.98795 2.93684,5.6767 2.93684,5.38544 2.93685,5.11268 2.93684,4.85699 2.93684,4.61709 2.93684,4.39184 2.93684,4.18016 2.93685,5.08106 2.93684,6.63143 2.93684,6.36079 2.93684,6.08709 2.93684,5.84218 2.93685,5.6091 2.93684,5.37476 2.93684,5.17602 2.93684,4.9699 2.93685,4.78054 2.93684,4.61073 2.93684,4.45321 2.93684,4.32592 2.93684,4.04899 2.93685,4.00828 2.93684,3.91362 2.93684,3.85311 2.93684,3.83384 2.93684,3.94374 2.93685,4.31333 2.93684,7.2939 2.93684,12.20393"
             clip-path="url(#pd80d1ea262)"
             style="fill:none;stroke:#ff0000;stroke-width:3;stroke-linecap:square"
             id="path357" />
        </g>
        <g
           id="patch_3">
          <path
             d="M 84.69173,561.6 V 7.2"
             style="fill:none;stroke:#000000;stroke-width:0.8;stroke-linecap:square;stroke-linejoin:miter"
             id="path360" />
        </g>
        <g
           id="patch_4">
          <path
             d="M 642.69173,561.6 V 7.2"
             style="fill:none;stroke:#000000;stroke-width:0.8;stroke-linecap:square;stroke-linejoin:miter"
             id="path363" />
        </g>
        <g
           id="patch_5">
          <path
             d="m 84.69173,561.6 h 558"
             style="fill:none;stroke:#000000;stroke-width:0.8;stroke-linecap:square;stroke-linejoin:miter"
             id="path366" />
        </g>
        <g
           id="patch_6">
          <path
             d="m 84.69173,7.2 h 558"
             style="fill:none;stroke:#000000;stroke-width:0.8;stroke-linecap:square;stroke-linejoin:miter"
             id="path369" />
        </g>
        <g
           id="text_17">
          <!-- $(b)$ -->
          <g
             transform="matrix(0.4,0,0,-0.4,99.37594,46.952044)"
             id="g383">
            <defs
               id="defs375">
              <path
                 id="CMR17-28"
                 d="m 1958,-1562 c 0,6 0,19 -19,38 -294,301 -1081,1121 -1081,3120 0,1999 774,2812 1088,3133 0,6 12,19 12,38 0,20 -19,33 -44,33 -71,0 -615,-475 -928,-1180 C 666,2909 576,2218 576,1603 c 0,-462 45,-1243 429,-2070 307,-666 832,-1133 909,-1133 32,0 44,12 44,38 z"
                 transform="scale(0.015625)" />
              <path
                 id="CMMI12-62"
                 d="m 1478,4255 c 7,26 20,64 20,96 0,65 -64,65 -77,65 -7,0 -237,-20 -352,-33 -109,-6 -205,-19 -320,-25 -154,-13 -199,-19 -199,-135 0,-64 64,-64 128,-64 327,0 327,-56 327,-119 0,-45 -51,-228 -77,-341 L 774,3093 C 710,2841 346,1392 320,1277 288,1117 288,1008 288,925 c 0,-651 365,-989 781,-989 742,0 1510,951 1510,1877 0,587 -333,1003 -813,1003 -332,0 -633,-275 -755,-403 z M 1075,64 c -205,0 -429,153 -429,651 0,210 20,332 135,779 19,83 121,491 147,574 13,51 390,619 826,619 281,0 409,-280 409,-612 C 2163,1768 1984,1047 1824,715 1664,370 1370,64 1075,64 Z"
                 transform="scale(0.015625)" />
              <path
                 id="CMR17-29"
                 d="m 1683,1596 c 0,461 -45,1243 -429,2069 -307,667 -832,1135 -908,1135 -20,0 -45,-7 -45,-39 0,-13 6,-19 13,-32 307,-321 1088,-1134 1088,-3126 0,-1999 -775,-2813 -1088,-3133 -7,-13 -13,-19 -13,-32 0,-32 25,-38 45,-38 70,0 614,473 928,1178 320,711 409,1403 409,2018 z"
                 transform="scale(0.015625)" />
            </defs>
            <use
               xlink:href="#CMR17-28"
               transform="scale(0.996264)"
               id="use377" />
            <use
               xlink:href="#CMMI12-62"
               transform="matrix(0.996264,0,0,0.996264,35.280768,0)"
               id="use379" />
            <use
               xlink:href="#CMR17-29"
               transform="matrix(0.996264,0,0,0.996264,76.756642,0)"
               id="use381" />
          </g>
        </g>
        <g
           id="legend_1">
          <g
             id="patch_7">
            <path
               d="m 450.78181,331.56092 h 170.90992 q 6,0 6,-6 v -82.32184 q 0,-6 -6,-6 H 450.78181 q -6,0 -6,6 v 82.32184 q 0,6 6,6 z"
               style="opacity:0.8;fill:#ffffff;stroke:#cccccc;stroke-linejoin:miter"
               id="path386" />
          </g>
          <g
             id="line2d_20">
            <path
               d="m 456.78181,260.03404 h 30 30.00001"
               style="fill:none;stroke:#0d0887;stroke-width:3;stroke-linecap:square"
               id="path389" />
          </g>
          <g
             id="text_18">
            <!-- $C = 0$ -->
            <g
               transform="matrix(0.3,0,0,-0.3,540.78182,270.53404)"
               id="g402">
              <defs
                 id="defs394">
                <path
                   id="CMMI12-43"
                   d="m 4781,4422 c 0,58 -45,58 -58,58 -13,0 -38,0 -89,-65 L 4192,3881 C 3968,4262 3616,4480 3136,4480 1754,4480 320,3087 320,1594 320,533 1069,-128 2003,-128 c 512,0 960,217 1331,528 557,464 724,1080 724,1131 0,57 -52,57 -71,57 -57,0 -64,-38 -77,-64 C 3616,533 2752,57 2112,57 1434,57 845,489 845,1391 c 0,203 64,1308 787,2140 352,407 954,763 1562,763 704,0 1017,-578 1017,-1226 0,-165 -19,-305 -19,-331 0,-57 64,-57 83,-57 71,0 77,7 103,121 z"
                   transform="scale(0.015625)" />
                <path
                   id="CMR17-3d"
                   d="m 4115,2048 c 96,0 192,0 192,108 0,116 -109,116 -217,116 H 512 c -109,0 -218,0 -218,-116 0,-108 96,-108 192,-108 z M 4090,927 c 108,0 217,0 217,116 0,109 -96,109 -192,109 H 486 c -96,0 -192,0 -192,-109 0,-116 109,-116 218,-116 z"
                   transform="scale(0.015625)" />
              </defs>
              <use
                 xlink:href="#CMMI12-43"
                 transform="scale(0.996264)"
                 id="use396" />
              <use
                 xlink:href="#CMR17-3d"
                 transform="matrix(0.996264,0,0,0.996264,104.62086,0)"
                 id="use398" />
              <use
                 xlink:href="#CMR17-30"
                 transform="matrix(0.996264,0,0,0.996264,204.00965,0)"
                 id="use400" />
            </g>
          </g>
          <g
             id="line2d_21">
            <path
               d="m 456.78181,302.69496 h 30 30.00001"
               style="fill:none;stroke:#ff0000;stroke-width:3;stroke-linecap:square"
               id="path405" />
          </g>
          <g
             id="text_19">
            <!-- $C = 1$ -->
            <g
               transform="matrix(0.3,0,0,-0.3,540.78182,313.19496)"
               id="g414">
              <use
                 xlink:href="#CMMI12-43"
                 transform="scale(0.996264)"
                 id="use408" />
              <use
                 xlink:href="#CMR17-3d"
                 transform="matrix(0.996264,0,0,0.996264,104.62086,0)"
                 id="use410" />
              <use
                 xlink:href="#CMR17-31"
                 transform="matrix(0.996264,0,0,0.996264,204.00965,0)"
                 id="use412" />
            </g>
          </g>
        </g>
      </g>
    </g>
    <g
       transform="matrix(4,0,0,4,128.21033,238.85448)"
       id="g478">
      <sodipodi:namedview
         id="namedview631"
         pagecolor="#ffffff"
         bordercolor="#999999"
         borderopacity="1"
         inkscape:showpageshadow="0"
         inkscape:pageopacity="0"
         inkscape:pagecheckerboard="0"
         inkscape:deskcolor="#d1d1d1"
         inkscape:document-units="mm"
         showgrid="false"
         inkscape:zoom="0.75455247"
         inkscape:cx="-64.939155"
         inkscape:cy="257.76869"
         inkscape:window-width="1920"
         inkscape:window-height="1025"
         inkscape:window-x="0"
         inkscape:window-y="31"
         inkscape:window-maximized="1"
         inkscape:current-layer="g537" />
      <defs
         id="defs626">
        <clipPath
           id="clipPath4882">
          <path
             clip-rule="nonzero"
             d="m 8,3 h 7 V 8.300781 H 8 Z m 0,0"
             id="path2481" />
        </clipPath>
        <clipPath
           id="clipPath8553">
          <path
             clip-rule="nonzero"
             d="m 28,0 h 5.441406 V 8 H 28 Z m 0,0"
             id="path1961" />
        </clipPath>
        <clipPath
           id="clipPath3738">
          <path
             clip-rule="nonzero"
             d="M 8,3 H 21 V 8.300781 H 8 Z m 0,0"
             id="path2832" />
        </clipPath>
        <clipPath
           id="clipPath8164">
          <path
             clip-rule="nonzero"
             d="m 8,3 h 7 V 8.300781 H 8 Z m 0,0"
             id="path5845" />
        </clipPath>
        <clipPath
           id="clipPath1351">
          <path
             clip-rule="nonzero"
             d="M 8,3 H 21 V 8.300781 H 8 Z m 0,0"
             id="path5085" />
        </clipPath>
        <clipPath
           id="clipPath9303">
          <path
             clip-rule="nonzero"
             d="m 34,0 h 5.414062 V 8 H 34 Z m 0,0"
             id="path6505" />
        </clipPath>
      </defs>
      <g
         inkscape:label="Calque 1"
         inkscape:groupmode="layer"
         id="layer1"
         transform="translate(-94.184455,-123.40184)">
        <g
           inkscape:label=""
           transform="matrix(0.63395474,0.00313045,-0.00313045,0.63395474,113.82692,167.60362)"
           id="g2801">
          <g
             id="g2927">
            <g
               inkscape:label=""
               transform="translate(-25.357762,-69.616777)"
               id="g1596">
              <g
                 fill="#000000"
                 fill-opacity="1"
                 id="g1572"
                 transform="translate(-0.46875,0.332625)">
                <g
                   id="g1570"
                   transform="translate(0,6.8080001)">
                  <path
                     d="m 4.40625,-6.953125 c -0.0625,-0.140625 -0.09375,-0.1875 -0.265625,-0.1875 -0.15625,0 -0.1875,0.046875 -0.25,0.1875 l -3.375,6.75 C 0.46875,-0.109375 0.46875,-0.09375 0.46875,-0.078125 0.46875,0 0.53125,0 0.6875,0 h 6.921875 c 0.15625,0 0.21875,0 0.21875,-0.078125 0,-0.015625 0,-0.03125 -0.046875,-0.125 z m -0.578125,0.8125 2.6875,5.390625 h -5.375 z m 0,0"
                     id="path1568" />
                </g>
              </g>
              <g
                 clip-path="url(#clipPath8164)"
                 id="g1580"
                 transform="translate(-0.46875,0.332625)">
                <g
                   fill="#000000"
                   fill-opacity="1"
                   id="g1578">
                  <g
                     id="g1576"
                     transform="translate(8.302,8.302)">
                    <path
                       d="m 0.40625,-4.78125 v 0.390625 h 0.75 v 4 h -0.75 V 0 H 3.921875 C 5.15625,0 5.84375,-0.609375 5.84375,-1.296875 5.84375,-1.828125 5.40625,-2.375 4.328125,-2.5 5.1875,-2.65625 5.59375,-3.109375 5.59375,-3.5625 5.59375,-4.25 4.859375,-4.78125 3.671875,-4.78125 Z M 2.125,-2.640625 v -1.75 h 1.46875 c 0.671875,0 0.953125,0.390625 0.953125,0.828125 0,0.5625 -0.46875,0.921875 -1.15625,0.921875 z m 0,2.25 v -1.9375 H 3.671875 C 4.65625,-2.328125 4.75,-1.5625 4.75,-1.3125 c 0,0.46875 -0.328125,0.921875 -1.140625,0.921875 z m 0,0"
                       id="path1574" />
                  </g>
                </g>
              </g>
              <g
                 fill="#000000"
                 fill-opacity="1"
                 id="g1586"
                 transform="translate(-0.46875,0.332625)">
                <g
                   id="g1584"
                   transform="translate(17.941999,6.8080001)">
                  <path
                     d="m 6.84375,-3.265625 c 0.15625,0 0.34375,0 0.34375,-0.1875 C 7.1875,-3.65625 7,-3.65625 6.859375,-3.65625 h -5.96875 c -0.140625,0 -0.328125,0 -0.328125,0.203125 0,0.1875 0.1875,0.1875 0.328125,0.1875 z m 0.015625,1.9375 c 0.140625,0 0.328125,0 0.328125,-0.203125 0,-0.1875 -0.1875,-0.1875 -0.34375,-0.1875 H 0.890625 c -0.140625,0 -0.328125,0 -0.328125,0.1875 0,0.203125 0.1875,0.203125 0.328125,0.203125 z m 0,0"
                     id="path1582" />
                </g>
              </g>
              <g
                 fill="#000000"
                 fill-opacity="1"
                 id="g1594"
                 transform="translate(-0.46875,0.332625)">
                <g
                   id="g1590"
                   transform="translate(28.460512,6.8080001)">
                  <path
                     d="m 2.9375,-6.375 c 0,-0.25 0,-0.265625 -0.234375,-0.265625 C 2.078125,-6 1.203125,-6 0.890625,-6 v 0.3125 c 0.203125,0 0.78125,0 1.296875,-0.265625 v 5.171875 c 0,0.359375 -0.03125,0.46875 -0.921875,0.46875 h -0.3125 V 0 c 0.34375,-0.03125 1.203125,-0.03125 1.609375,-0.03125 0.390625,0 1.265625,0 1.609375,0.03125 v -0.3125 h -0.3125 c -0.90625,0 -0.921875,-0.109375 -0.921875,-0.46875 z m 0,0"
                     id="path1588" />
                </g>
                <g
                   id="use42"
                   transform="translate(33.441814,6.8080001)">
                  <path
                     d="m 1.265625,-0.765625 1.0625,-1.03125 c 1.546875,-1.375 2.140625,-1.90625 2.140625,-2.90625 0,-1.140625 -0.890625,-1.9375 -2.109375,-1.9375 -1.125,0 -1.859375,0.921875 -1.859375,1.8125 0,0.546875 0.5,0.546875 0.53125,0.546875 0.171875,0 0.515625,-0.109375 0.515625,-0.53125 0,-0.25 -0.1875,-0.515625 -0.53125,-0.515625 -0.078125,0 -0.09375,0 -0.125,0.015625 0.21875,-0.65625 0.765625,-1.015625 1.34375,-1.015625 0.90625,0 1.328125,0.8125 1.328125,1.625 C 3.5625,-3.90625 3.078125,-3.125 2.515625,-2.5 l -1.90625,2.125 C 0.5,-0.265625 0.5,-0.234375 0.5,0 H 4.203125 L 4.46875,-1.734375 H 4.234375 C 4.171875,-1.4375 4.109375,-1 4,-0.84375 3.9375,-0.765625 3.28125,-0.765625 3.0625,-0.765625 Z m 0,0"
                     id="path66" />
                </g>
              </g>
            </g>
            <g
               id="g2876"
               transform="translate(-3.6029234,-12.620511)">
              <g
                 fill="#000000"
                 fill-opacity="1"
                 id="g2774"
                 transform="translate(-28.091482,-43.0444)">
                <g
                   id="g2772"
                   transform="translate(0,6.8080001)">
                  <path
                     d="m 4.40625,-6.953125 c -0.0625,-0.140625 -0.09375,-0.1875 -0.265625,-0.1875 -0.15625,0 -0.1875,0.046875 -0.25,0.1875 l -3.375,6.75 C 0.46875,-0.109375 0.46875,-0.09375 0.46875,-0.078125 0.46875,0 0.53125,0 0.6875,0 h 6.921875 c 0.15625,0 0.21875,0 0.21875,-0.078125 0,-0.015625 0,-0.03125 -0.046875,-0.125 z m -0.578125,0.8125 2.6875,5.390625 h -5.375 z m 0,0"
                     id="path2770" />
                </g>
              </g>
              <g
                 clip-path="url(#clipPath1351)"
                 id="g2786"
                 transform="translate(-28.091482,-43.0444)">
                <g
                   fill="#000000"
                   fill-opacity="1"
                   id="g2784">
                  <g
                     id="g2778"
                     transform="translate(8.302,8.302)">
                    <path
                       d="m 1.4375,-0.84375 c -0.25,0.390625 -0.46875,0.5625 -0.875,0.59375 -0.078125,0 -0.171875,0 -0.171875,0.140625 C 0.390625,-0.03125 0.453125,0 0.5,0 0.671875,0 0.90625,-0.03125 1.09375,-0.03125 1.3125,-0.03125 1.609375,0 1.8125,0 1.84375,0 1.953125,0 1.953125,-0.15625 1.953125,-0.25 1.859375,-0.25 1.828125,-0.25 1.78125,-0.265625 1.53125,-0.265625 1.53125,-0.453125 c 0,-0.09375 0.0625,-0.203125 0.09375,-0.265625 l 0.5625,-0.875 h 2 L 4.34375,-0.4375 C 4.328125,-0.359375 4.28125,-0.25 3.875,-0.25 c -0.09375,0 -0.1875,0 -0.1875,0.15625 C 3.6875,-0.0625 3.703125,0 3.796875,0 4,0 4.5,-0.03125 4.703125,-0.03125 c 0.125,0 0.28125,0.015625 0.40625,0.015625 C 5.234375,-0.015625 5.375,0 5.5,0 5.59375,0 5.640625,-0.0625 5.640625,-0.140625 5.640625,-0.25 5.5625,-0.25 5.453125,-0.25 c -0.40625,0 -0.421875,-0.0625 -0.4375,-0.21875 l -0.625,-4.3125 C 4.375,-4.921875 4.359375,-4.96875 4.234375,-4.96875 4.09375,-4.96875 4.0625,-4.90625 4,-4.8125 Z m 0.921875,-1 L 3.8125,-4.125 4.140625,-1.84375 Z m 0,0"
                       id="path2776" />
                  </g>
                  <g
                     id="g2782"
                     transform="translate(14.293192,8.302)">
                    <path
                       d="M 1.328125,-0.546875 C 1.265625,-0.3125 1.25,-0.25 0.703125,-0.25 0.59375,-0.25 0.5,-0.25 0.5,-0.109375 0.5,0 0.578125,0 0.703125,0 H 3.40625 c 1.171875,0 2.078125,-0.796875 2.078125,-1.484375 0,-0.5 -0.453125,-0.921875 -1.203125,-1 0.84375,-0.15625 1.546875,-0.6875 1.546875,-1.28125 0,-0.53125 -0.53125,-1 -1.4375,-1 h -2.53125 c -0.140625,0 -0.234375,0 -0.234375,0.15625 0,0.09375 0.09375,0.09375 0.234375,0.09375 0,0 0.140625,0 0.265625,0.015625 0.140625,0.015625 0.15625,0.03125 0.15625,0.109375 0,0 0,0.046875 -0.03125,0.140625 z m 1.109375,-2.03125 0.421875,-1.6875 c 0.0625,-0.21875 0.0625,-0.25 0.359375,-0.25 h 1.0625 c 0.703125,0 0.875,0.46875 0.875,0.734375 0,0.5625 -0.640625,1.203125 -1.578125,1.203125 z M 2.109375,-0.25 C 1.890625,-0.25 1.875,-0.265625 1.875,-0.328125 c 0,0 0,-0.03125 0.03125,-0.140625 L 2.390625,-2.375 H 3.875 c 0.640625,0 0.90625,0.4375 0.90625,0.828125 0,0.703125 -0.71875,1.296875 -1.5625,1.296875 z m 0,0"
                       id="path2780" />
                  </g>
                </g>
              </g>
              <g
                 fill="#000000"
                 fill-opacity="1"
                 id="g2792"
                 transform="translate(-28.091482,-43.0444)">
                <g
                   id="g2790"
                   transform="translate(23.917999,6.8080001)">
                  <path
                     d="m 6.84375,-3.265625 c 0.15625,0 0.34375,0 0.34375,-0.1875 C 7.1875,-3.65625 7,-3.65625 6.859375,-3.65625 h -5.96875 c -0.140625,0 -0.328125,0 -0.328125,0.203125 0,0.1875 0.1875,0.1875 0.328125,0.1875 z m 0.015625,1.9375 c 0.140625,0 0.328125,0 0.328125,-0.203125 0,-0.1875 -0.1875,-0.1875 -0.34375,-0.1875 H 0.890625 c -0.140625,0 -0.328125,0 -0.328125,0.1875 0,0.203125 0.1875,0.203125 0.328125,0.203125 z m 0,0"
                     id="path2788" />
                </g>
              </g>
              <g
                 clip-path="url(#clipPath9303)"
                 id="g2799"
                 transform="translate(-28.091482,-43.0444)">
                <g
                   fill="#000000"
                   fill-opacity="1"
                   id="g471">
                  <g
                     id="g2796"
                     transform="translate(34.436512,6.8080001)">
                    <path
                       d="m 4.578125,-3.1875 c 0,-0.796875 -0.046875,-1.59375 -0.390625,-2.328125 -0.453125,-0.96875 -1.28125,-1.125 -1.6875,-1.125 -0.609375,0 -1.328125,0.265625 -1.75,1.1875 -0.3125,0.6875 -0.359375,1.46875 -0.359375,2.265625 0,0.75 0.03125,1.640625 0.453125,2.40625 0.421875,0.796875 1.15625,1 1.640625,1 0.53125,0 1.296875,-0.203125 1.734375,-1.15625 0.3125,-0.6875 0.359375,-1.46875 0.359375,-2.25 z M 2.484375,0 C 2.09375,0 1.5,-0.25 1.328125,-1.203125 1.21875,-1.796875 1.21875,-2.71875 1.21875,-3.3125 c 0,-0.640625 0,-1.296875 0.078125,-1.828125 0.1875,-1.1875 0.9375,-1.28125 1.1875,-1.28125 0.328125,0 0.984375,0.1875 1.171875,1.171875 0.109375,0.5625 0.109375,1.3125 0.109375,1.9375 0,0.75 0,1.421875 -0.109375,2.0625 C 3.5,-0.296875 2.9375,0 2.484375,0 Z m 0,0"
                       id="path2794" />
                  </g>
                </g>
              </g>
            </g>
          </g>
        </g>
      </g>
    </g>
    <g
       transform="matrix(4,0,0,4,188.51357,76.723479)"
       id="g535">
      <sodipodi:namedview
         id="namedview480"
         pagecolor="#ffffff"
         bordercolor="#999999"
         borderopacity="1"
         inkscape:showpageshadow="0"
         inkscape:pageopacity="0"
         inkscape:pagecheckerboard="0"
         inkscape:deskcolor="#d1d1d1"
         inkscape:document-units="mm"
         showgrid="false"
         inkscape:zoom="0.75455247"
         inkscape:cx="35.120155"
         inkscape:cy="86.806422"
         inkscape:window-width="1920"
         inkscape:window-height="1025"
         inkscape:window-x="0"
         inkscape:window-y="31"
         inkscape:window-maximized="1"
         inkscape:current-layer="layer1" />
      <defs
         id="defs494">
        <clipPath
           id="clipPath484">
          <path
             clip-rule="nonzero"
             d="m 8,3 h 7 V 8.300781 H 8 Z m 0,0"
             id="path482" />
        </clipPath>
        <clipPath
           id="clipPath488">
          <path
             clip-rule="nonzero"
             d="m 28,0 h 5.441406 V 8 H 28 Z m 0,0"
             id="path486" />
        </clipPath>
        <clipPath
           id="clipPath492">
          <path
             clip-rule="nonzero"
             d="M 8,3 H 21 V 8.300781 H 8 Z m 0,0"
             id="path490" />
        </clipPath>
      </defs>
      <g
         inkscape:label="Calque 1"
         inkscape:groupmode="layer"
         id="g533"
         transform="translate(-95.665142,-125.72755)">
        <g
           id="g2858"
           transform="matrix(0.60049811,0,0,0.60049811,-92.698078,-41.075814)">
          <g
             inkscape:label=""
             transform="translate(319.654,277.775)"
             id="g1075">
            <g
               fill="#000000"
               fill-opacity="1"
               id="g28"
               transform="translate(-0.46875,0.332625)">
              <g
                 id="use26"
                 transform="translate(0,6.8080001)">
                <path
                   d="m 4.40625,-6.953125 c -0.0625,-0.140625 -0.09375,-0.1875 -0.265625,-0.1875 -0.15625,0 -0.1875,0.046875 -0.25,0.1875 l -3.375,6.75 C 0.46875,-0.109375 0.46875,-0.09375 0.46875,-0.078125 0.46875,0 0.53125,0 0.6875,0 h 6.921875 c 0.15625,0 0.21875,0 0.21875,-0.078125 0,-0.015625 0,-0.03125 -0.046875,-0.125 z m -0.578125,0.8125 2.6875,5.390625 h -5.375 z m 0,0"
                   id="path50" />
              </g>
            </g>
            <g
               clip-path="url(#clipPath4882)"
               id="g34"
               transform="translate(-0.46875,0.332625)">
              <g
                 fill="#000000"
                 fill-opacity="1"
                 id="g32">
                <g
                   id="use30"
                   transform="translate(8.302,8.302)">
                  <path
                     d="m 0.40625,-4.78125 v 0.390625 h 0.75 v 4 h -0.75 V 0 H 3.921875 C 5.15625,0 5.84375,-0.609375 5.84375,-1.296875 5.84375,-1.828125 5.40625,-2.375 4.328125,-2.5 5.1875,-2.65625 5.59375,-3.109375 5.59375,-3.5625 5.59375,-4.25 4.859375,-4.78125 3.671875,-4.78125 Z M 2.125,-2.640625 v -1.75 h 1.46875 c 0.671875,0 0.953125,0.390625 0.953125,0.828125 0,0.5625 -0.46875,0.921875 -1.15625,0.921875 z m 0,2.25 v -1.9375 H 3.671875 C 4.65625,-2.328125 4.75,-1.5625 4.75,-1.3125 c 0,0.46875 -0.328125,0.921875 -1.140625,0.921875 z m 0,0"
                     id="path54" />
                </g>
              </g>
            </g>
            <g
               fill="#000000"
               fill-opacity="1"
               id="g38"
               transform="translate(-0.46875,0.332625)">
              <g
                 id="use36"
                 transform="translate(17.941999,6.8080001)">
                <path
                   d="m 6.84375,-3.265625 c 0.15625,0 0.34375,0 0.34375,-0.1875 C 7.1875,-3.65625 7,-3.65625 6.859375,-3.65625 h -5.96875 c -0.140625,0 -0.328125,0 -0.328125,0.203125 0,0.1875 0.1875,0.1875 0.328125,0.1875 z m 0.015625,1.9375 c 0.140625,0 0.328125,0 0.328125,-0.203125 0,-0.1875 -0.1875,-0.1875 -0.34375,-0.1875 H 0.890625 c -0.140625,0 -0.328125,0 -0.328125,0.1875 0,0.203125 0.1875,0.203125 0.328125,0.203125 z m 0,0"
                   id="path58" />
              </g>
            </g>
            <g
               clip-path="url(#clipPath8553)"
               id="g44"
               transform="translate(-0.46875,0.332625)">
              <g
                 fill="#000000"
                 fill-opacity="1"
                 id="g42">
                <g
                   id="use40"
                   transform="translate(28.460512,6.8080001)">
                  <path
                     d="m 4.578125,-3.1875 c 0,-0.796875 -0.046875,-1.59375 -0.390625,-2.328125 -0.453125,-0.96875 -1.28125,-1.125 -1.6875,-1.125 -0.609375,0 -1.328125,0.265625 -1.75,1.1875 -0.3125,0.6875 -0.359375,1.46875 -0.359375,2.265625 0,0.75 0.03125,1.640625 0.453125,2.40625 0.421875,0.796875 1.15625,1 1.640625,1 0.53125,0 1.296875,-0.203125 1.734375,-1.15625 0.3125,-0.6875 0.359375,-1.46875 0.359375,-2.25 z M 2.484375,0 C 2.09375,0 1.5,-0.25 1.328125,-1.203125 1.21875,-1.796875 1.21875,-2.71875 1.21875,-3.3125 c 0,-0.640625 0,-1.296875 0.078125,-1.828125 0.1875,-1.1875 0.9375,-1.28125 1.1875,-1.28125 0.328125,0 0.984375,0.1875 1.171875,1.171875 0.109375,0.5625 0.109375,1.3125 0.109375,1.9375 0,0.75 0,1.421875 -0.109375,2.0625 C 3.5,-0.296875 2.9375,0 2.484375,0 Z m 0,0"
                     id="path1070" />
                </g>
              </g>
            </g>
          </g>
          <g
             inkscape:label=""
             transform="translate(313.67829,291.84911)"
             id="g2144">
            <g
               fill="#000000"
               fill-opacity="1"
               id="g31"
               transform="translate(-0.46875,0.332625)">
              <g
                 id="use29"
                 transform="translate(0,6.8080001)">
                <path
                   d="m 4.40625,-6.953125 c -0.0625,-0.140625 -0.09375,-0.1875 -0.265625,-0.1875 -0.15625,0 -0.1875,0.046875 -0.25,0.1875 l -3.375,6.75 C 0.46875,-0.109375 0.46875,-0.09375 0.46875,-0.078125 0.46875,0 0.53125,0 0.6875,0 h 6.921875 c 0.15625,0 0.21875,0 0.21875,-0.078125 0,-0.015625 0,-0.03125 -0.046875,-0.125 z m -0.578125,0.8125 2.6875,5.390625 h -5.375 z m 0,0"
                   id="path2124" />
              </g>
            </g>
            <g
               clip-path="url(#clipPath3738)"
               id="g39"
               transform="translate(-0.46875,0.332625)">
              <g
                 fill="#000000"
                 fill-opacity="1"
                 id="g37">
                <g
                   id="g515"
                   transform="translate(8.302,8.302)">
                  <path
                     d="m 1.4375,-0.84375 c -0.25,0.390625 -0.46875,0.5625 -0.875,0.59375 -0.078125,0 -0.171875,0 -0.171875,0.140625 C 0.390625,-0.03125 0.453125,0 0.5,0 0.671875,0 0.90625,-0.03125 1.09375,-0.03125 1.3125,-0.03125 1.609375,0 1.8125,0 1.84375,0 1.953125,0 1.953125,-0.15625 1.953125,-0.25 1.859375,-0.25 1.828125,-0.25 1.78125,-0.265625 1.53125,-0.265625 1.53125,-0.453125 c 0,-0.09375 0.0625,-0.203125 0.09375,-0.265625 l 0.5625,-0.875 h 2 L 4.34375,-0.4375 C 4.328125,-0.359375 4.28125,-0.25 3.875,-0.25 c -0.09375,0 -0.1875,0 -0.1875,0.15625 C 3.6875,-0.0625 3.703125,0 3.796875,0 4,0 4.5,-0.03125 4.703125,-0.03125 c 0.125,0 0.28125,0.015625 0.40625,0.015625 C 5.234375,-0.015625 5.375,0 5.5,0 5.59375,0 5.640625,-0.0625 5.640625,-0.140625 5.640625,-0.25 5.5625,-0.25 5.453125,-0.25 c -0.40625,0 -0.421875,-0.0625 -0.4375,-0.21875 l -0.625,-4.3125 C 4.375,-4.921875 4.359375,-4.96875 4.234375,-4.96875 4.09375,-4.96875 4.0625,-4.90625 4,-4.8125 Z m 0.921875,-1 L 3.8125,-4.125 4.140625,-1.84375 Z m 0,0"
                     id="path2128" />
                </g>
                <g
                   id="g518"
                   transform="translate(14.293192,8.302)">
                  <path
                     d="M 1.328125,-0.546875 C 1.265625,-0.3125 1.25,-0.25 0.703125,-0.25 0.59375,-0.25 0.5,-0.25 0.5,-0.109375 0.5,0 0.578125,0 0.703125,0 H 3.40625 c 1.171875,0 2.078125,-0.796875 2.078125,-1.484375 0,-0.5 -0.453125,-0.921875 -1.203125,-1 0.84375,-0.15625 1.546875,-0.6875 1.546875,-1.28125 0,-0.53125 -0.53125,-1 -1.4375,-1 h -2.53125 c -0.140625,0 -0.234375,0 -0.234375,0.15625 0,0.09375 0.09375,0.09375 0.234375,0.09375 0,0 0.140625,0 0.265625,0.015625 0.140625,0.015625 0.15625,0.03125 0.15625,0.109375 0,0 0,0.046875 -0.03125,0.140625 z m 1.109375,-2.03125 0.421875,-1.6875 c 0.0625,-0.21875 0.0625,-0.25 0.359375,-0.25 h 1.0625 c 0.703125,0 0.875,0.46875 0.875,0.734375 0,0.5625 -0.640625,1.203125 -1.578125,1.203125 z M 2.109375,-0.25 C 1.890625,-0.25 1.875,-0.265625 1.875,-0.328125 c 0,0 0,-0.03125 0.03125,-0.140625 L 2.390625,-2.375 H 3.875 c 0.640625,0 0.90625,0.4375 0.90625,0.828125 0,0.703125 -0.71875,1.296875 -1.5625,1.296875 z m 0,0"
                     id="path63" />
                </g>
              </g>
            </g>
            <g
               fill="#000000"
               fill-opacity="1"
               id="g43"
               transform="translate(-0.46875,0.332625)">
              <g
                 id="use41"
                 transform="translate(23.917999,6.8080001)">
                <path
                   d="m 6.84375,-3.265625 c 0.15625,0 0.34375,0 0.34375,-0.1875 C 7.1875,-3.65625 7,-3.65625 6.859375,-3.65625 h -5.96875 c -0.140625,0 -0.328125,0 -0.328125,0.203125 0,0.1875 0.1875,0.1875 0.328125,0.1875 z m 0.015625,1.9375 c 0.140625,0 0.328125,0 0.328125,-0.203125 0,-0.1875 -0.1875,-0.1875 -0.34375,-0.1875 H 0.890625 c -0.140625,0 -0.328125,0 -0.328125,0.1875 0,0.203125 0.1875,0.203125 0.328125,0.203125 z m 0,0"
                   id="path67" />
              </g>
            </g>
            <g
               fill="#000000"
               fill-opacity="1"
               id="g49"
               transform="translate(-0.46875,0.332625)">
              <g
                 id="g526"
                 transform="translate(34.436512,6.8080001)">
                <path
                   d="m 2.9375,-6.375 c 0,-0.25 0,-0.265625 -0.234375,-0.265625 C 2.078125,-6 1.203125,-6 0.890625,-6 v 0.3125 c 0.203125,0 0.78125,0 1.296875,-0.265625 v 5.171875 c 0,0.359375 -0.03125,0.46875 -0.921875,0.46875 h -0.3125 V 0 c 0.34375,-0.03125 1.203125,-0.03125 1.609375,-0.03125 0.390625,0 1.265625,0 1.609375,0.03125 v -0.3125 h -0.3125 c -0.90625,0 -0.921875,-0.109375 -0.921875,-0.46875 z m 0,0"
                   id="path2138" />
              </g>
              <g
                 id="use47"
                 transform="translate(39.417812,6.8080001)">
                <path
                   d="m 1.265625,-0.765625 1.0625,-1.03125 c 1.546875,-1.375 2.140625,-1.90625 2.140625,-2.90625 0,-1.140625 -0.890625,-1.9375 -2.109375,-1.9375 -1.125,0 -1.859375,0.921875 -1.859375,1.8125 0,0.546875 0.5,0.546875 0.53125,0.546875 0.171875,0 0.515625,-0.109375 0.515625,-0.53125 0,-0.25 -0.1875,-0.515625 -0.53125,-0.515625 -0.078125,0 -0.09375,0 -0.125,0.015625 0.21875,-0.65625 0.765625,-1.015625 1.34375,-1.015625 0.90625,0 1.328125,0.8125 1.328125,1.625 C 3.5625,-3.90625 3.078125,-3.125 2.515625,-2.5 l -1.90625,2.125 C 0.5,-0.265625 0.5,-0.234375 0.5,0 H 4.203125 L 4.46875,-1.734375 H 4.234375 C 4.171875,-1.4375 4.109375,-1 4,-0.84375 3.9375,-0.765625 3.28125,-0.765625 3.0625,-0.765625 Z m 0,0"
                   id="path75" />
              </g>
            </g>
          </g>
        </g>
      </g>
    </g>
  </g>
</svg>
