-4.903602906686986285e-01,1.138430205414440177e-01,1.688565250982660415e-01,-2.113328011487027314e-01,2.811858195997890553e-01,-9.304727280691513225e-02,-3.768646388844559825e-02,1.294425564924387958e-03,-2.417344167803165550e-02,1.560495092129348949e-01,-7.767719681799903353e-02,6.647378152935472240e-02,8.425063537939531458e-03,-1.578126562944570377e-01,-2.667836346139617482e-02,-1.216294599585988553e-02,-1.440918644860845164e-02,-1.073233026623443553e-02,-2.755523405266574379e-03,-1.129661565272817025e-01,-3.993401914216497817e-01,-9.127495921018975722e-02,1.425749757107997416e-02,9.078814309109146941e-02,6.130256830873425516e-02,3.002173058225621541e-02,-9.991290057285156113e-04,1.165962078683974515e-02,-5.273717859172925328e-03,-5.918849147602565225e-02,-3.840717825456965023e-02,5.634037683525720819e-02,-1.941123251324804178e-02,-6.781070639134817273e-03
-1.022455882887300938e-01,-4.885190689855094526e-01,3.112092103633226081e-01,1.080703713770368724e-02,-3.085025858834669621e-01,-5.928451966078972929e-02,-5.858574012813017040e-02,-5.033184754444221254e-02,-9.440476919430165759e-02,-4.571732974034393993e-02,8.536971167928271431e-02,-1.107283955602784836e-01,5.321811553024404992e-03,3.638728582034029407e-02,-3.301924856816971371e-02,2.304054859603781730e-02,2.435793370168507399e-04,2.131083630243049698e-02,-1.123316482273526394e-02,1.038711773426038015e-01,-5.767843398148233408e-02,-4.485443047724052557e-01,-5.256540348268077395e-02,4.702461576358981515e-02,-7.379621252257295705e-02,1.549213746340921509e-02,-2.467552130541752001e-02,2.256308362798498980e-03,2.937879055034927495e-02,2.075194149869043908e-02,3.533022623205790691e-02,4.361225993513857119e-02,-2.871592933857567559e-02,-3.708970523075735132e-02
-1.818157209164822929e-01,-3.033518188540896832e-01,-4.304381839187388370e-01,1.724030257775583941e-01,8.416798132358407902e-02,-2.825629311092221763e-02,-2.291689900818103809e-01,-2.493002780284632458e-02,1.960524782011858688e-02,5.016852254545294681e-02,3.542633355346137825e-02,1.921839457943238724e-02,1.259675504730073115e-01,-2.106756322274971338e-01,1.702049431137388769e-01,-3.585744894755522189e-02,5.453377128712391664e-02,-2.188262694062940994e-02,3.348710559297109202e-02,-1.934434207002981299e-01,3.219239279780159446e-01,-1.114715542568874007e-01,1.154812024379332780e-01,5.267929865911818998e-02,-1.356731675723291952e-01,-4.770077437469907172e-02,-4.269554117477686317e-02,-1.505133830935167366e-02,-4.365670628044426155e-02,-7.997439105193988873e-02,7.394280905376526825e-02,-5.120350313336113901e-02,5.013245019056841029e-02,-1.007532859399760776e-02
2.018608804544817503e-01,-2.320760810815888919e-02,-2.513504751340656651e-01,-4.837984818165823042e-01,-1.197728160985868928e-01,-2.205714196561751536e-02,-3.175924109125581318e-01,-5.557695407485504363e-02,-1.065898822422185199e-01,-7.604759324384256433e-03,-2.343100049552906960e-02,-4.971043924154238541e-02,1.312243992723797492e-01,5.995249743954777361e-02,-1.015728721878842410e-02,3.786470636682903994e-03,3.985774720937533544e-02,7.072354045199284733e-03,3.226177953753415345e-02,6.075332900203085640e-02,-1.318567920091343049e-01,1.561334148733798943e-01,-5.025232669643354272e-02,6.127564465717077807e-04,-2.177140387756322792e-01,5.719007351392884492e-02,-2.040516530189478289e-02,-4.552212389454492886e-02,2.357797539280421031e-02,-2.928905695409248638e-02,-2.226650256322720151e-02,8.434670521639928142e-02,1.497284635063928296e-03,-2.557482045897168169e-02
-3.181514710023875536e-01,2.870367109276648065e-01,-7.663352544185711435e-02,2.437312649107421444e-02,-2.837810414211965337e-01,-1.295910185938924375e-01,-1.284689915516186443e-01,-4.887400581961090507e-03,-4.830579762154587481e-02,-2.717667751161448320e-02,-1.669136531977678251e-01,-6.501745967396940773e-02,6.550850067561703183e-02,2.047826729632119258e-01,-4.067391532059989184e-02,-1.665695802446666429e-04,5.706699022971865182e-02,-1.650604443738251659e-02,5.736759997240546000e-02,1.178610492278963084e-01,4.333890705217992301e-02,-1.394574360257347379e-01,1.672176013255657206e-02,-8.658805362015792317e-02,1.141327305101566131e-01,9.626454670324366414e-02,3.505044545150116930e-02,4.502025945794187536e-03,4.641750958614141581e-02,8.549691591821881320e-02,4.642619493881638970e-02,-7.927337038950049708e-02,-9.127682704343216546e-02,-9.881586061483338401e-02
1.231540010159484777e-01,3.352541493993933808e-02,-5.049686224447039185e-02,9.540880381725300174e-02,1.441315907263675811e-01,-9.304510141989301431e-02,-1.023189751940985215e-02,-4.647172661804804816e-02,-1.611438330605623748e-01,-1.108761326837762184e-01,-4.648482933568238995e-02,1.394079787346975130e-01,1.212120521564941655e-01,-8.990723241581977110e-02,-1.368490724118923141e-01,-4.154812164458340090e-03,2.983193557225907733e-02,3.102115125369960848e-03,1.071342234045899039e-01,-5.191019846100612678e-02,-1.699894021381837331e-02,-5.056996888251793359e-02,1.108338235432498181e-01,-4.837073363666365838e-02,-1.993089082750824220e-02,-2.334801725724952592e-01,-7.002778054194656876e-02,-5.206735904092440331e-02,8.277263450000980904e-02,-2.924519499543687742e-02,-2.406269006079652523e-02,-2.587083581651846917e-02,-7.882828591868536530e-03,-4.540748051339632031e-03
-6.724725272853002145e-02,-2.841308526665252063e-02,-1.206567841885842485e-01,-3.764154627968526734e-01,-5.155824261336231645e-02,6.116561315708477636e-02,-5.742857458286759753e-02,2.050262589430584814e-01,6.832946895625688355e-02,-7.392880433005115381e-02,4.147644869762887737e-02,1.453819269870682551e-01,-2.234656224459688478e-02,-1.331652827413757068e-01,1.759612678098124161e-01,-5.316897624723996608e-03,1.845817352510449247e-02,-8.279191378911829324e-02,9.368134364460503627e-02,4.430935947448053774e-02,-5.171338934449836583e-02,1.073305714210062538e-02,7.690095561773628574e-02,1.960685675452027155e-02,1.145393733781292257e-02,3.942027771863185898e-02,7.703473311357628139e-02,1.338551705169892803e-01,-2.232034183464042670e-02,7.693208697718589839e-02,-1.376771665243257080e-02,1.522191653223948712e-02,-7.640145520479645590e-03,-2.600921259309945440e-03
4.623426678814926416e-02,1.512255631334805638e-02,4.580798135828471895e-02,4.063541082045518671e-02,3.343422808489056319e-02,-6.162737235948174269e-02,-2.111249392265446001e-01,2.625720573174312733e-01,-3.994898843853130765e-01,-1.050889138565429815e-01,8.059122398554414979e-02,7.667026410335608944e-02,7.515791505225665739e-04,-7.251495889734731193e-02,-8.026402201750823528e-02,-1.151829283474820401e-02,-5.441585798572649152e-02,3.306190617150817773e-02,-4.665575579100284670e-02,-3.857992944331616741e-02,5.083584087034503929e-02,-6.096742222410285461e-02,6.004224841979483723e-02,2.077237537614097344e-03,3.268890985190368859e-02,-3.420961318164353338e-02,8.625598318953206500e-02,-3.771964619420242748e-02,2.475495642342184777e-02,9.482016423887629220e-02,3.268847605776498827e-02,4.496170144058976581e-02,-1.916675198377289779e-01,-4.770823970112666318e-02
-1.031242295576062923e-01,-4.093497058018846779e-02,-3.066841040369156987e-02,-1.948199977086528811e-02,-8.391822845331622927e-02,1.157164457621899650e-01,4.497416019423355893e-02,3.806276093977480901e-01,2.096380213794507563e-01,-5.312837888629509120e-01,6.720445830652341246e-02,-5.874713460384664576e-02,1.150653774673948138e-01,-5.258214311131090279e-03,-1.904711155916088694e-01,-3.403985402210564764e-03,-2.369506893413990747e-02,-3.036452485315082814e-02,3.805382351842827304e-02,2.986980111595621476e-02,-1.266475435452970276e-02,7.843375029777957530e-03,7.373583619624447805e-02,1.120402207092585471e-02,-1.818745108388011289e-01,-1.803101788083898496e-02,2.522779936987532348e-02,2.754400107948894866e-02,-7.748125660385789260e-02,-8.178806382643845352e-02,1.136559931973236681e-01,1.082993094581204685e-01,5.377429016085678165e-02,1.721435271981942849e-02
1.273319000057873129e-01,-1.489641436071323932e-01,4.709840433063850612e-02,-5.477852134550312280e-02,-2.437215224088442461e-02,-1.164519535020106800e-01,8.885080665995813420e-02,-6.996316704749371007e-02,5.055235246816094374e-01,2.607379138575504074e-01,-4.209827439423181883e-02,9.594170732430763737e-02,1.010399797370911679e-01,-3.684768600694075802e-02,-3.873241012694995933e-02,3.946909382268348754e-02,-1.744831443583122477e-02,-9.694724575282934187e-03,2.752378416314528453e-02,1.374340441304045535e-01,-2.159558238965239574e-02,-1.126933130452519027e-02,-8.347922863093605941e-03,-2.402383923295171864e-02,2.184765232776486252e-02,-1.372406428390181843e-01,-2.329777966361330392e-05,-6.792186884514313239e-02,1.290754224625925706e-01,-1.187992570521461400e-01,6.628866302594547955e-02,5.350820551136470371e-02,5.260925103028633648e-04,5.881011768001160461e-02
2.321686043072030206e-02,1.464506372533390388e-02,-4.150370807475597945e-02,4.342752260285821786e-02,-2.039737678060828119e-01,9.561082970669960990e-02,2.201715721766133935e-02,-2.410445156897576130e-02,-1.408771977304275058e-01,3.737808253918319806e-02,2.814084784857932009e-01,-1.261774542456858272e-01,1.030040614161358559e-01,1.054263859012365689e-01,-1.336166446052681755e-01,-1.095065805664784120e-02,-4.987352219866507397e-03,-8.406603913834700958e-03,3.911276372068130808e-02,1.970866152398809482e-02,-3.993718145486665518e-03,-2.583234848741689307e-02,3.651511842181676820e-02,-3.514604362873394866e-02,-1.140147539368866966e-02,9.882461634565793684e-02,2.756594988008339436e-02,1.888007412274795779e-02,-9.298449104491429695e-03,4.072776612927031525e-02,1.015410487254341104e-01,3.161438971717552698e-02,1.699669546066750192e-01,1.202041262393038074e-02
1.199743436998620266e-01,-3.562615904231352520e-02,4.032237907195378168e-02,1.531740036643887588e-02,6.861388548783475816e-02,1.004723005304557770e-01,-1.531749399919138388e-01,8.552910377900276029e-02,6.810957533053851876e-02,6.000685149433279686e-02,8.890663240846460869e-02,2.767883776540375207e-01,6.652264587638048732e-02,2.097211313110373954e-01,-1.276495957268353187e-01,-1.997299865576049327e-03,2.292282291056519164e-02,2.796990793447641510e-02,-1.619246963610613058e-02,6.502580143833594506e-02,1.192503901256032062e-01,2.079206520589711726e-02,1.118208261173881529e-02,5.779159717626418391e-02,-1.714333337606625991e-03,2.145325368258608201e-01,2.989097575161555123e-02,3.661392986659918469e-02,-1.690719130716172858e-01,-7.814661866205320495e-02,1.893462756726943877e-02,1.731627011813737516e-01,-1.570428655766198944e-01,-1.373483422535217990e-01
8.582672686411460181e-03,4.968352566342476052e-03,-8.274583809766252601e-03,1.572137419620735777e-01,5.593353681986532738e-02,-1.403728971641928780e-01,-2.458863559832364168e-02,-2.394628042358672160e-02,1.060160300017994467e-01,-5.572483943816906871e-02,1.477792692102404271e-01,-6.228935477234267409e-02,-3.056890869645322029e-02,-1.972396906451987508e-01,-1.266746099560585141e-02,9.990133041906645861e-02,6.898704639819720763e-02,-1.617496539762920682e-02,7.224828402976100905e-02,1.304649867261060137e-01,7.904809355098030288e-02,1.142749982709346801e-01,2.159787576180650093e-01,-1.112805086893487866e-01,1.052883233236649452e-01,1.402793865025167008e-01,-6.133001366840122592e-02,-7.987582864549350181e-02,3.338125547536221344e-02,-1.246221800387601053e-01,9.171265369308038984e-02,2.429451853754465568e-02,4.489761097652822386e-02,-1.264048210133323358e-01
-2.184891791464146221e-02,1.876502244414517406e-01,-1.598027718346889947e-01,4.021534682580653330e-02,-2.359353289274342125e-01,-4.040090767913721848e-02,1.070513134213753603e-01,-5.156252032188355511e-02,-1.972906252363827717e-04,-5.485827830499323543e-02,-1.230558042966340693e-01,1.628266986785743276e-01,2.403854582665894690e-01,3.412388463588871684e-02,8.673820375478180633e-02,8.128001739290550975e-02,-2.157883282294326688e-01,1.354865686059780749e-02,-8.614560216620661959e-02,-9.704475110505045299e-02,-3.288108627240635823e-02,-9.561321010003763499e-02,1.073378986278912817e-01,-3.398468820408444280e-02,-2.864115871283462109e-02,-1.029225780979471649e-01,-1.488129946385928840e-02,7.947544957826454398e-03,-2.524156611509346601e-02,-1.850351924430225781e-01,-2.530894706431954799e-02,8.353864586646402024e-02,6.006277583384449226e-02,1.731271657621180904e-01
-3.674776010943496540e-02,-1.521483649657037925e-02,-6.642217823625617967e-02,1.851998613305805563e-01,-1.100250999451520134e-01,8.636733449107453220e-02,1.820862235542527463e-01,5.169239160981258657e-02,-1.879001238588320633e-01,1.684066612276600289e-02,-1.776616613782688869e-01,1.514847147871618560e-01,1.423632950938398100e-03,-9.408524818855479310e-02,-5.458182872437698091e-02,4.836727772761387212e-02,4.646986030334053497e-02,-9.014316711714623342e-02,8.616339032072216353e-02,1.672784889519981777e-01,8.949053248159657969e-03,4.267127290578222321e-02,1.097433063002698113e-02,-9.047846456302856277e-02,-8.932631467239614265e-02,6.735586790191676332e-02,-3.209819234274836203e-02,-5.821785471587728744e-02,4.299508010064110458e-02,4.077483195773649698e-03,-2.844875507091573427e-02,-5.199072189449364945e-02,-3.899483107993273467e-02,7.781527042684467654e-02
-1.929708020466963311e-02,1.737906801000037305e-02,-2.399517107182952413e-02,1.875251164448158911e-02,-2.016080494602333004e-02,8.634773417911639423e-03,1.233908020334819906e-03,-1.687940764506893135e-02,-9.833581210618155821e-03,4.651636202693414102e-02,-2.476259043413376118e-02,-3.238062396653446084e-03,-1.015258835487984068e-01,7.633347301207471514e-02,-7.584373837415128716e-02,1.141233497891660786e-01,-6.799902736004480308e-02,-5.228215365507764556e-01,4.412322327284489698e-01,-5.892839086367346844e-03,7.483546818003605772e-02,1.189753658591211245e-02,-1.226321739582186127e-02,-6.245002334503895434e-03,-4.166117836540172287e-02,-3.378010126506599334e-03,-3.978188861488991812e-03,2.928267279048153010e-02,-6.124351171460276633e-02,5.190354719153699586e-02,-2.017464137515247169e-02,4.970674191916716472e-02,1.461302427468919550e-02,-1.376910086072392556e-02
4.349061465287538952e-03,-1.649119177219795021e-02,1.410165260108943832e-03,7.124330573566985125e-02,4.422557403168932838e-02,-4.693252377512419082e-02,4.018767328897360908e-02,7.927305583202608197e-02,-1.807932645998899107e-02,-3.594789549279971477e-03,-1.451018213197944814e-02,-3.590190156729395482e-02,7.657841105465779119e-02,1.768042423453887457e-01,9.777676022147074875e-02,5.115262247874036161e-02,1.188982752276840221e-01,1.078108437706525452e-01,5.204354285645416134e-01,1.269934654099780236e-01,-5.609278480655964516e-02,7.771758876591737704e-03,4.112608541168918941e-02,2.407759820422334524e-02,-4.398707702832020672e-02,-3.505527296915540020e-02,-1.425893268701859951e-01,-6.121983065172080518e-02,1.942552218467390179e-02,5.558591661746969947e-02,-4.764020780667632682e-02,8.529195578313749151e-03,-2.212456175382394516e-02,2.905043331874646029e-02
-1.762593829055534092e-02,1.538185662282477544e-02,-1.190760196465188644e-02,8.462279571154604149e-03,-1.117482678431040016e-02,3.080037520040434032e-02,1.036364322076030603e-01,3.298885791900780379e-02,1.737403725491070902e-02,5.239494010313417577e-03,-1.308043509465879432e-02,2.196585171046652740e-02,2.769326614333550429e-02,9.520905355297150721e-03,4.462811697984574860e-02,-4.481125892775402741e-01,4.628054484591259676e-02,1.801674680580066246e-01,5.501491085549845700e-02,1.077424654457286995e-01,1.800811025481311237e-02,8.681646539650909877e-02,5.027260565062866698e-03,2.734049976915518126e-02,-1.103739459889144792e-01,-1.649465417939996112e-02,-1.355874723560277773e-01,9.589298167531705441e-02,-1.873043788759670009e-02,1.151785672801701813e-02,-2.879758590002914551e-02,4.665101750976045902e-02,3.866423904757593927e-02,-4.047627643409947712e-02
-1.061258401641519775e-03,8.524278625204511142e-03,-5.208103632766571817e-02,2.976802403956156987e-02,5.027461554088861334e-02,-1.207934486657685769e-01,4.371048874564849307e-02,4.003947978008352143e-02,4.291447367435381743e-02,-1.418038240060689494e-02,5.175514203138840280e-02,2.928540240982134557e-02,2.048692775936544752e-02,1.077633349256422457e-01,6.092605631765114771e-02,-2.977200082008573112e-01,5.369135702828464751e-01,-7.842911724445704447e-02,1.064349688216017498e-01,-4.291470084889881936e-02,8.279596901120133551e-03,-6.819630651458419290e-02,5.992323501465988272e-02,2.767567848950050133e-02,7.488184010415060987e-02,-5.376472619269508091e-02,2.146824649911555864e-03,-1.140699159204642266e-01,5.325820887459951913e-02,-1.164871656043807019e-01,3.081540649335150987e-03,-1.081149205080841474e-01,-1.733164734359943877e-03,5.281617327200155421e-02
-8.220366924405447806e-02,2.023305148518888819e-01,-4.940453972816432476e-02,4.370093034669103593e-02,-6.539588615684359396e-02,5.069232122697601289e-02,-1.039091609267602315e-02,-1.831015074040439825e-02,-3.329557991936722000e-02,1.032246684468637599e-01,-6.489827332888657707e-02,6.773630037364698764e-02,8.388966058932190162e-03,-1.003800608286262858e-01,-5.958604152558333311e-02,-1.463990464194634376e-02,-6.186033528939990228e-02,7.644727751364632784e-02,2.441661741370110272e-02,4.685626730368429027e-01,-1.156922074505291158e-02,2.979339936043697012e-02,2.406114108093906356e-01,1.729929115392837835e-01,-4.769567303569352545e-02,-1.718599692676205659e-01,-5.612303270733452754e-02,3.849201788289322024e-02,-1.889751945707858830e-02,-5.594479775022559442e-02,1.643379319386877729e-02,4.166670828904118357e-02,2.021646324184071808e-02,-7.410190460032500814e-02
-3.284502178819705409e-01,-3.270377557898123677e-01,-1.359519819608732971e-01,1.697407472297266795e-01,-1.426719055487045973e-01,4.107091083115278068e-02,-5.034018658845281630e-02,-7.585467196949269427e-04,1.903135765907330856e-03,2.929728415330490679e-02,-5.304246137722098964e-02,-6.174233696525154719e-02,6.699605099009402209e-02,1.343964623530195975e-02,1.740884538652118577e-02,-3.336177939458333935e-02,-1.861993794292972695e-02,-1.011710077128905733e-02,-1.047950447170947937e-02,4.942921886884148186e-02,-4.597859072996879348e-02,2.883897469226829324e-01,-1.553392569746937513e-01,2.033546418510636875e-02,-1.659774621577702648e-03,-2.933335148900518413e-02,1.533182188567034331e-02,-7.043405398113332383e-02,2.263157149809997826e-01,4.310289334433357183e-02,-2.412564175911000586e-01,2.294975640544637818e-01,-2.400360095814462261e-02,1.852384139692046100e-02
2.450364121896362601e-01,-1.396548005243681556e-01,-3.740517002657418599e-01,-2.573983601968192914e-03,1.545866214977269504e-01,1.306035700777944536e-02,-6.151418192948762687e-02,-8.272689192507105826e-02,-1.881113628659699874e-02,5.884929896471714772e-02,5.552003123863177327e-03,-8.205969873274397697e-02,-5.894813868938167389e-02,-4.845618796287774060e-02,-5.170917151230491199e-02,-3.699628214400920573e-02,-3.217113164930733571e-02,9.751038478589164893e-02,2.941294339084386811e-02,1.366931519600845246e-01,-2.111157731978384744e-01,-8.115577057344267042e-02,-3.318762394948648192e-02,-2.516961344646085480e-02,1.650902946513576885e-01,-1.618373044552622042e-02,1.985307690124294561e-02,4.782475691040977833e-02,1.384524341877620413e-01,7.142157544306571015e-02,3.817328057112978623e-02,1.205249032941073731e-02,-1.770214075203409287e-01,8.930380798756075433e-02
-2.771616750924372694e-02,-1.312625507275452519e-01,1.460717387990026657e-02,-1.972965119017397462e-02,1.456876514648534349e-01,7.169211305740967035e-04,1.034271178360776644e-01,-5.030936720589352512e-02,2.705100013506234191e-02,-4.199505174138325365e-03,4.736171180441772766e-02,-2.598844772427067948e-02,3.734370842133677981e-01,2.172086878022274486e-02,7.485675603856703497e-02,3.929057842200395223e-02,-2.574182924055609667e-02,2.844818246142106089e-03,5.213567472548758658e-02,2.419630527912562321e-02,-5.472994388836115859e-02,5.069578516772879628e-03,3.493215835154475646e-01,-1.802553079655128676e-01,5.329420830870541109e-02,-7.315184436585528416e-02,-1.458675404750168214e-01,3.018452716984136586e-02,-1.204235959331970834e-01,4.881231030858815267e-02,-1.620007588752027383e-01,4.796918708639222317e-02,-1.078063791550120942e-01,-1.870323807273672201e-01
8.979502923585883437e-03,-9.908315056583882896e-02,5.839177704138720504e-02,-3.510359724766375783e-02,-3.674792047440684703e-03,-1.009736148150481849e-01,-3.182129057382032666e-02,-1.623873101787244241e-02,-4.099386701613813577e-02,-1.899915440218970936e-02,-7.400760654021021519e-03,5.756405855917549885e-02,1.258211669750118264e-02,1.359933907690501339e-03,9.030322861125510137e-02,-2.775091117784251465e-03,7.127922810437145422e-03,4.203915689537618405e-02,-6.868840035916083664e-02,2.369631569934250725e-01,-9.682761425787819731e-03,3.966283071058409465e-02,1.248208540132038080e-01,-4.075503226627081865e-01,1.288225912986075937e-02,7.118175190046065193e-02,2.879088499227113185e-01,-5.179568583345841963e-03,2.597420437902630413e-02,2.516449090518515508e-01,2.306704666838926485e-02,5.275332991556658940e-02,9.867256680613176179e-02,-1.801850012082136313e-02
-1.575308612680102194e-01,1.355710772011030352e-01,-4.958580433480585387e-02,-1.643731823094587152e-01,7.645591134350132601e-02,-4.172301171675600606e-02,-2.000045484112973268e-02,-1.004228744079788682e-01,-1.542447409501273570e-01,6.593020501590525495e-02,-2.554693163998743299e-02,-6.712757047436251900e-02,6.495500749040428179e-02,-4.211386872752032225e-03,-5.742972004318203788e-02,2.620744572130861288e-02,4.753135546999161243e-02,7.937406439816080406e-02,7.092100198698374214e-03,-1.244015600574276299e-02,1.113037878248172574e-01,-1.128883830084042861e-01,2.280225623169291130e-02,-8.418364778134315718e-02,5.343790420847441269e-02,1.114942747107578597e-02,-9.675744126624914732e-02,-1.130925680193362384e-02,1.820267642565765454e-01,-1.263437402786727892e-01,1.452725648172059625e-01,1.670348474479661782e-01,1.284892806914618713e-01,-1.464599871479709547e-01
-7.926406648603660787e-02,6.631700931558180342e-03,-4.672224334054252137e-02,2.328442946180927370e-02,1.050763145705926743e-01,-1.247902608670068969e-01,-2.705251245418695272e-02,2.203748494683269860e-02,8.580495549582869974e-02,-9.560218287182715990e-02,1.437948614374505163e-01,1.490757395446587474e-01,-1.047245433792141078e-01,-1.647224869162350336e-02,-3.772792988989782936e-02,-4.610195046510986126e-03,-2.421928989994587625e-02,-3.985103126284791908e-02,1.710884460005102775e-02,-1.350115530988845736e-01,5.026697285096375090e-02,-3.877318712749673602e-02,-3.285985612168056125e-02,-3.986690524007122094e-02,-4.648282335169123120e-02,2.720008280382510413e-01,2.107525236583182304e-01,-2.260748177852837104e-01,3.038493352973397621e-01,1.893144606688969929e-03,-1.758774182780064588e-01,-2.417624515370364879e-01,2.419988311883320906e-02,1.076431894649170634e-01
-2.644335735358862433e-02,2.535347314348184236e-02,-4.079322281458905297e-02,-4.259129554872689849e-02,1.403849579563776553e-02,4.706706487517417492e-02,8.127563183814925929e-02,7.541425348398092532e-02,-1.155684236146230096e-03,1.034545059864958733e-01,-1.343595607876425964e-02,-5.222235088854277479e-02,-1.155011135944973427e-01,2.606296410918682374e-02,-9.066360549436412730e-02,6.875243961953360350e-02,-4.956495233572531106e-02,-4.243396182547418821e-02,-7.642576632997692687e-02,-1.467311582024787009e-01,3.780529213614347572e-02,-1.002024600458469167e-01,-9.446090019168179586e-02,-3.327698490359623507e-02,7.121082864789503829e-03,2.194228266691459761e-01,6.836717462739958506e-01,-1.434958183347929961e-02,4.707711518732098088e-02,-2.238823462328426439e-02,-1.179188134653951642e-02,-6.866592149855912930e-02,-3.336892278520907362e-02,1.180147158203645463e-02
-3.528512958705475391e-03,-1.069454100877579791e-02,2.218725905631415904e-02,-1.932910610778015847e-02,-1.453442050988846233e-02,7.559307509683220461e-02,1.079559287761984454e-01,-1.268646572599984312e-01,2.414021286943165284e-02,-1.103139426479007867e-03,4.819458116721187825e-03,2.248565199968422662e-02,-2.587920625466255675e-02,-5.004567655065628867e-02,-4.448879337089569480e-02,-1.579261342543180485e-02,-1.361972538449378323e-01,1.899712813515169740e-01,-5.005916558549648732e-02,-8.802336263134986905e-03,-1.358083792477026569e-02,2.056849505800193746e-03,1.947750507429404920e-02,-1.154370803185241906e-01,-4.848597345641212503e-02,-1.438803956301050180e-01,-6.989487878167213730e-02,7.853519937558933739e-01,-1.819929996366711211e-01,5.912872860526434404e-02,-7.681203728413621250e-03,1.245747815427569391e-02,1.129516373650560519e-02,-2.978049779255106944e-02
3.159403312035699574e-02,2.221734811211972544e-03,7.020402906220629680e-02,-5.508927538969135215e-03,9.797792316631366571e-04,-2.029741532753701755e-02,-1.952834014545776556e-02,7.282927247194509457e-02,-3.460918562988425651e-02,-1.387688804299753442e-01,-1.489269869429631944e-02,7.714615893113775658e-02,1.048367366366649428e-01,-2.140729054453495775e-02,1.089915936551516182e-02,7.658114688589238994e-02,-8.613714228796795491e-03,1.284673200466622534e-02,1.608067385161740526e-02,-8.467890520553554567e-02,2.046659799480479713e-01,1.889264799280629681e-01,-1.190861752090969505e-01,7.252927790639883410e-02,3.389674274776899310e-01,-7.155456283433483944e-02,2.565091958763010549e-02,-1.743951160219490149e-01,4.084682901877849381e-02,8.037337278448024314e-02,-5.633495087385275574e-02,-2.354380881419849275e-02,-2.281352850580088340e-02,1.451545857996403704e-02
3.260602292513938710e-02,3.201595157111586550e-03,6.418269166433238082e-02,1.807865210379770368e-02,-9.983010672659425877e-02,5.151317838710166991e-02,6.086220312056118964e-02,3.247962873795948169e-02,1.804779854043372378e-01,-7.875784797410387283e-02,1.180456513854184764e-02,-8.397504527786067707e-02,-6.390383425826325070e-02,-1.241802935733079677e-01,3.323987025869568762e-02,-7.467150307539020815e-02,2.013789615406894051e-02,-6.034353734026091237e-02,-1.166817068625478210e-01,-7.331124110820289030e-02,-4.474306197845893257e-02,1.257424743721904763e-02,-2.500181672252631618e-02,-6.760039704480423628e-02,-8.557935246698771675e-03,5.320364823629811224e-02,-1.667712810372831700e-02,3.508820969503822357e-02,4.116914737959351950e-02,3.924327609166822217e-01,4.337292793234081428e-02,7.198085278636880135e-02,-1.586176198365338991e-02,-9.483474661176868881e-02
-4.591706069414622920e-02,-3.672763884740777585e-02,-2.683420359324472509e-02,-1.263981817896239139e-04,-7.627712174842851689e-02,1.396550348129156453e-02,2.123832068520726396e-02,1.291159494321691970e-01,1.305226566335686289e-03,1.471820740467633670e-01,1.631217097883071454e-01,2.154397915478400982e-01,7.581912608510031626e-02,6.353187503785546857e-03,-3.716161772026390503e-02,1.059421895471836716e-03,-5.837295031181513605e-02,5.194561958620865297e-03,1.783233948798830168e-02,-2.890607401393495424e-02,-1.259370621836293225e-01,1.423918175474971348e-01,-1.600614355153610058e-01,-8.970667044082350494e-02,3.454747469306575225e-02,-1.248630573724593823e-01,-4.074003930213584979e-02,-9.846089459566215521e-03,-7.830250027559190751e-02,1.003638372520631455e-01,4.876225443446400853e-01,-1.724346242931629192e-01,4.153106036828088654e-02,6.983751250339412242e-03
-2.509597968470082124e-02,-5.756498865963610018e-02,5.832482818402409674e-02,-5.688825727250963055e-02,8.404215652270471959e-02,-3.884901332637549949e-03,4.331692444784574630e-02,-3.838496433296810506e-02,-3.766419575742088743e-02,5.853707639734199997e-02,-2.942631280018921484e-03,1.823799897528733949e-01,-1.136993045117368067e-01,9.767049836185977274e-02,1.763398375725043488e-02,-3.335753284783133515e-02,7.168373559143997875e-02,-4.732911315247290140e-02,-4.015422465108527128e-02,8.250132653944684813e-02,1.984670661403436787e-01,1.703757194024666660e-02,-8.031183472320428327e-03,-1.838657873525277875e-01,-5.477652276356452521e-02,-1.637413093630627758e-01,-1.195107367494355616e-01,3.073612730195682263e-02,6.909326223520563526e-02,3.052564226593065810e-02,3.719733324639666605e-02,4.029519815489844281e-01,3.588910905904298121e-02,1.732189678030307822e-01
3.598324146830996634e-02,-5.684284597950061552e-02,-6.030037652834129708e-02,2.274594711560747398e-02,6.173015350182693706e-02,4.828271760971778945e-03,-1.745092388443992767e-02,-7.466725815934311013e-03,8.230518540236243796e-04,-2.874032918489989943e-02,9.972096293898313757e-02,4.582900330099847624e-03,3.216784763996984736e-02,5.624299656527955577e-02,-3.227829574417041131e-02,2.078809267404501879e-02,-3.014846486281122159e-02,2.882329124096538048e-02,1.481180305582273154e-03,7.133793880235535234e-02,-1.355522250149199526e-01,-1.284732622988280226e-01,-1.454780958347673403e-01,1.564846287058301380e-02,1.579994705181403392e-01,9.035511127647460894e-02,-1.707173445300579767e-02,4.533562774017695085e-02,-5.789253992790884679e-02,-6.721538332777887703e-04,-4.152422133961542611e-02,5.319834258950148498e-02,5.160374031683466756e-01,2.296791483104949905e-02
3.460662018486834746e-02,5.912254993000365562e-03,5.840128200191622293e-02,1.127090175648111370e-02,1.083153860757563453e-01,7.361102982773917724e-02,3.818998841815318679e-02,-4.597195676075277460e-02,-5.188571838590844143e-02,1.896936025944933463e-02,-3.573747929904227960e-02,-1.475949859809381759e-01,6.446998675605894458e-02,2.219379431605869035e-01,2.806673309358301976e-02,-5.105042113659057079e-02,1.159688597939157254e-02,-4.053335483075483359e-02,-1.235467458361317328e-01,-4.022662321567670174e-02,2.998548688411142166e-02,7.191760892577338249e-02,9.021078849597315152e-02,-7.688888270132304692e-02,-5.833440377913200366e-03,1.057114103867956845e-01,3.843023339913764769e-02,2.464954236193966919e-02,-5.201232525142863300e-02,-1.212670101263884637e-01,6.977716726657769153e-02,4.395610113767688815e-02,4.475901918475787278e-02,4.865397727012412687e-01
