deltaB,deltaAB,C
-9.5,-9.6,0.41100637758279984
-11.9,-12.0,0.41298549735411394
-9.5,0.0,-1.027085948935235
-9.5,9.599999999999998,0.6725429083338328
-11.9,7.199999999999999,-1.0348018088265094
-7.1000000000000005,-7.2,0.40797328529119375
-11.9,-2.4000000000000004,-1.0219122843146529
-7.1000000000000005,2.3999999999999986,-1.0425114901882404
-9.5,-7.2,-1.0579169773864863
-9.5,2.3999999999999986,-1.029317281289416
-11.9,-9.6,-1.0558529030578085
-9.5,12.0,0.05103466045345327
-11.9,9.599999999999998,-1.0653401744500275
-11.9,0.0,-1.0211025144843382
-7.1000000000000005,-4.800000000000001,-1.0615480459349376
-7.1000000000000005,4.800000000000001,-1.0711495484246103
-9.5,-4.800000000000001,-1.0346860083385818
-7.1000000000000005,-12.0,0.019925650820555193
-11.9,-7.2,-1.0320343572685224
-9.5,4.800000000000001,-1.0375319347263885
-11.9,12.0,0.6766004241836985
-11.9,2.3999999999999986,-1.022141150729187
-7.1000000000000005,-2.4000000000000004,-1.0398887022072045
-7.1000000000000005,7.199999999999999,0.6675147478632284
-9.5,-2.4000000000000004,-1.028451610189386
-11.9,-4.800000000000001,-1.0248640654388375
-7.1000000000000005,-9.6,0.04083331722504125
-9.5,7.199999999999999,-1.0675020307485166
-9.5,-12.0,0.042894137074325475
-7.1000000000000005,9.599999999999998,0.048823320251243016
-11.9,4.800000000000001,-1.0257280675399214
-7.1000000000000005,0.0,-1.036695865448867
-7.1000000000000005,12.0,0.021878416626197918
-4.700000000000001,-4.800000000000001,0.4023713298615054
-2.3000000000000003,-12.0,0.005075552605641017
-4.700000000000001,4.800000000000001,0.6603252698202646
-2.3000000000000003,-2.4000000000000004,0.3864767959631819
-2.3000000000000003,7.199999999999999,0.014113371173534827
0.1,-9.6,-0.00012606546083419374
0.1,0.0,2.0848927482255757
-4.700000000000001,-12.0,0.010905150002029485
-4.700000000000001,-2.4000000000000004,-1.0698454602624181
-4.700000000000001,7.199999999999999,0.045134518737774874
-2.3000000000000003,-9.6,0.007309171249268204
-2.3000000000000003,0.0,-1.111854887249831
0.1,-7.2,-2.000970536741705
-2.3000000000000003,9.599999999999998,0.007368516830236502
0.1,2.3999999999999986,0.00434664362006961
-4.700000000000001,-9.6,0.01727478292101805
-4.700000000000001,0.0,-1.0553583323438238
-4.700000000000001,9.599999999999998,0.019123941336376238
-2.3000000000000003,-7.2,0.012061292878976875
-2.3000000000000003,2.3999999999999986,0.6453838621213756
0.1,-4.800000000000001,-2.003455852229305
-2.3000000000000003,12.0,0.0045141683120171186
0.1,4.800000000000001,-1.9987790925376558
-4.700000000000001,-7.2,0.03720203757356104
-4.700000000000001,2.3999999999999986,-1.0786001870086308
-4.700000000000001,12.0,0.010988398404567432
-2.3000000000000003,-4.800000000000001,0.028895993446663597
-2.3000000000000003,4.800000000000001,0.037649427525542296
0.1,-2.4000000000000004,-0.013179234369690037
0.1,7.199999999999999,-2.0000581820645733
0.1,-12.0,0.0001538485626586967
0.1,9.599999999999998,-0.00047990598799216966
2.4999999999999987,-7.2,-0.015650840631453927
2.4999999999999987,2.3999999999999986,1.4422465683108687
2.4999999999999987,12.0,-0.005508505892784891
4.9,-4.800000000000001,1.6798958630369392
4.9,4.800000000000001,1.4272821488170708
7.299999999999999,-12.0,-0.02321827281600129
7.299999999999999,-2.4000000000000004,1.0409837656157201
0.1,12.0,-0.0005577806544061133
2.4999999999999987,-4.800000000000001,-0.043082967980138186
2.4999999999999987,4.800000000000001,-0.033336205977846804
4.9,-12.0,-0.011658670161088252
4.9,-2.4000000000000004,1.07319331911733
4.9,7.199999999999999,-0.04129408440485866
7.299999999999999,-9.6,-0.053917963016847245
7.299999999999999,0.0,1.035672314403348
2.4999999999999987,-12.0,-0.0049768972153494085
2.4999999999999987,-2.4000000000000004,1.693621327001148
2.4999999999999987,7.199999999999999,-0.013367347745078986
4.9,-9.6,-0.020520344726477947
4.9,0.0,1.0531302413525907
4.9,9.599999999999998,-0.018408975490370322
7.299999999999999,2.3999999999999986,1.0385888004538095
7.299999999999999,-7.2,1.6736947706860452
2.4999999999999987,-9.6,-0.008126274337030918
2.4999999999999987,0.0,1.1030355966557936
2.4999999999999987,9.599999999999998,-0.00798513436000658
4.9,-7.2,-0.05030666806800379
4.9,2.3999999999999986,1.0654200570604744
4.9,12.0,-0.011483295448074646
7.299999999999999,4.800000000000001,1.0574792739388157
7.299999999999999,-4.800000000000001,1.0660207165686293
7.299999999999999,7.199999999999999,1.4218556893693568
9.699999999999998,-9.6,1.6698756382179372
9.699999999999998,0.0,1.0264844814179428
9.699999999999998,9.599999999999998,1.4188877137105596
12.1,12.0,1.416942144106266
12.1,-7.2,1.0334792362803604
12.1,2.3999999999999986,1.0214837995320432
9.699999999999998,-7.2,1.0624670222082087
7.299999999999999,9.599999999999998,-0.044831630512589676
9.699999999999998,2.3999999999999986,1.027780513940207
9.699999999999998,12.0,-0.046855640040252555
12.1,-4.800000000000001,1.025065295397352
9.699999999999998,-4.800000000000001,1.036149018881128
12.1,4.800000000000001,1.0242917504394804
7.299999999999999,12.0,-0.020999492567652506
9.699999999999998,4.800000000000001,1.0335598501382894
12.1,-12.0,1.667272959713034
12.1,-2.4000000000000004,1.0216831401411333
9.699999999999998,-2.4000000000000004,1.02856566761348
9.699999999999998,-12.0,-0.056099132769308224
12.1,7.199999999999999,1.0309707309035145
9.699999999999998,7.199999999999999,1.0539506023675984
12.1,-9.6,1.0603510911034093
12.1,0.0,1.0207026489449098
12.1,9.599999999999998,1.0519317730469189
