0.05,23.953650461214153,0.9999999999999961
0.051000000000000004,22.617932524286942,1.0000000000000013
0.052000000000000005,21.38219999543356,0.9999999999999958
0.053000000000000005,20.237231091141243,1.0000000000000038
0.054000000000000006,19.174808074915397,0.9999999999999983
0.055,18.187591935845873,1.0000000000000018
0.056,17.269014635993575,1.0000000000000013
0.057,16.413186201129065,0.9999999999999986
0.058,15.614814395093767,1.0000000000000002
0.059000000000000004,14.869135088633797,1.0000000000000007
0.060000000000000005,14.171851750892296,1.0000000000000002
0.061,13.519082734593548,0.9999999999999983
0.062,12.907315250288427,1.0000000000000013
0.063,12.333365082136787,0.9999999999999992
0.064,11.794341254728323,0.9999999999999992
0.065,11.287614981084488,1.0000000000000038
0.066,10.810792304924698,1.0000000000000029
0.067,10.361689966806765,0.9999999999999974
0.068,9.93831405408378,1.0000000000000009
0.069,9.538841092759633,0.9999999999999992
0.07,9.161601264971496,0.9999999999999989
0.07100000000000001,8.805063491053195,1.0000000000000022
0.07200000000000001,8.467822139837562,0.9999999999999972
0.07300000000000001,8.14858517578577,0.9999999999999994
0.07400000000000001,7.84616356872487,1.0000000000000002
0.07500000000000001,7.559461813770984,1.0
0.076,7.287469441898743,1.000000000000001
0.077,7.029253388836151,1.000000000000002
0.078,6.783951151551389,0.9999999999999986
0.079,6.55076460911291,1.0
0.08,6.328954472967828,1.000000000000002
0.081,6.117835258713937,1.0000000000000007
0.082,5.861216315129466,1.0000000000000007
0.083,5.5262953088557065,1.0000000000000007
0.084,5.205043575391086,1.0000000000000013
0.085,4.897614483142264,1.0000000000000009
0.086,4.602555239037822,0.9999999999999989
0.087,4.31926698966118,1.0000000000000018
0.088,4.047814564265964,0.9999999999999986
0.089,3.786399389840181,0.9999999999999998
0.09,3.5353942027412604,1.000000000000001
0.091,3.2939531313903796,1.0000000000000029
0.092,3.0610878650345565,1.000000000000001
0.093,2.8361784466787965,1.0000000000000002
0.094,2.6176975935401847,1.0000000000000002
0.095,2.4132031993559293,1.000000000000002
0.096,2.2107647451153802,0.9999999999999992
0.097,2.0131068584144947,0.9999999999999992
0.098,1.818505642356798,1.000000000000001
0.099,1.62487742970022,1.000000000000001
0.1,1.425698572466481,0.9999999999999992
0.101,1.2078535696455983,0.9999999999999983
0.10200000000000001,0.8394744736986564,0.9999999999999989
0.10300000000000001,0.2231146136424993,1.000000000000002
0.10400000000000001,0.37324657949902385,5.654319433712919e-16
0.10500000000000001,0.9481942875102618,8.481479150569378e-16
0.10600000000000001,1.5038415809153518,-1.4135798584282298e-15
0.10700000000000001,2.0409074180555224,-1.1308638867425838e-15
0.10800000000000001,2.560171505645086,-1.4135798584282298e-15
0.109,3.062387189695017,-2.8271597168564595e-15
0.11,3.548266569110667,8.481479150569378e-16
0.111,4.018490842530231,3.9580236035990435e-15
0.112,4.473707265133553,-5.905561166363249e-16
0.113,4.9145265289263325,1.1650990239388925e-16
0.114,5.341535361118703,2.999370739648375e-15
0.115,5.75528563296988,-1.4315049897384744e-14
0.116,6.156307712725923,-2.8271597168564594e-16
0.117,6.545101147208721,1.4135798584282297e-16
0.11800000000000001,6.922147363965552,1.4135798584282297e-16
0.11900000000000001,7.2878989806894605,-3.1098756885421053e-15
0.12000000000000001,7.642793215419312,1.4135798584282298e-15
0.121,7.987241406973815,1.1308638867425838e-15
0.122,8.321640701248596,1.5549378442710527e-15
0.123,8.64636555275037,-1.1308638867425838e-15
0.124,8.961777844393197,-9.895059008997609e-16
0.125,9.26821847917467,1.8376538159566985e-15
0.126,9.566018189678447,1.4135798584282297e-16
0.127,9.855488049228429,-2.8271597168564594e-16
0.128,10.136929817113524,-1.2722218725854067e-15
0.129,10.410629027380603,-2.2617277734851675e-15
0.13,10.67685860610725,-1.4135798584282297e-16
0.131,10.93588343424379,1.2722218725854067e-15
0.132,11.187952480640952,-9.895059008997609e-16
0.133,11.433308232558762,4.240739575284689e-16
0.134,11.672180165462997,1.1308638867425838e-15
0.135,11.904787970771544,2.8271597168564594e-16
0.136,12.131345670900135,1.4135798584282297e-16
0.137,12.352055108249559,8.481479150569378e-16
0.138,12.567110117202262,2.8271597168564594e-16
0.139,12.776699357838996,9.895059008997609e-16
0.14,12.981001270700006,5.654319433712919e-16
0.14100000000000001,13.180187202024342,1.4135798584282298e-15
0.14200000000000002,13.374424225877728,2.8271597168564594e-16
0.14300000000000002,13.56387036313503,1.2722218725854067e-15
0.14400000000000002,13.748677272449173,7.067899292141149e-16
0.14500000000000002,13.928993746278275,1.5549378442710527e-15
0.14600000000000002,14.104959863719117,-4.240739575284689e-16
0.14700000000000002,14.276711333051619,2.8271597168564594e-16
0.14800000000000002,14.444377758905265,1.2722218725854067e-15
0.14900000000000002,14.608086703871788,-2.8271597168564594e-16
0.15000000000000002,14.767958127249234,1.2722218725854067e-15
0.15100000000000002,14.924108460424739,-1.4135798584282297e-16
0.152,15.07664911421583,7.067899292141149e-16
0.153,15.22568955192746,1.8376538159566985e-15
0.154,15.371333120778749,0.0
0.155,15.513680124821995,3.8166656177562206e-15
0.156,15.65282639443989,-8.481479150569378e-16
0.157,15.788866902001976,-1.4135798584282297e-16
0.158,15.921890697136927,-7.067899292141149e-16
0.159,16.05198453482227,-2.8271597168564594e-16
0.16,16.179232113642264,1.1308638867425838e-15
0.161,16.303713566141912,-2.2617277734851675e-15
0.162,16.425508209147342,7.067899292141149e-16
0.163,16.54469067664954,-4.240739575284689e-16
0.164,16.66133369717867,-1.8376538159566985e-15
0.165,16.775507520819936,1.6962958301138756e-15
0.166,16.887279426303422,-7.067899292141149e-16
0.167,16.996716226123983,-1.5549378442710527e-15
0.16799999999999998,17.10388071815355,-8.481479150569378e-16
0.16899999999999998,17.208834204419553,-7.067899292141149e-16
0.16999999999999998,17.311635963461555,2.4030857593279904e-15
0.17099999999999999,17.41234333619818,0.0
0.172,17.511011071823138,-9.895059008997609e-16
0.173,17.607694269849752,0.0
0.174,17.702444145069734,-5.654319433712919e-16
0.175,17.795310971237043,2.8271597168564594e-16
0.176,17.886343424689564,2.1203697876423446e-15
0.177,17.97558862555205,-1.1308638867425838e-15
0.178,18.06309169966706,-2.5444437451708133e-15
0.179,18.148897913935002,1.5549378442710527e-15
0.18,18.233049575920262,-5.654319433712919e-16
0.181,18.315588196540375,2.5444437451708133e-15
0.182,18.396554004002432,-2.8271597168564594e-16
0.183,18.4759859961472,-2.6858017310136366e-15
0.184,18.553921990482902,5.088887490341627e-15
0.185,18.630398035708687,1.8376538159566985e-15
0.186,18.705450921087397,-2.4030857593279904e-15
0.187,18.77911452475882,-2.1203697876423446e-15
0.188,18.851422315305825,-7.067899292141149e-16
0.189,18.922406759293896,3.675307631913397e-15
0.19,18.992099373062892,-5.654319433712919e-16
0.191,19.060530756625525,6.3611093629270335e-15
0.192,19.12773060445879,-3.8166656177562206e-15
0.193,19.193727184977433,-7.067899292141149e-16
0.194,19.258549643144008,-7.209257277983971e-15
0.195,19.32222460133843,2.8271597168564595e-15
0.196,19.384778486195927,1.1308638867425838e-15
0.197,19.44623696733047,6.3611093629270335e-15
0.198,19.506624994541646,-3.8166656177562206e-15
0.199,19.5659668070613,8.481479150569378e-16
0.2,19.62428596560268,-2.5444437451708133e-15
0.201,19.681605382456155,-2.8271597168564594e-16
0.202,19.737947022087496,9.895059008997609e-16
0.203,19.793333172442058,-2.6858017310136366e-15
0.20400000000000001,19.84778457528145,-1.6962958301138756e-15
0.20500000000000002,19.90132172856078,-2.8271597168564594e-16
0.20600000000000002,19.953964561396152,1.4135798584282297e-16
0.20700000000000002,20.00573247452769,5.2302454761844496e-15
0.20800000000000002,20.05664433804281,7.067899292141149e-16
0.20900000000000002,20.106718522279632,7.067899292141149e-16
0.21000000000000002,20.155972909245133,-7.491973249669617e-15
0.21100000000000002,20.204424897758166,-9.470985051469139e-15
0.21200000000000002,20.2520909783429,6.643825334612679e-15
0.21300000000000002,20.298988583589114,-1.1591354839111484e-14
0.21400000000000002,20.34513331805315,1.9790118017995217e-15
0.21500000000000002,20.390540841402782,8.481479150569378e-16
0.21600000000000003,20.43522639030333,-8.622837136412201e-15
0.21700000000000003,20.47920483339304,-9.895059008997609e-16
0.21800000000000003,20.52249063673348,2.4030857593279904e-15
0.21900000000000003,20.565097926165222,-4.099381589441866e-15
0.22000000000000003,20.607040437282294,6.785183320455502e-15
0.22100000000000003,20.64833157279433,7.067899292141149e-16
0.22199999999999998,20.68898440759365,9.612343037311962e-15
0.22299999999999998,20.72901167169986,-3.1098756885421053e-15
0.22399999999999998,20.76842537598554,9.753701023154785e-15
0.22499999999999998,20.807238470418945,6.926541306298326e-15
0.22599999999999998,20.845462359034048,4.947529504498804e-15
0.22699999999999998,20.883108560568168,7.067899292141149e-15
0.22799999999999998,20.92018832444834,-8.198763178883733e-15
0.22899999999999998,20.956712612533465,-2.8271597168564594e-16
0.22999999999999998,20.992692133791905,7.916047207198087e-15
0.23099999999999998,21.028137350776092,-1.3287650669225359e-14
0.23199999999999998,21.063058440903237,-1.512530448518206e-14
0.23299999999999998,21.09746538109909,-1.809382218788134e-14
0.23399999999999999,21.131367867141453,-7.350615263826794e-15
0.235,21.16477540102182,9.895059008997609e-16
0.236,21.197697238507274,-2.8271597168564594e-16
0.237,21.230142425462205,-2.2193203777323208e-14
0.238,21.262119821434563,-2.1627771833951916e-14
0.239,21.29363774566677,-2.8271597168564595e-15
0.24,21.32470521282696,1.1025922895740192e-14
0.241,21.355330189668997,5.512961447870096e-15
0.242,21.38552071112243,4.523455546970335e-15
0.243,21.41528463194431,-1.2298144768325598e-14
0.244,21.444629664982116,-1.6821600315295934e-14
0.245,21.473563312643613,-8.481479150569378e-16
0.246,21.502092908829667,-6.785183320455502e-15
0.247,21.53022564335246,-9.612343037311962e-15
0.248,21.55796854708614,-5.654319433712919e-15
0.249,21.5853284706241,1.1732712824954307e-14
