0.0,95.6884402168332,-0.9995066415212583
1.0,66.54447988948512,-0.9995066415212783
2.0,-36.49638643661863,-0.9995066415212795
3.0,-103.07073678596889,-0.9995066415213008
4.0,95.68058232886554,-0.9995066415212929
5.0,66.54011442949923,-0.9995066415212922
6.0,-36.493447380804305,-0.9995066415212764
7.0,-103.06912289868846,-0.9995066415212792
8.0,95.6570493055377,-0.999506641521282
9.0,66.52696088437264,-0.999506641521267
10.0,-36.48460014940429,-0.9995066415212915
11.0,-103.06429576108513,-0.999506641521275
12.0,95.61784631901008,-0.9995066415212782
13.0,66.5050232716137,-0.9995066415212908
14.0,-36.46985315287656,-0.999506641521273
15.0,-103.05625910825316,-0.9995066415212817
16.0,95.56298201929512,-0.999506641521291
17.0,66.47430825799992,-0.9995066415212702
18.0,-36.44922040852544,-0.999506641521284
19.0,-103.04501917069841,-0.9995066415212628
20.0,95.49246855631858,-0.9995066415212699
21.0,66.43482514634006,-0.9995066415212822
22.0,-36.42272154822813,-0.9995066415212708
23.0,-103.03058468170516,-0.9995066415212861
24.0,95.40632161088168,-0.9995066415213032
25.0,66.38658585655485,-0.9995066415212797
26.0,-36.39038182943446,-0.9995066415212741
27.0,-103.01296688801693,-0.9995066415212515
28.0,95.30456043482272,-0.9995066415212585
29.0,66.32960490145885,-0.9995066415212615
30.0,-36.35223214922383,-0.99950664152129
31.0,-102.992179563356,-0.9995066415212956
32.0,95.1872079003593,-0.9995066415212839
33.0,66.26389935661994,-0.9995066415212616
34.0,-36.30830906190936,-0.9995066415212945
35.0,-102.96823902517224,-0.9995066415212697
36.0,95.05429055934161,-0.9995066415212861
37.0,66.18948882451203,-0.9995066415212752
38.0,-36.25865479983519,-0.9995066415212824
39.0,-102.94116415446092,-0.999506641521275
40.0,94.90583871199577,-0.9995066415212881
41.0,66.1063953925865,-0.9995066415212739
42.0,-36.203317297871116,-0.9995066415212844
43.0,-102.91097641880364,-0.999506641521271
44.0,94.74188648622594,-0.9995066415212993
45.0,66.01464358500999,-0.9995066415212752
46.0,-36.1423502215502,-0.9995066415212795
47.0,-102.87769989866477,-0.9995066415212628
48.0,94.56247192735256,-0.9995066415212864
49.0,65.9142603079206,-0.9995066415212791
50.0,-36.075812999060254,-0.9995066415212767
51.0,-102.84136131699873,-0.9995066415212757
52.0,94.36763709908094,-0.9995066415213005
53.0,65.80527478775481,-0.9995066415213106
54.0,-36.003770857356635,-0.9995066415212563
55.0,-102.80199007234366,-0.999506641521267
56.0,94.15742819604803,-0.9995066415212818
57.0,65.68771850256961,-0.9995066415212777
58.0,-35.9262948623354,-0.999506641521278
59.0,-102.75961827521803,-0.9995066415212805
60.0,93.93189566851484,-0.9995066415212903
61.0,65.56162510547092,-0.9995066415212751
62.0,-35.843461963771695,-0.9995066415212807
63.0,-102.71428078842855,-0.9995066415212701
64.0,93.69109435998854,-0.9995066415212919
65.0,65.42703034029034,-0.9995066415212828
66.0,-35.755355044835355,-0.9995066415212875
67.0,-102.66601527083134,-0.9995066415212805
68.0,93.43508365834758,-0.999506641521259
69.0,65.28397194869709,-0.9995066415212897
70.0,-35.662062976718474,-0.9995066415212667
71.0,-102.61486222503433,-0.999506641521291
72.0,93.16392766142282,-0.9995066415212841
73.0,65.13248956819687,-0.9995066415212861
74.0,-35.563680678530794,-0.9995066415212728
75.0,-102.56086504912183,-0.9995066415212799
76.0,92.87769535768852,-0.9995066415212787
77.0,64.97262462057667,-0.9995066415212778
78.0,-35.46030918308521,-0.9995066415212717
79.0,-102.50407009249594,-0.9995066415212781
80.0,92.57646082317603,-0.9995066415212644
81.0,64.8044201900844,-0.9995066415212827
82.0,-35.352055708565196,-0.999506641521281
83.0,-102.44452671595948,-0.9995066415212916
84.0,92.26030343565829,-0.9995066415212845
85.0,64.62792089062066,-0.9995066415212779
86.0,-35.239033736810484,-0.9995066415212774
87.0,-102.3822873563533,-0.9995066415212801
88.0,91.92930810716649,-0.9995066415212722
89.0,64.44317272110138,-0.9995066415212838
90.0,-35.12136309842285,-0.9995066415212771
91.0,-102.31740759593097,-0.9995066415212785
92.0,91.58356553603863,-0.9995066415212736
93.0,64.25022290825176,-0.9995066415212621
94.0,-34.99917006543832,-0.9995066415212916
95.0,-102.24994623655422,-0.9995066415212763
96.0,91.22317248003867,-0.9995066415212671
97.0,64.0491197359071,-0.999506641521277
98.0,-34.87258745172036,-0.9995066415212776
99.0,-102.17996537903456,-0.9995066415212854
100.0,90.84823205178698,-0.999506641521269
101.0,63.83991235962136,-0.9995066415212877
102.0,-34.741754721990844,-0.9995066415212814
103.0,-102.10753050801901,-0.9995066415212737
104.0,90.45885403818494,-0.9995066415213038
105.0,63.6226506057658,-0.9995066415212851
106.0,-34.6068181098563,-0.9995066415212719
107.0,-102.03271058239825,-0.9995066415212626
108.0,90.05515524545996,-0.9995066415212794
109.0,63.397384753700166,-0.9995066415212837
110.0,-34.46793074565664,-0.9995066415212737
111.0,-101.95557813187826,-0.9995066415212797
112.0,89.63725987175245,-0.9995066415212744
113.0,63.16416529986307,-0.9995066415212827
114.0,-34.325252794633435,-0.9995066415212784
115.0,-101.87620935986149,-0.9995066415212903
116.0,89.2052999091486,-0.9995066415212825
117.0,62.92304270248457,-0.9995066415212804
118.0,-34.17895160628564,-0.9995066415212698
119.0,-101.79468425295937,-0.9995066415212746
120.0,88.75941557706824,-0.999506641521292
121.0,62.67406710526233,-0.9995066415212648
122.0,-34.0292018759003,-0.9995066415212814
123.0,-101.71108669780618,-0.9995066415212654
124.0,88.29975578957982,-0.9995066415213019
125.0,62.41728803872148,-0.999506641521285
126.0,-33.876185818649446,-0.9995066415212763
127.0,-101.62550460526742,-0.9995066415212774
128.0,87.82647865861169,-0.9995066415212791
129.0,62.15275409747882,-0.9995066415212719
130.0,-33.720093357699106,-0.9995066415212992
131.0,-101.53803004278626,-0.9995066415212772
132.0,87.33975203572278,-0.9995066415212763
133.0,61.88051259162819,-0.9995066415212873
134.0,-33.561122327003936,-0.9995066415212838
135.0,-101.44875937545652,-0.9995066415212748
136.0,86.83975409496837,-0.9995066415212772
137.0,61.60060917084846,-0.9995066415212767
138.0,-33.3994786900001,-0.9995066415212662
139.0,-101.35779341590776,-0.999506641521271
140.0,86.32667395943125,-0.9995066415212857
141.0,61.313087419090266,-0.9995066415212771
142.0,-33.23537677526929,-0.9995066415212717
143.0,-101.26523758438375,-0.999506641521267
144.0,85.80071237426344,-0.9995066415213061
145.0,61.01798841822828,-0.9995066415212821
146.0,-33.06903953045145,-0.9995066415212842
147.0,-101.17120207901809,-0.9995066415212661
148.0,85.26208242883683,-0.999506641521274
149.0,60.71535027883619,-0.9995066415212892
150.0,-32.900698795732495,-0.9995066415212714
151.0,-101.07580205758715,-0.9995066415212792
152.0,84.71101033079283,-0.9995066415212854
153.0,60.40520763660032,-0.9995066415212756
154.0,-32.73059559827131,-0.9995066415212817
155.0,-100.97915783114755,-0.9995066415212757
156.0,84.14773623460052,-0.9995066415212894
157.0,60.087591112474776,-0.9995066415212887
158.0,-32.55898046905566,-0.9995066415212743
159.0,-100.88139507097398,-0.9995066415212703
160.0,83.57251512704195,-0.9995066415212956
161.0,59.76252673583181,-0.9995066415212932
162.0,-32.38611378395125,-0.9995066415212809
163.0,-100.78264502916701,-0.9995066415212892
164.0,82.98561777180329,-0.9995066415212897
165.0,59.430035329006614,-0.9995066415212808
166.0,-32.212266130338804,-0.9995066415212692
167.0,-100.683044774891,-0.9995066415212797
168.0,82.38733171478287,-0.9995066415212763
169.0,59.090131853577205,-0.9995066415212805
170.0,-32.03771870150915,-0.9995066415212887
171.0,-100.58273744658857,-0.999506641521283
172.0,81.77796235128402,-0.9995066415212702
173.0,58.74282471797228,-0.9995066415212635
174.0,-31.86276372054113,-0.9995066415212838
175.0,-100.48187252221481,-0.9995066415212737
176.0,81.1578340554002,-0.9995066415212795
177.0,58.38811504787661,-0.9995066415212812
178.0,-31.68770489575626,-0.999506641521273
179.0,-100.38060610874521,-0.999506641521277
180.0,80.52729137052907,-0.9995066415212773
181.0,58.025995921662975,-0.9995066415212835
182.0,-31.512857909952608,-0.9995066415212714
183.0,-100.27910125260914,-0.9995066415212921
184.0,79.8867002589243,-0.9995066415212835
185.0,57.65645157476712,-0.999506641521276
186.0,-31.338550945666952,-0.9995066415212862
187.0,-100.17752827305941,-0.999506641521271
188.0,79.236449405888,-0.9995066415212758
189.0,57.279456578407164,-0.9995066415212753
190.0,-31.1651252490676,-0.9995066415212737
191.0,-100.07606512047684,-0.9995066415212781
192.0,78.57695157237892,-0.9995066415212842
193.0,56.89497500122726,-0.999506641521277
194.0,-30.99293573463956,-0.9995066415212772
195.0,-99.97489776184273,-0.9995066415212961
196.0,77.90864498625214,-0.999506641521288
197.0,56.50295956413882,-0.9995066415212613
198.0,-30.822351633827207,-0.9995066415212738
199.0,-99.87422059631928,-0.9995066415212939
200.0,77.23199475941239,-0.999506641521291
201.0,56.10335080363965,-0.9995066415212873
202.0,-30.653757190088605,-0.9995066415212712
203.0,-99.77423690342138,-0.9995066415212901
204.0,76.54749431354097,-0.9995066415212877
205.0,55.69607626204098,-0.9995066415212979
206.0,-30.487552403156823,-0.999506641521277
207.0,-99.67515932730683,-0.999506641521281
208.0,75.85566679161676,-0.9995066415212799
209.0,55.281049728542854,-0.9995066415212697
210.0,-30.32415382601576,-0.9995066415212728
211.0,-99.57721040078997,-0.9995066415212746
212.0,75.15706642714446,-0.9995066415212729
213.0,54.858170561482474,-0.9995066415212702
214.0,-30.163995416862562,-0.9995066415212858
215.0,-99.48062311307257,-0.9995066415212688
216.0,74.4522798347416,-0.9995066415212593
217.0,54.427323128060515,-0.9995066415212652
218.0,-30.007529450128494,-0.9995066415212885
219.0,-99.3856415261183,-0.999506641521289
220.0,73.74192717925193,-0.9995066415212809
221.0,53.98837640671076,-0.9995066415212805
222.0,-29.85522748870122,-0.9995066415212881
223.0,-99.2925214445436,-0.9995066415212728
224.0,73.0266631702791,-0.9995066415212686
225.0,53.54118380517045,-0.9995066415212807
226.0,-29.70758142116725,-0.999506641521269
227.0,-99.20153114518455,-0.9995066415212792
228.0,72.30717782004552,-0.9995066415212714
229.0,53.0855832567104,-0.9995066415212803
230.0,-29.565104567056803,-0.9995066415212749
231.0,-99.11295217313844,-0.9995066415212652
232.0,71.58419689278944,-0.9995066415212915
233.0,52.621397666759144,-0.9995066415212688
234.0,-29.42833285270273,-0.9995066415212772
235.0,-99.02708021161602,-0.9995066415212779
236.0,70.8584819636324,-0.9995066415212587
237.0,52.148435791032725,-0.9995066415212743
238.0,-29.297826060794083,-0.9995066415212762
239.0,-98.94422603461513,-0.9995066415212759
240.0,70.13082999580871,-0.9995066415212677
241.0,51.6664936350087,-0.999506641521279
242.0,-29.174169156127594,-0.9995066415212767
243.0,-98.8647165521782,-0.9995066415212654
244.0,69.40207233860467,-0.9995066415212843
245.0,51.17535647037954,-0.9995066415213001
246.0,-29.057973689510014,-0.9995066415212782
247.0,-98.78889595969443,-0.999506641521291
248.0,68.67307304337655,-0.9995066415212783
249.0,50.67480156744059,-0.999506641521272
250.0,-28.949879281883945,-0.999506641521285
251.0,-98.71712700441896,-0.9995066415212741
252.0,67.94472639654579,-0.9995066415212811
253.0,50.1646017409951,-0.9995066415212936
254.0,-28.85055518931142,-0.9995066415212756
255.0,-98.64979238385327,-0.9995066415212732
256.0,67.21795357419346,-0.9995066415212638
257.0,49.644529798182866,-0.9995066415212787
258.0,-28.760701949652695,-0.9995066415212688
259.0,-98.58729629376502,-0.9995066415212761
260.0,66.49369833819041,-0.999506641521282
261.0,49.11436396106184,-0.9995066415212805
262.0,-28.68105311035603,-0.99950664152128
263.0,-98.53006614570921,-0.9995066415212741
264.0,65.77292171805495,-0.9995066415212848
265.0,48.57389431001714,-0.9995066415212719
266.0,-28.612377035721387,-0.9995066415212644
267.0,-98.47855447730444,-0.9995066415212757
268.0,65.05659565746605,-0.9995066415212881
269.0,48.022930256853414,-0.9995066415212829
270.0,-28.555478791039324,-0.9995066415212793
271.0,-98.43324108228994,-0.9995066415212752
272.0,64.34569565009318,-0.9995066415212667
273.0,47.46130900727071,-0.9995066415212849
274.0,-28.511202099932422,-0.9995066415212734
275.0,-98.39463539222527,-0.9995066415212703
276.0,63.64119244649485,-0.999506641521265
277.0,46.88890491399813,-0.9995066415212734
278.0,-28.480431368685203,-0.9995066415212802
279.0,-98.36327914648827,-0.9995066415212766
280.0,62.944042976045836,-0.9995066415212961
281.0,46.30563955317951,-0.9995066415212756
282.0,-28.46409377141187,-0.999506641521283
283.0,-98.33974939460671,-0.999506641521291
284.0,62.25518069733674,-0.9995066415212878
285.0,45.7114922866726,-0.9995066415212791
286.0,-28.46316138635412,-0.9995066415212752
287.0,-98.32466188149367,-0.9995066415212916
288.0,61.575505653651476,-0.9995066415212838
289.0,45.10651100142206,-0.9995066415212833
290.0,-28.478653373907676,-0.9995066415212872
291.0,-98.318674877168,-0.9995066415212859
292.0,60.90587456789669,-0.9995066415212691
293.0,44.49082265788044,-0.9995066415212707
294.0,-28.51163818391347,-0.9995066415212779
295.0,-98.32249352266234,-0.9995066415212841
296.0,60.247091349300504,-0.9995066415212805
297.0,43.86464323408428,-0.999506641521283
298.0,-28.563235779866357,-0.9995066415212872
299.0,-98.33687477843829,-0.9995066415212837
300.0,59.59989839993932,-0.9995066415212842
301.0,43.228286631916056,-0.9995066415212874
302.0,-28.634619866534262,-0.9995066415212828
303.0,-98.36263307863959,-0.9995066415212703
304.0,58.96496909549297,-0.9995066415212853
305.0,42.582172120099074,-0.9995066415212835
306.0,-28.72702010823622,-0.9995066415212738
307.0,-98.40064681564671,-0.9995066415212799
308.0,58.34290176938755,-0.9995066415212905
309.0,41.92682992783313,-0.9995066415212736
310.0,-28.841724326939048,-0.9995066415212698
311.0,-98.45186580520138,-0.9995066415212825
312.0,57.73421545644345,-0.9995066415212991
313.0,41.26290467191281,-0.999506641521272
314.0,-28.98008067297316,-0.999506641521272
315.0,-98.51731991543872,-0.9995066415212728
316.0,57.13934755403193,-0.9995066415212727
317.0,40.591156392905724,-0.9995066415212802
318.0,-29.14349976797035,-0.999506641521273
319.0,-98.59812908310113,-0.999506641521283
320.0,56.55865344819912,-0.999506641521305
321.0,39.91245908389394,-0.9995066415212783
322.0,-29.333456829525883,-0.9995066415212922
323.0,-98.69551499238814,-0.9995066415212839
324.0,55.992408037608605,-0.9995066415212892
325.0,39.22779670788259,-0.9995066415212737
326.0,-29.551493802064694,-0.99950664152127
327.0,-98.81081475604637,-0.9995066415212746
328.0,55.44080898246537,-0.9995066415212878
329.0,38.538256805048526,-0.9995066415212831
330.0,-29.79922153973563,-0.999506641521275
331.0,-98.94549702247649,-0.9995066415212692
332.0,54.90398141914931,-0.9995066415212768
333.0,37.84502188129953,-0.9995066415212863
334.0,-30.078322115276233,-0.9995066415212704
335.0,-99.10118103857542,-0.9995066415212859
336.0,54.381983819204926,-0.9995066415212701
337.0,37.14935883556978,-0.9995066415212859
338.0,-30.390551368252993,-0.9995066415212721
339.0,-99.2796593378795,-0.9995066415212754
340.0,53.874814638929216,-0.9995066415212903
341.0,36.4526067251411,-0.9995066415212733
342.0,-30.737741857104453,-0.9995066415212784
343.0,-99.48292490450552,-0.9995066415212666
344.0,53.382419401268685,-0.9995066415212976
345.0,35.75616318465426,-0.999506641521276
346.0,-31.121806446021928,-0.9995066415212718
347.0,-99.71320390363054,-0.999506641521287
348.0,52.904697870922234,-0.9995066415212888
349.0,35.06146981026825,-0.9995066415212762
350.0,-31.54474284448631,-0.9995066415212728
351.0,-99.97299538834136,-0.9995066415212717
352.0,52.441511021895145,-0.9995066415212924
353.0,34.3699968009896,-0.9995066415212769
354.0,-32.00863952815995,-0.9995066415212874
355.0,-100.26511982345282,-0.9995066415212761
356.0,51.99268754470351,-0.999506641521272
357.0,33.6832271201935,-0.9995066415212926
358.0,-32.51568361335552,-0.9995066415212706
359.0,-100.59277885185394,-0.9995066415212983
360.0,51.558029694070335,-0.9995066415213029
361.0,33.00264040812102,-0.9995066415212724
362.0,-33.06817144071933,-0.9995066415212777
363.0,-100.95962953618519,-0.9995066415212794
364.0,51.13731832778016,-0.999506641521268
365.0,32.32969684319807,-0.9995066415212741
366.0,-33.66852286315839,-0.9995066415212871
367.0,-101.36987743344238,-0.9995066415212868
368.0,50.730317030938664,-0.99950664152125
369.0,31.665821119152007,-0.9995066415212907
370.0,-34.31930054653258,-0.9995066415212747
371.0,-101.82839445174957,-0.999506641521267
372.0,50.33677525071878,-0.9995066415212569
373.0,31.0123866734291,-0.9995066415212902
374.0,-35.023236009225975,-0.9995066415212781
375.0,-102.34086972432895,-0.9995066415212832
376.0,49.95643038369072,-0.9995066415212798
377.0,30.37070026860265,-0.9995066415212823
378.0,-35.783264694789295,-0.9995066415212762
379.0,-102.91400507060179,-0.9995066415212814
380.0,49.589008756393255,-0.99950664152127
381.0,29.741986984662763,-0.9995066415212903
382.0,-36.602573158807644,-0.9995066415213
383.0,-103.55577157041057,-0.9995066415212743
384.0,49.234225415060386,-0.9995066415212804
385.0,29.127375615893495,-0.9995066415212801
386.0,-37.48466257201962,-0.9995066415212955
387.0,-104.27575128832768,-0.9995066415212777
388.0,48.89178258761559,-0.999506641521284
389.0,28.527884369562905,-0.9995066415212706
390.0,-38.433434373581406,-0.9995066415212797
391.0,-105.08559981683861,-0.9995066415212812
392.0,48.561366585982604,-0.9995066415212858
393.0,27.94440661183593,-0.9995066415212844
394.0,-39.45330634899139,-0.9995066415212648
395.0,-105.99968376459873,-0.9995066415212899
396.0,48.2426427575238,-0.9995066415212887
397.0,27.377696164970576,-0.999506641521274
398.0,-40.549371159024055,-0.9995066415212674
399.0,-107.03597740965486,-0.999506641521279
400.0,47.935247833539265,-0.9995066415212819
401.0,26.828351274672457,-0.9995066415212899
402.0,-41.72761527286194,-0.9995066415212506
403.0,-108.21735331780835,-0.9995066415212939
404.0,47.638778578770335,-0.9995066415212636
405.0,26.296795726648682,-0.9995066415212756
406.0,-42.99522592725734,-0.9995066415212697
407.0,-109.57348975456253,-0.9995066415212761
408.0,47.352774877117405,-0.9995066415212839
409.0,25.78325450173434,-0.9995066415212713
410.0,-44.36103004895495,-0.9995066415212801
411.0,-111.1437771286178,-0.999506641521275
412.0,47.07669398815542,-0.9995066415212749
413.0,25.287719404174783,-0.9995066415212887
414.0,-45.83613773547213,-0.9995066415212838
415.0,-112.9819080377957,-0.9995066415212659
416.0,46.809870035653155,-0.9995066415212737
417.0,24.80989640489441,-0.9995066415212768
418.0,-47.43491561801353,-0.99950664152127
419.0,-115.16344087881956,-0.9995066415212754
420.0,46.55144736155989,-0.9995066415212923
421.0,24.349118998013072,-0.9995066415212872
422.0,-49.1765180006584,-0.9995066415212709
423.0,-117.79892048279041,-0.9995066415212828
424.0,46.30026453874434,-0.9995066415212625
425.0,23.904195703698708,-0.9995066415212844
426.0,-51.087417208638584,-0.9995066415212767
427.0,-121.05813046482362,-0.9995066415212845
428.0,46.054637570708906,-0.9995066415212757
429.0,23.473121383285523,-0.9995066415212815
430.0,-53.20585850434605,-0.9995066415212872
431.0,-125.2186886399976,-0.999506641521263
432.0,45.81191511048967,-0.9995066415212809
433.0,23.05247929724807,-0.9995066415212822
434.0,-55.59038849662019,-0.9995066415212834
435.0,-130.77435887928513,-0.9995066415212699
436.0,45.567441796889845,-0.9995066415212689
437.0,22.6360405356082,-0.9995066415212768
438.0,-58.338192592405036,-0.9995066415212911
439.0,-138.7150231013973,-0.9995066415213043
440.0,45.31163906645072,-0.9995066415212648
441.0,22.210818644152994,-0.9995066415212828
442.0,-61.632003362876475,-0.9995066415212746
443.0,-151.43227151074055,-0.9995066415212694
444.0,45.01864986283784,-0.9995066415212772
445.0,21.741787400387775,-0.9995066415212668
446.0,-65.90175517284659,-0.9995066415212723
447.0,-177.07465546064074,-0.9995066415212777
448.0,44.545479626680226,-0.9995066415212825
449.0,21.03785762200224,-0.9995066415212969
450.0,-73.00889538728529,-0.9995066415212859
451.0,-295.3184716629827,-0.9995066415212936
452.0,44.48720290090004,0.6345543912607162
453.0,20.86549895084882,1.2154260149392337
454.0,-74.37533947446045,267.3104748013078
455.0,-79.10201171731676,20.349279735614918
456.0,44.70003346180353,0.6572584194131894
457.0,21.118564260701483,1.3136469224379566
458.0,-74.9712924122887,171.97972495007886
459.0,-78.69139207441286,32.00162792774558
460.0,44.74201120698971,0.5588800122747086
461.0,21.15420399430298,1.1946255258215939
462.0,-75.15112124178923,135.85364591578184
463.0,-78.32367230497283,40.721088877535564
464.0,44.724492178493,0.4593272351868425
465.0,21.11095010218176,1.049802095835751
466.0,-75.14890058367855,114.91771301956031
467.0,-78.0146725153857,48.32558217841512
468.0,44.68203960872947,0.37080113440017093
469.0,21.03438064846289,0.9075758031631386
470.0,-74.9930153671317,99.96486438580195
471.0,-77.8161554477478,55.73123432937751
472.0,44.628740721676365,0.293132297790088
473.0,20.943627671511692,0.7733278956414523
474.0,-74.37849856616499,86.72499513928076
475.0,-78.06631340178302,64.36063004486866
476.0,44.571367605955516,0.2246487101126555
477.0,20.84806386616708,0.6479460015900409
478.0,-70.37155464466053,76.46130867323805
479.0,-81.7150923404993,71.69166462031181
480.0,44.51355460532808,0.16386361103180996
481.0,20.7527919073403,0.5314206895398388
482.0,-67.53490922369802,74.16897137055925
483.0,-84.208508934147,72.08282795778022
484.0,44.45740995262301,0.10967809651172186
485.0,20.660808499676982,0.42364779276116565
486.0,-65.96027821461713,73.061518777828
487.0,-85.4599571067422,71.9538979707209
488.0,44.40422832180601,0.06132256487759523
489.0,20.57397533826644,0.32459379566528906
490.0,-64.95995167996331,72.40971550554954
491.0,-86.16030768519008,71.81068479881608
492.0,44.354839375558875,0.018270286099908974
493.0,20.493499262764896,0.23430623534089987
494.0,-64.28633774088449,72.01516530357894
495.0,-86.55919319054311,71.70800554654099
496.0,44.309792107218506,-0.01983366784614077
497.0,20.42018840347964,0.1528905929911096
498.0,-63.81933276800521,71.7822979110586
499.0,-86.77807813273037,71.645338738049
500.0,44.26945857936223,-0.053224559138146096
501.0,20.3545973586218,0.08048514314011676
502.0,-63.49101861836893,71.6544310115152
503.0,-86.8858106869622,71.6130290259779
504.0,44.23409530475327,-0.08205504312398061
505.0,20.297113611750152,0.017240887770367024
506.0,-63.2592600465562,71.59443745610925
507.0,-86.92517307854979,71.60134001383156
508.0,44.20388106881153,-0.10642134052648197
509.0,20.24801105110915,-0.03669292088729776
510.0,-63.09629665861887,71.57664758741927
511.0,-86.9243809696792,71.60232068478423
512.0,44.178940995335736,-0.1263817429587524
513.0,20.207484163675456,-0.08117873716954749
514.0,-62.98313760775079,71.58279727313233
515.0,-86.90274702113501,71.60994619768364
516.0,44.15936221798665,-0.14196970893121935
517.0,20.175670374054775,-0.11609736643031138
518.0,-62.906565320492774,71.59978143679072
519.0,-86.87371517533529,71.61984651276212
520.0,44.14520420942431,-0.15320308082842737
521.0,20.15266480284464,-0.1413522874966816
522.0,-62.857444453104236,71.61833479021735
523.0,-86.84657678639287,71.62898223894086
524.0,44.13650555429161,-0.1600904433162
525.0,20.138529959594553,-0.15687238249737478
526.0,-62.82974092140574,71.63223876693982
527.0,-86.82746805550113,71.63536874210017
528.0,44.133288225360566,-0.16263529028770873
529.0,20.133301869305303,-0.16261357931323406
530.0,-62.819957994189004,71.63785265359614
531.0,-86.81994433899152,71.63787436057557
532.0,44.133288225360566,-0.16263529028770873
533.0,20.133301869305303,-0.16261357931323406
534.0,-62.819957994189004,71.63785265359614
535.0,-86.81994433899152,71.63787436057557
536.0,44.13740318210035,-0.15960118827926295
537.0,20.13980070110213,-0.15512582775317085
538.0,-62.832246586423146,71.6305672889005
539.0,-86.82945403735673,71.63490265641832
540.0,44.1491135977565,-0.1517129356795929
541.0,20.157650377747586,-0.1333240724400095
542.0,-62.86843921768468,71.61149344043092
543.0,-86.85417225579957,71.62786207652094
544.0,44.1686574430428,-0.13986835183138682
545.0,20.186282237712724,-0.09605567957249889
546.0,-62.93420839368765,71.58581498127438
547.0,-86.88809470229057,71.61966991117006
548.0,44.19626226482806,-0.12501656512424258
549.0,20.225043554598027,-0.04213065532096
550.0,-63.039961988710054,71.56341206720663
551.0,-86.92038652208021,71.6149436684243
552.0,44.23214938610394,-0.10818648060162826
553.0,20.273158774489648,0.029733751266218265
554.0,-63.202256865345994,71.5599459814305
555.0,-86.93393411293013,71.62056709045599
556.0,44.27653721898437,-0.0905199826757679
557.0,20.329671310363626,0.12098392507483141
558.0,-63.44646080660152,71.59881851862853
559.0,-86.90262829815099,71.64650107281994
560.0,44.3296439521838,-0.07331337281168632
561.0,20.39335401700416,0.23332406157834248
562.0,-63.81184640397697,71.71471500886432
563.0,-86.78618359810568,71.70678454916467
564.0,44.39168978754285,-0.0580723017778498
565.0,20.46256706260109,0.3688448830442972
566.0,-64.36197539736688,71.96038090710435
567.0,-86.51961399400466,71.82030143321732
568.0,44.462898839878456,-0.04658880434901794
569.0,20.535023283498226,0.5302026526927501
570.0,-65.20834162432018,72.42125327892067
571.0,-85.98935722905412,72.00907865335478
572.0,44.543500772711845,-0.04105561551031127
573.0,20.607381988796682,0.7208683041903792
574.0,-66.57518816829933,73.25580732144368
575.0,-84.96805309554287,72.28117465842404
576.0,44.63373220975965,-0.04424664910553805
577.0,20.6745041192057,0.9454615152766667
578.0,-69.05342501698358,74.89123532263424
579.0,-82.85988234016725,72.47947639722771
580.0,44.733837933329966,-0.05982362191316411
581.0,20.72798604407131,1.2101313129810292
582.0,-74.34280357163878,83.25038942721848
583.0,-77.95692714472015,67.14726082388424
584.0,44.84407185147837,-0.09290789891477909
585.0,20.75300333583951,1.5226619513131368
586.0,-75.19295141591772,99.27289950665335
587.0,-77.49498109040026,56.22220088009787
588.0,44.964697659848326,-0.15129173346352331
589.0,20.72067719128197,1.890534895511905
590.0,-75.30196513676846,116.97798783318319
591.0,-77.74732341282682,47.55940010929227
592.0,45.095988965962334,-0.24854270305348836
593.0,20.566450331010717,2.3066568789124333
594.0,-75.20633442033645,143.92304762484798
595.0,-78.11317092107605,38.509008734243125
596.0,45.238227876472855,-0.415133141611668
597.0,20.113406307709795,2.643637870376435
598.0,-74.78234128548314,200.78055577746665
599.0,-78.53959665038049,27.443323852091684
600.0,45.39169445410602,-0.8104011489545846
601.0,18.70071172200777,0.9883998935583027
602.0,-73.38342098586776,678.6506146523317
603.0,-79.0126006226573,7.55110143984916
604.0,45.861821107322456,-0.9995066415212828
605.0,20.30342476331771,-0.9995066415212814
606.0,-66.67083498951247,-0.9995066415212832
607.0,-188.02812515943793,-0.9995066415212837
608.0,46.20926100926695,-0.9995066415212827
609.0,20.833869948632024,-0.9995066415212825
610.0,-61.3601376423092,-0.999506641521282
611.0,-152.92265358669852,-0.999506641521283
612.0,46.55271707450202,-0.9995066415212824
613.0,21.230850816983327,-0.9995066415212831
614.0,-57.46733148491053,-0.9995066415212828
615.0,-138.15765890698566,-0.9995066415212817
616.0,46.906919113323056,-0.9995066415212819
617.0,21.584578224801756,-0.9995066415212829
618.0,-54.28123105117086,-0.9995066415212828
619.0,-129.52803990381253,-0.9995066415212832
620.0,47.27754987068345,-0.9995066415212823
621.0,21.922085583855235,-0.9995066415212822
622.0,-51.540545780654924,-0.9995066415212827
623.0,-123.71016975746893,-0.9995066415212825
624.0,47.66774782617676,-0.9995066415212827
625.0,22.254674346601885,-0.9995066415212827
626.0,-49.11576024160759,-0.9995066415212825
627.0,-119.46010905225245,-0.9995066415212828
628.0,48.07961794469489,-0.9995066415212837
629.0,22.58779779956882,-0.9995066415212818
630.0,-46.932171999650706,-0.9995066415212838
631.0,-116.19277334288564,-0.9995066415212837
632.0,48.51474752384645,-0.9995066415212828
633.0,22.92420590549807,-0.9995066415212823
634.0,-44.94241996818419,-0.999506641521283
635.0,-113.5917115986982,-0.9995066415212832
636.0,48.974419467952785,-0.9995066415212828
637.0,23.265202332298184,-0.9995066415212822
638.0,-43.11441967541264,-0.9995066415212818
639.0,-111.4686323869226,-0.9995066415212825
640.0,49.45970954798903,-0.9995066415212817
641.0,23.611229345625535,-0.9995066415212823
642.0,-41.42531150421781,-0.9995066415212822
643.0,-109.70340886769415,-0.9995066415212817
644.0,49.97153187439332,-0.9995066415212827
645.0,23.96217355924385,-0.9995066415212833
646.0,-39.85812792592022,-0.9995066415212835
647.0,-108.2151988181019,-0.9995066415212828
648.0,50.510658698784,-0.9995066415212834
649.0,24.317542670184604,-0.9995066415212831
650.0,-38.39982652464768,-0.9995066415212838
651.0,-106.9472467027589,-0.9995066415212837
652.0,51.07772663376967,-0.9995066415212825
653.0,24.676577709329617,-0.999506641521282
654.0,-37.040065888076136,-0.9995066415212828
655.0,-105.8583122352305,-0.9995066415212834
656.0,51.67323556353689,-0.9995066415212831
657.0,25.03833099534966,-0.9995066415212828
658.0,-35.7704116949599,-0.9995066415212829
659.0,-104.91756014676776,-0.999506641521283
660.0,52.29754386930491,-0.9995066415212825
661.0,25.401724745872734,-0.9995066415212825
662.0,-34.5838049279776,-0.9995066415212832
663.0,-104.10137136191817,-0.9995066415212819
664.0,52.950862278758756,-0.9995066415212818
665.0,25.765597982098623,-0.9995066415212824
666.0,-33.474196656129266,-0.9995066415212819
667.0,-103.39127574929516,-0.9995066415212817
668.0,53.63324792897164,-0.9995066415212827
669.0,26.12874563415883,-0.9995066415212831
670.0,-32.43629242523107,-0.999506641521282
671.0,-102.77256779218966,-0.9995066415212832
672.0,54.34459977903036,-0.9995066415212823
673.0,26.48995177821049,-0.9995066415212824
674.0,-31.465370888778267,-0.9995066415212839
675.0,-102.23335332974042,-0.9995066415212825
676.0,55.08465617919309,-0.9995066415212827
677.0,26.848017890582366,-0.9995066415212824
678.0,-30.557153910664113,-0.9995066415212824
679.0,-101.76387699182274,-0.9995066415212823
680.0,55.852995124005204,-0.9995066415212823
681.0,27.20178647515126,-0.9995066415212827
682.0,-29.707713009154514,-0.9995066415212831
683.0,-101.35603743973633,-0.9995066415212821
684.0,56.6490374665487,-0.9995066415212825
685.0,27.550160198319972,-0.9995066415212818
686.0,-28.91340179724619,-0.9995066415212838
687.0,-101.00303130442232,-0.9995066415212828
688.0,57.47205314080607,-0.9995066415212832
689.0,27.89211662342022,-0.9995066415212821
690.0,-28.17080717267783,-0.9995066415212824
691.0,-100.69908720998414,-0.9995066415212821
692.0,58.321170234435435,-0.9995066415212827
693.0,28.226718693988172,-0.9995066415212831
694.0,-27.476714077437407,-0.9995066415212827
695.0,-100.4392640630941,-0.9995066415212823
696.0,59.19538658377484,-0.9995066415212834
697.0,28.55312121877075,-0.9995066415212834
698.0,-26.82808006597271,-0.9995066415212827
699.0,-100.21929597901244,-0.9995066415212825
700.0,60.09358343466527,-0.999506641521282
701.0,28.870573724685794,-0.999506641521283
702.0,-26.222016921225833,-0.9995066415212828
703.0,-100.03547157707585,-0.9995066415212825
704.0,61.01454063059428,-0.9995066415212829
705.0,29.17842013972739,-0.9995066415212823
706.0,-25.655777281188453,-0.9995066415212818
707.0,-99.88453896330981,-0.999506641521283
708.0,61.95695275475138,-0.9995066415212827
709.0,29.47609583471362,-0.9995066415212824
710.0,-25.12674477079898,-0.9995066415212824
711.0,-99.76363015831305,-0.9995066415212837
712.0,62.91944566012099,-0.9995066415212829
713.0,29.76312258213059,-0.9995066415212825
714.0,-24.632426532724942,-0.999506641521283
715.0,-99.67020041919659,-0.9995066415212825
716.0,63.9005928656508,-0.9995066415212822
717.0,30.039101986145383,-0.9995066415212822
718.0,-24.170447350581682,-0.9995066415212819
719.0,-99.60197909330132,-0.9995066415212817
720.0,64.89893136642408,-0.999506641521283
721.0,30.30370790264663,-0.999506641521283
722.0,-23.738544786062466,-0.9995066415212829
723.0,-99.55692948882117,-0.9995066415212841
724.0,65.91297649016185,-0.9995066415212831
725.0,30.556678310186605,-0.9995066415212822
726.0,-23.334564924284816,-0.9995066415212825
727.0,-99.53321586261637,-0.9995066415212823
728.0,66.9412355262348,-0.9995066415212825
729.0,30.797807023126442,-0.9995066415212828
730.0,-22.95645845057082,-0.9995066415212821
731.0,-99.52917607210648,-0.9995066415212819
732.0,67.98221994260042,-0.9995066415212828
733.0,31.026935560328923,-0.9995066415212832
734.0,-22.602276878617843,-0.9995066415212837
735.0,-99.54329877215055,-0.9995066415212823
736.0,69.03445608996608,-0.9995066415212823
737.0,31.2439454074668,-0.9995066415212821
738.0,-22.27016882057398,-0.9995066415212821
739.0,-99.57420428521647,-0.9995066415212825
740.0,70.09649436431846,-0.9995066415212832
741.0,31.44875084048349,-0.9995066415212825
742.0,-21.95837623949873,-0.9995066415212843
743.0,-99.62062846090262,-0.999506641521283
744.0,71.16691685688102,-0.9995066415212831
745.0,31.64129241629971,-0.9995066415212824
746.0,-21.66523066030531,-0.9995066415212833
747.0,-99.68140898458748,-0.9995066415212843
748.0,72.2443435656794,-0.9995066415212818
749.0,31.82153118549322,-0.9995066415212824
750.0,-21.38914933800538,-0.999506641521283
751.0,-99.75547370413594,-0.9995066415212837
752.0,73.32743727402202,-0.9995066415212825
753.0,31.989443640888368,-0.999506641521283
754.0,-21.12863139713867,-0.9995066415212825
755.0,-99.8418306293637,-0.9995066415212848
756.0,74.41490722142422,-0.9995066415212822
757.0,32.145017385824886,-0.999506641521282
758.0,-20.882253964115275,-0.9995066415212833
759.0,-99.93955932550264,-0.9995066415212834
760.0,75.5055117025715,-0.9995066415212819
761.0,32.288247483661515,-0.9995066415212819
762.0,-20.648668318163896,-0.9995066415212812
763.0,-100.04780347411608,-0.9995066415212812
764.0,76.59805973269638,-0.999506641521282
765.0,32.4191334364856,-0.9995066415212824
766.0,-20.426596086859647,-0.9995066415212819
767.0,-100.16576441632498,-0.999506641521283
768.0,77.69141191370018,-0.9995066415212827
769.0,32.53767673206583,-0.999506641521282
770.0,-20.21482551145807,-0.9995066415212817
771.0,-100.29269552708853,-0.9995066415212834
772.0,78.78448062939066,-0.9995066415212838
773.0,32.643878896180254,-0.9995066415212832
774.0,-20.012207803367996,-0.9995066415212827
775.0,-100.42789729417134,-0.9995066415212845
776.0,79.87622968640007,-0.9995066415212833
777.0,32.737739986088634,-0.9995066415212828
778.0,-19.817653611267012,-0.9995066415212827
779.0,-100.57071299878766,-0.999506641521283
780.0,80.96567350726814,-0.9995066415212829
781.0,32.81925746441267,-0.9995066415212832
782.0,-19.63012961367567,-0.9995066415212818
783.0,-100.72052491060609,-0.9995066415212832
784.0,82.05187596932528,-0.9995066415212823
785.0,32.88842539674801,-0.9995066415212824
786.0,-19.448655248707887,-0.9995066415212814
787.0,-100.876750924704,-0.9995066415212819
788.0,83.13394897074923,-0.9995066415212825
789.0,32.945233920941426,-0.9995066415212821
790.0,-19.27229958973542,-0.9995066415212827
791.0,-101.0388415799397,-0.9995066415212821
792.0,84.21105079447116,-0.999506641521282
793.0,32.98966894187074,-0.9995066415212828
794.0,-19.100178371997966,-0.9995066415212825
795.0,-101.20627740656833,-0.9995066415212817
796.0,85.28238432868251,-0.9995066415212824
797.0,33.0217120109348,-0.9995066415212823
798.0,-18.931451173413684,-0.9995066415212817
799.0,-101.37856656041497,-0.9995066415212823
800.0,86.34719519409863,-0.9995066415212822
801.0,33.041340354906445,-0.9995066415212823
802.0,-18.76531874984934,-0.9995066415212818
803.0,-101.55524270583632,-0.9995066415212821
804.0,87.40476981852349,-0.9995066415212827
805.0,33.048527023507404,-0.9995066415212829
806.0,-18.60102052386834,-0.9995066415212824
807.0,-101.73586311627689,-0.9995066415212834
808.0,88.45443349208567,-0.9995066415212828
809.0,33.04324113002651,-0.9995066415212828
810.0,-18.43783222412071,-0.9995066415212831
811.0,-101.92000696543897,-0.9995066415212825
812.0,89.49554842982919,-0.9995066415212825
813.0,33.02544816327874,-0.9995066415212825
814.0,-18.275063671402133,-0.9995066415212823
815.0,-102.10727378574748,-0.9995066415212828
816.0,90.52751186258335,-0.9995066415212825
817.0,32.99511035257436,-0.9995066415212837
818.0,-18.112056706625314,-0.9995066415212818
819.0,-102.29728207405013,-0.9995066415212823
820.0,91.54975417222079,-0.9995066415212827
821.0,32.95218707092031,-0.9995066415212822
822.0,-17.948183255203237,-0.9995066415212825
823.0,-102.48966802761349,-0.9995066415212825
824.0,92.56173708364285,-0.9995066415212824
825.0,32.89663526423941,-0.9995066415212828
826.0,-17.78284352177747,-0.999506641521283
827.0,-102.68408439522898,-0.9995066415212819
828.0,93.5629519220424,-0.9995066415212824
829.0,32.82840989641928,-0.9995066415212829
830.0,-17.61546430928141,-0.9995066415212821
831.0,-102.88019943059385,-0.999506641521283
832.0,94.55291794182737,-0.9995066415212823
833.0,32.74746440264469,-0.9995066415212827
834.0,-17.445497455673944,-0.9995066415212832
835.0,-103.07769593666708,-0.9995066415212828
836.0,95.53118073086218,-0.9995066415212823
837.0,32.65375114449282,-0.9995066415212819
838.0,-17.272418382069862,-0.9995066415212829
839.0,-103.2762703911057,-0.9995066415212823
840.0,96.49731069224245,-0.9995066415212829
841.0,32.547221861967095,-0.9995066415212821
842.0,-17.095724745901315,-0.9995066415212828
843.0,-103.47563214422735,-0.9995066415212828
844.0,97.4509016040704,-0.999506641521282
845.0,32.42782811865082,-0.9995066415212825
846.0,-16.914935192934287,-0.9995066415212825
847.0,-103.67550268207731,-0.9995066415212825
848.0,98.39156925696896,-0.9995066415212828
849.0,32.295521737253075,-0.999506641521283
850.0,-16.729588201966475,-0.9995066415212835
851.0,-103.87561494772501,-0.9995066415212828
852.0,99.3189501679806,-0.9995066415212827
853.0,32.15025522358768,-0.9995066415212831
854.0,-16.53924101644936,-0.9995066415212825
855.0,-104.07571271514153,-0.9995066415212814
856.0,100.23270036883254,-0.9995066415212822
857.0,31.991982177313353,-0.9995066415212823
858.0,-16.34346865745642,-0.9995066415212825
859.0,-104.27555001039255,-0.999506641521283
860.0,101.13249426611692,-0.9995066415212828
861.0,31.820657688827836,-0.9995066415212828
862.0,-16.141863012822903,-0.999506641521282
863.0,-104.47489057592519,-0.9995066415212823
864.0,102.01802357084802,-0.9995066415212821
865.0,31.636238721542234,-0.9995066415212827
866.0,-15.934031997129859,-0.9995066415212825
867.0,-104.67350737327585,-0.9995066415212821
868.0,102.88899629413513,-0.9995066415212835
869.0,31.43868447958054,-0.9995066415212831
870.0,-15.719598778095996,-0.9995066415212827
871.0,-104.87118212142644,-0.9995066415212817
872.0,103.74513580606146,-0.999506641521283
873.0,31.22795676067119,-0.9995066415212821
874.0,-15.498201064769434,-0.9995066415212829
875.0,-105.06770486701168,-0.999506641521283
876.0,104.58617995455396,-0.9995066415212829
877.0,31.004020294729983,-0.9995066415212823
878.0,-15.269490453353498,-0.999506641521282
879.0,-105.26287358389783,-0.9995066415212821
880.0,105.41188024113352,-0.9995066415212827
881.0,30.766843068357698,-0.9995066415212835
882.0,-15.033131826703789,-0.9995066415212834
883.0,-105.45649379949421,-0.9995066415212828
884.0,106.22200105036187,-0.9995066415212827
885.0,30.516396635762085,-0.9995066415212823
886.0,-14.788802803923685,-0.999506641521283
887.0,-105.64837824562903,-0.9995066415212821
888.0,107.01631893003608,-0.999506641521283
889.0,30.252656416669,-0.9995066415212835
890.0,-14.53619323655153,-0.9995066415212835
891.0,-105.83834653192764,-0.9995066415212825
892.0,107.7946219190395,-0.9995066415212824
893.0,29.975601981659228,-0.9995066415212827
894.0,-14.27500474832114,-0.9995066415212827
895.0,-106.02622483999227,-0.9995066415212828
896.0,108.55670892036123,-0.9995066415212825
897.0,29.685217325973266,-0.9995066415212824
898.0,-14.004950315177107,-0.9995066415212831
899.0,-106.21184563662925,-0.9995066415212825
900.0,109.30238911617992,-0.9995066415212825
901.0,29.38149113180862,-0.9995066415212825
902.0,-13.72575388327233,-0.9995066415212824
903.0,-106.39504740492728,-0.9995066415212821
904.0,110.03148142262624,-0.9995066415212822
905.0,29.06441702012258,-0.9995066415212831
906.0,-13.437150022154478,-0.9995066415212825
907.0,-106.5756743918394,-0.9995066415212821
908.0,110.74381398216673,-0.9995066415212825
909.0,28.733993792757637,-0.999506641521282
910.0,-13.138883610456004,-0.9995066415212829
911.0,-106.75357637072197,-0.9995066415212823
912.0,111.43922369052983,-0.9995066415212831
913.0,28.390225664743415,-0.9995066415212828
914.0,-12.830709552684214,-0.9995066415212833
915.0,-106.92860841865505,-0.9995066415212828
916.0,112.11755575687341,-0.9995066415212835
917.0,28.033122488195414,-0.9995066415212827
918.0,-12.51239252424332,-0.9995066415212817
919.0,-107.10063070676296,-0.999506641521283
920.0,112.77866329462775,-0.9995066415212822
921.0,27.662699967771356,-0.9995066415212825
922.0,-12.183706743346054,-0.9995066415212822
923.0,-107.2695083032423,-0.9995066415212825
924.0,113.42240694151683,-0.9995066415212819
925.0,27.278979868572673,-0.9995066415212831
926.0,-11.844435767679368,-0.9995066415212822
927.0,-107.43511098808736,-0.999506641521283
928.0,114.048654506619,-0.9995066415212822
929.0,26.88199021660771,-0.9995066415212831
930.0,-11.494372314697614,-0.999506641521284
931.0,-107.59731307920134,-0.9995066415212834
932.0,114.65728064324549,-0.9995066415212828
933.0,26.47176549265091,-0.9995066415212828
934.0,-11.133318103471504,-0.9995066415212831
935.0,-107.75599326882528,-0.9995066415212828
936.0,115.24816654583705,-0.9995066415212828
937.0,26.048346819617556,-0.9995066415212824
938.0,-10.761083717142037,-0.9995066415212844
939.0,-107.91103447026903,-0.9995066415212821
940.0,115.82119966976919,-0.999506641521283
941.0,25.611782144141262,-0.9995066415212831
942.0,-10.377488484326074,-0.999506641521283
943.0,-108.06232367399957,-0.9995066415212828
944.0,116.37627347246244,-0.9995066415212817
945.0,25.162126412366458,-0.9995066415212821
946.0,-9.982360378655889,-0.9995066415212835
947.0,-108.20975181324951,-0.9995066415212817
948.0,116.91328717481419,-0.9995066415212825
949.0,24.699441740542298,-0.9995066415212828
950.0,-9.575535934997031,-0.9995066415212827
951.0,-108.35321363819678,-0.9995066415212819
952.0,117.4321455418474,-0.9995066415212821
953.0,24.22379758067195,-0.9995066415212831
954.0,-9.15686018155201,-0.999506641521283
955.0,-108.49260759892019,-0.999506641521283
956.0,117.93275868155058,-0.9995066415212829
957.0,23.73527088142497,-0.999506641521282
958.0,-8.726186586677464,-0.9995066415212832
959.0,-108.62783573651905,-0.9995066415212821
960.0,118.4150418609266,-0.9995066415212835
961.0,23.23394624460402,-0.999506641521283
962.0,-8.283377019759023,-0.9995066415212819
963.0,-108.75880358239286,-0.9995066415212825
964.0,118.8789153384867,-0.9995066415212825
965.0,22.719916077362093,-0.9995066415212828
966.0,-7.828301725147901,-0.9995066415212825
967.0,-108.88542006539555,-0.999506641521283
968.0,119.32430421250336,-0.9995066415212823
969.0,22.193280740499688,-0.9995066415212825
970.0,-7.3608393083648025,-0.9995066415212829
971.0,-109.00759742665932,-0.9995066415212821
972.0,119.75113828404011,-0.9995066415212821
973.0,21.654148692808782,-0.9995066415212823
974.0,-6.880876734146217,-0.9995066415212825
975.0,-109.12525114222808,-0.999506641521281
976.0,120.1593519345319,-0.9995066415212819
977.0,21.102636631912944,-0.9995066415212829
978.0,-6.388309335319299,-0.9995066415212821
979.0,-109.23829985308862,-0.9995066415212814
980.0,120.54888401701344,-0.999506641521282
981.0,20.53886963159679,-0.9995066415212822
982.0,-5.883040832188189,-0.9995066415212823
983.0,-109.34666530271159,-0.9995066415212817
984.0,120.91967776064277,-0.9995066415212823
985.0,19.962981275829094,-0.9995066415212833
986.0,-5.364983361869456,-0.999506641521283
987.0,-109.45027228220243,-0.9995066415212825
988.0,121.27168068805584,-0.9995066415212824
989.0,19.375113789847614,-0.9995066415212819
990.0,-4.83405751704174,-0.999506641521282
991.0,-109.54904858270716,-0.9995066415212817
992.0,121.60484454515476,-0.9995066415212829
993.0,18.775418168358748,-0.9995066415212825
994.0,-4.290192393944879,-0.9995066415212821
995.0,-109.64292495553593,-0.9995066415212834
996.0,121.91912524298635,-0.9995066415212825
997.0,18.164054301400217,-0.9995066415212833
998.0,-3.733325649216525,-0.9995066415212829
999.0,-109.7318350796048,-0.9995066415212821
1000.0,122.21448281133738,-0.9995066415212832
1001.0,17.54119109810633,-0.9995066415212827
1002.0,-3.1634035657991655,-0.9995066415212819
1003.0,-109.81571553672337,-0.9995066415212848
1004.0,122.49088136391508,-0.9995066415212821
1005.0,16.907006609350933,-0.9995066415212824
1006.0,-2.5803811279857887,-0.9995066415212832
1007.0,-109.89450579443944,-0.9995066415212821
1008.0,122.74828907482652,-0.9995066415212832
1009.0,16.261688150296003,-0.9995066415212828
1010.0,-1.9842221064174603,-0.9995066415212821
1011.0,-109.96814819675512,-0.9995066415212817
1012.0,122.98667816625512,-0.9995066415212829
1013.0,15.605432424773651,-0.9995066415212831
1014.0,-1.3748991545518259,-0.9995066415212825
1015.0,-110.03658796280607,-0.9995066415212825
1016.0,123.20602490705707,-0.9995066415212827
1017.0,14.938445654707898,-0.9995066415212828
1018.0,-0.752393919630101,-0.999506641521283
1019.0,-110.09977319375074,-0.9995066415212828
1020.0,123.40630962243657,-0.9995066415212825
1021.0,14.260943720668806,-0.9995066415212815
1022.0,-0.11669717351784192,-0.9995066415212807
1023.0,-110.1576548877952,-0.9995066415212821
1024.0,123.58751671449993,-0.9995066415212828
1025.0,13.573152324574373,-0.9995066415212824
1026.0,0.5321910254655029,-0.9995066415212815
1027.0,-110.2101869638546,-0.9995066415212814
1028.0,123.7496346936674,-0.9995066415212829
1029.0,12.875307196841199,-0.9995066415212825
1030.0,1.194261117738128,-0.9995066415212821
1031.0,-110.25732629389802,-0.9995066415212814
1032.0,123.89265622113143,-0.9995066415212829
1033.0,12.167654396072727,-0.9995066415212824
1034.0,1.8694937270313081,-0.9995066415212821
1035.0,-110.29903274414019,-0.9995066415212832
1036.0,124.01657816225351,-0.9995066415212819
1037.0,11.450450812789686,-0.9995066415212821
1038.0,2.557859132599797,-0.9995066415212815
1039.0,-110.33526922557007,-0.9995066415212832
1040.0,124.1214016512329,-0.9995066415212837
1041.0,10.723965168092812,-0.9995066415212828
1042.0,3.259316238785602,-0.999506641521282
1043.0,-110.3660017538023,-0.999506641521283
1044.0,124.20713216709463,-0.9995066415212824
1045.0,9.988480378890875,-0.9995066415212823
1046.0,3.9738101701344486,-0.9995066415212804
1047.0,-110.39119951864802,-0.9995066415212819
1048.0,124.27377962112776,-0.9995066415212832
1049.0,9.244300485324485,-0.999506641521282
1050.0,4.701265296357932,-0.9995066415212824
1051.0,-110.41083496379773,-0.9995066415212814
1052.0,124.32135845633259,-0.9995066415212864
1053.0,8.491778109713918,-0.9995066415212818
1054.0,5.441557718375041,-0.9995066415212813
1055.0,-110.42488387662398,-0.999506641521279
1056.0,124.34988775887611,-0.9995066415212847
1057.0,7.731505890090242,-0.9995066415212823
1058.0,6.194323771736444,-0.9995066415212814
1059.0,-110.43332548873249,-0.999506641521285
1060.0,124.35939138209416,-0.999506641521286
1061.0,7.003817984740975,-0.9995066415212812
1062.0,6.919458451266618,-0.9995066415212815
1063.0,-110.4361425873755,-0.9995066415212894
1064.0,124.35939138209416,-0.999506641521286
1065.0,7.003817984740975,-0.9995066415212812
1066.0,6.919458451266618,-0.9995066415212815
1067.0,-110.4361425873755,-0.9995066415212894
1068.0,124.35657008184631,-0.9995066415212837
1069.0,7.386678674371946,-0.9995066415212855
1070.0,6.537373819545011,-0.9995066415212851
1071.0,-110.43530467348126,-0.999506641521301
1072.0,124.34900680884944,-0.9995066415212865
1073.0,7.77757521197113,-0.9995066415212852
1074.0,6.148579448284219,-0.9995066415212857
1075.0,-110.43305659044232,-0.9995066415212847
1076.0,124.33670597522722,-0.9995066415212843
1077.0,8.171772476595544,-0.9995066415212851
1078.0,5.757839090363883,-0.9995066415212857
1079.0,-110.42939726719044,-0.9995066415212485
1080.0,124.31967231922849,-0.9995066415212528
1081.0,8.569137082831752,-0.9995066415212763
1082.0,5.365314757671633,-0.9995066415212746
1083.0,-110.42432588020965,-0.9995066415212961
1084.0,124.2979109108508,-0.9995066415212938
1085.0,8.969628311036448,-0.9995066415212801
1086.0,4.971075787999993,-0.9995066415212798
1087.0,-110.41784185819924,-0.9995066415212861
1088.0,124.271427157437,-0.9995066415212666
1089.0,9.373221551652527,-0.9995066415212883
1090.0,4.575175397116673,-0.9995066415212902
1091.0,-110.40994488727823,-0.9995066415212819
1092.0,124.24022680976293,-0.9995066415212508
1093.0,9.779896473297455,-0.9995066415212827
1094.0,4.177662507402012,-0.9995066415212814
1095.0,-110.40063491614978,-0.9995066415212956
1096.0,124.20431596818574,-0.9995066415212847
1097.0,10.189633955955067,-0.9995066415212804
1098.0,3.778584810992829,-0.9995066415212793
1099.0,-110.3899121615184,-0.9995066415212817
1100.0,124.16370108911491,-0.9995066415212864
1101.0,10.602415043722152,-0.9995066415212821
1102.0,3.377989813169188,-0.9995066415212832
1103.0,-110.3777771138265,-0.9995066415212963
1104.0,124.11838899173839,-0.9995066415212892
1105.0,11.018220516873251,-0.999506641521281
1106.0,2.975925256413883,-0.9995066415212797
1107.0,-110.36423054303972,-0.9995066415213207
1108.0,124.0683868650969,-0.9995066415212478
1109.0,11.437030692409262,-0.9995066415212925
1110.0,2.572439315898778,-0.9995066415212898
1111.0,-110.34927350462925,-0.9995066415213321
1112.0,124.01370227528378,-0.9995066415213218
1113.0,11.85882532066476,-0.9995066415212839
1114.0,2.1675806984459776,-0.9995066415212819
1115.0,-110.332907345923,-0.999506641521283
1116.0,123.95434317303545,-0.999506641521272
1117.0,12.283583526734175,-0.9995066415212925
1118.0,1.761398696740295,-0.9995066415212935
1119.0,-110.31513371250574,-0.9995066415212956
1120.0,123.8903179015593,-0.9995066415212717
1121.0,12.711283774278224,-0.9995066415212774
1122.0,1.353943220817474,-0.9995066415212768
1123.0,-110.29595455493958,-0.9995066415212945
1124.0,123.82163520480219,-0.999506641521299
1125.0,13.14190384142076,-0.999506641521279
1126.0,0.9452648175768753,-0.9995066415212747
1127.0,-110.27537213552212,-0.9995066415212714
1128.0,123.74830423584213,-0.9995066415213044
1129.0,13.575420803187932,-0.9995066415212848
1130.0,0.5354146831281679,-0.9995066415212863
1131.0,-110.25338903548115,-0.999506641521293
1132.0,123.67033456568268,-0.9995066415212643
1133.0,14.011811017850176,-0.9995066415212848
1134.0,0.12444467122130162,-0.9995066415212861
1135.0,-110.23000816227801,-0.9995066415212934
1136.0,123.58773619256127,-0.999506641521298
1137.0,14.451050115832569,-0.9995066415212805
1138.0,-0.28759270081291305,-0.9995066415212795
1139.0,-110.20523275697721,-0.9995066415212681
1140.0,123.50051955120678,-0.9995066415212899
1141.0,14.893112989577599,-0.9995066415212842
1142.0,-0.7006442480585643,-0.9995066415212827
1143.0,-110.17906640219556,-0.9995066415212959
1144.0,123.40869552291582,-0.9995066415212772
1145.0,15.337973784726755,-0.9995066415212874
1146.0,-1.1146561147168368,-0.999506641521288
1147.0,-110.15151302986268,-0.9995066415213074
1148.0,123.31227544570511,-0.9995066415212828
1149.0,15.785605891461367,-0.9995066415212804
1150.0,-1.5295737718055742,-0.9995066415212819
1151.0,-110.1225769294644,-0.9995066415212639
1152.0,123.21127112498203,-0.9995066415212956
1153.0,16.235981936264228,-0.9995066415212817
1154.0,-1.9453420153078678,-0.999506641521277
1155.0,-110.09226275639402,-0.9995066415212885
1156.0,123.10569484458703,-0.9995066415212936
1157.0,16.689073773727138,-0.9995066415212779
1158.0,-2.361904964743795,-0.9995066415212761
1159.0,-110.0605755405501,-0.9995066415212623
1160.0,122.9955593782625,-0.9995066415212844
1161.0,17.14485247835901,-0.9995066415212819
1162.0,-2.7792060620725323,-0.9995066415212798
1163.0,-110.02752069518682,-0.9995066415212679
1164.0,122.88087800167425,-0.9995066415212931
1165.0,17.60328833639677,-0.999506641521283
1166.0,-3.197188070652597,-0.9995066415212869
1167.0,-109.99310402580291,-0.9995066415212899
1168.0,122.76166450468743,-0.9995066415212912
1169.0,18.064350837304058,-0.9995066415212824
1170.0,-3.615793074730918,-0.9995066415212871
1171.0,-109.95733173953218,-0.9995066415212805
1172.0,122.63793320433345,-0.9995066415213057
1173.0,18.528008665183958,-0.9995066415212823
1174.0,-4.034962478787375,-0.9995066415212734
1175.0,-109.92021045451386,-0.9995066415212666
1176.0,122.50969895819325,-0.999506641521282
1177.0,18.994229689974215,-0.9995066415212877
1178.0,-4.45463700718835,-0.9995066415212869
1179.0,-109.88174720952775,-0.9995066415212808
1180.0,122.37697717836838,-0.9995066415212704
1181.0,19.46298095828703,-0.9995066415212835
1182.0,-4.874756703913318,-0.9995066415212792
1183.0,-109.8419494738693,-0.9995066415212863
1184.0,122.2397838458851,-0.9995066415213011
1185.0,19.93422868388945,-0.9995066415212784
1186.0,-5.2952609325296,-0.9995066415212764
1187.0,-109.80082515750027,-0.9995066415212941
1188.0,122.09813552591972,-0.9995066415212667
1189.0,20.407938238034625,-0.9995066415212839
1190.0,-5.716088376026607,-0.9995066415212842
1191.0,-109.75838262113935,-0.9995066415213147
1192.0,121.95204938338405,-0.9995066415212966
1193.0,20.88407413914166,-0.9995066415212802
1194.0,-6.137177037086076,-0.9995066415212813
1195.0,-109.7146306868672,-0.9995066415212615
1196.0,121.8015431993309,-0.9995066415212815
1197.0,21.362600042214435,-0.9995066415212848
1198.0,-6.55846423826676,-0.9995066415212861
1199.0,-109.66957864875097,-0.9995066415212663
1200.0,121.64663538802037,-0.9995066415212829
1201.0,21.843478727796807,-0.9995066415212863
1202.0,-6.9798866223240355,-0.9995066415212908
1203.0,-109.62323628362363,-0.9995066415212703
1204.0,121.48734501457774,-0.9995066415212981
1205.0,22.32667209028634,-0.9995066415212833
1206.0,-7.4013801528026955,-0.9995066415212812
1207.0,-109.57561386220866,-0.9995066415212823
1208.0,121.32369181368928,-0.999506641521264
1209.0,22.812141125987093,-0.9995066415212849
1210.0,-7.822880114430742,-0.9995066415212884
1211.0,-109.52672216011948,-0.9995066415212701
1212.0,121.15569620869537,-0.9995066415212945
1213.0,23.299845920153984,-0.9995066415212831
1214.0,-8.24432111412116,-0.9995066415212843
1215.0,-109.47657246948697,-0.9995066415212717
1216.0,120.98337933193893,-0.9995066415212651
1217.0,23.789745633908517,-0.9995066415212805
1218.0,-8.66563708163394,-0.999506641521277
1219.0,-109.42517661021282,-0.9995066415212932
1220.0,120.80676304572202,-0.9995066415212841
1221.0,24.281798490056737,-0.9995066415212898
1222.0,-9.08676127065868,-0.9995066415212926
1223.0,-109.37254694176062,-0.9995066415212732
1224.0,120.6258699643137,-0.9995066415212714
1225.0,24.77596175842507,-0.999506641521293
1226.0,-9.507626259989642,-0.9995066415212926
1227.0,-109.31869637489145,-0.9995066415213019
1228.0,120.4407234769034,-0.9995066415212801
1229.0,25.27219174025376,-0.999506641521288
1230.0,-9.928163954875085,-0.9995066415212862
1231.0,-109.26363838368773,-0.9995066415213032
1232.0,120.25134777165096,-0.9995066415212837
1233.0,25.770443751875824,-0.9995066415212918
1234.0,-10.348305588477373,-0.999506641521279
1235.0,-109.20738701746458,-0.9995066415213103
1236.0,120.05776786094086,-0.9995066415213022
1237.0,26.27067210748367,-0.999506641521285
1238.0,-10.767981723480101,-0.9995066415212808
1239.0,-109.14995691291821,-0.9995066415212661
1240.0,119.86000960753596,-0.9995066415212868
1241.0,26.772830100758398,-0.9995066415212787
1242.0,-11.18712225410479,-0.9995066415212843
1243.0,-109.09136330640683,-0.9995066415212686
1244.0,119.65809975230977,-0.9995066415212667
1245.0,27.27686998564685,-0.9995066415212791
1246.0,-11.605656408041028,-0.999506641521277
1247.0,-109.0316220461529,-0.9995066415212712
1248.0,119.45206594311466,-0.9995066415212714
1249.0,27.78274295591935,-0.9995066415212758
1250.0,-12.023512748801213,-0.9995066415212795
1251.0,-108.97074960459942,-0.9995066415212952
1252.0,119.24193676513035,-0.9995066415212912
1253.0,28.290399123491177,-0.9995066415212819
1254.0,-12.440619178228127,-0.9995066415212843
1255.0,-108.90876309079611,-0.9995066415212839
1256.0,119.02774177263706,-0.9995066415212791
1257.0,28.79978749543606,-0.9995066415212843
1258.0,-12.856902939311647,-0.9995066415212749
1259.0,-108.84568026278686,-0.9995066415212979
1260.0,118.80951152256908,-0.9995066415213012
1261.0,29.31085594975376,-0.9995066415212845
1262.0,-13.272290619149658,-0.9995066415212752
1263.0,-108.78151953986945,-0.9995066415212646
1264.0,118.58727760956863,-0.9995066415213046
1265.0,29.82355120940556,-0.9995066415212814
1266.0,-13.686708152319929,-0.9995066415212707
1267.0,-108.71630001502481,-0.999506641521265
1268.0,118.36107270292742,-0.999506641521291
1269.0,30.337818814850902,-0.999506641521276
1270.0,-14.100080824569728,-0.9995066415212696
1271.0,-108.65004146716338,-0.9995066415212766
1272.0,118.13093058558529,-0.999506641521236
1273.0,30.853603094921645,-0.9995066415212773
1274.0,-14.512333276640046,-0.9995066415212853
1275.0,-108.58276437320106,-0.9995066415212979
1276.0,117.89688619488665,-0.9995066415212681
1277.0,31.370847135572248,-0.9995066415212822
1278.0,-14.923389508800462,-0.9995066415212845
1279.0,-108.51448992032519,-0.999506641521299
1280.0,117.65897566587846,-0.9995066415212691
1281.0,31.889492746933087,-0.9995066415212802
1282.0,-15.333172885360659,-0.9995066415212848
1283.0,-108.44524001769587,-0.9995066415212817
1284.0,117.41723637671579,-0.9995066415213066
1285.0,32.409480427937446,-0.999506641521286
1286.0,-15.741606139889683,-0.9995066415212791
1287.0,-108.37503730833168,-0.999506641521265
1288.0,117.1717069966902,-0.999506641521295
1289.0,32.930749328807075,-0.9995066415212799
1290.0,-16.148611380723,-0.9995066415212749
1291.0,-108.30390518052488,-0.999506641521277
1292.0,116.92242753681934,-0.999506641521308
1293.0,33.45323721088325,-0.9995066415212787
1294.0,-16.5541100970467,-0.9995066415212926
1295.0,-108.23186777921657,-0.9995066415212677
1296.0,116.66943940351098,-0.9995066415212557
1297.0,33.97688040391685,-0.999506641521278
1298.0,-16.958023165305367,-0.9995066415212709
1299.0,-108.15895001688914,-0.9995066415212865
1300.0,116.41278545504636,-0.9995066415212803
1301.0,34.501613760350445,-0.9995066415212729
1302.0,-17.36027085633559,-0.9995066415212764
1303.0,-108.08517758421374,-0.9995066415212739
1304.0,116.15251006145981,-0.9995066415213026
1305.0,35.02737060648274,-0.9995066415212821
1306.0,-17.760772843030658,-0.9995066415212778
1307.0,-108.01057696043468,-0.9995066415212683
1308.0,115.88865916801802,-0.9995066415213029
1309.0,35.55408269043742,-0.9995066415212842
1310.0,-18.159448208433695,-0.9995066415212734
1311.0,-107.93517542302094,-0.9995066415212617
1312.0,115.6212803622397,-0.9995066415212834
1313.0,36.08168012626554,-0.9995066415212777
1314.0,-18.556215454826148,-0.999506641521279
1315.0,-107.85900105723297,-0.999506641521279
1316.0,115.35042294516568,-0.9995066415212835
1317.0,36.61009133441342,-0.9995066415212793
1318.0,-18.950992513168494,-0.9995066415212936
1319.0,-107.78208276485853,-0.999506641521271
1320.0,115.07613800686454,-0.9995066415212949
1321.0,37.139242977908474,-0.9995066415212852
1322.0,-19.34369675348526,-0.9995066415212726
1323.0,-107.70445027250258,-0.9995066415212817
1324.0,114.79847850643934,-0.9995066415212612
1325.0,37.669059893922686,-0.9995066415212842
1326.0,-19.734244996095164,-0.9995066415212875
1327.0,-107.626134139317,-0.9995066415212748
1328.0,114.51749935739689,-0.9995066415212855
1329.0,38.199465020840464,-0.9995066415212758
1330.0,-20.122553523370016,-0.9995066415212811
1331.0,-107.54716576377217,-0.9995066415212674
1332.0,114.23325751788528,-0.9995066415212878
1333.0,38.73037931967127,-0.9995066415212833
1334.0,-20.508538092814124,-0.9995066415212819
1335.0,-107.46757739006009,-0.9995066415212814
1336.0,113.94581208700059,-0.9995066415212596
1337.0,39.261721690230615,-0.9995066415212883
1338.0,-20.892113950788886,-0.9995066415212833
1339.0,-107.38740211330727,-0.9995066415213145
1340.0,113.65522440713437,-0.9995066415212879
1341.0,39.793408881003046,-0.9995066415212832
1342.0,-21.273195847367944,-0.9995066415212719
1343.0,-107.30667388417514,-0.9995066415212799
1344.0,113.36155817300791,-0.999506641521283
1345.0,40.32535539271051,-0.9995066415212788
1346.0,-21.65169805221849,-0.9995066415212812
1347.0,-107.22542751232031,-0.999506641521269
1348.0,113.06487954767908,-0.9995066415212503
1349.0,40.857473374668224,-0.9995066415212731
1350.0,-22.027534371727846,-0.9995066415212827
1351.0,-107.14369866897556,-0.9995066415212672
1352.0,112.76525728646133,-0.9995066415212811
1353.0,41.38967251381969,-0.9995066415212777
1354.0,-22.40061816708107,-0.999506641521286
1355.0,-107.06152388826382,-0.9995066415212717
1356.0,112.46276286874706,-0.999506641521265
1357.0,41.92185991536256,-0.9995066415212785
1358.0,-22.770862373944194,-0.9995066415212706
1359.0,-106.97894056755757,-0.9995066415212861
1360.0,112.15747063896107,-0.9995066415212936
1361.0,42.45393997490047,-0.9995066415212773
1362.0,-23.138179523184746,-0.9995066415212863
1363.0,-106.89598696633674,-0.9995066415212763
1364.0,111.8494579568644,-0.999506641521296
1365.0,42.98581424102335,-0.9995066415212762
1366.0,-23.502481763136572,-0.9995066415212809
1367.0,-106.81270220386398,-0.999506641521277
1368.0,111.53880535807171,-0.9995066415212687
1369.0,43.51738126768698,-0.9995066415212843
1370.0,-23.863680883378482,-0.9995066415212682
1371.0,-106.72912625543734,-0.9995066415212999
1372.0,111.22559672565389,-0.9995066415212992
1373.0,44.048536455821875,-0.9995066415212898
1374.0,-24.22168833995518,-0.9995066415212797
1375.0,-106.64529994705092,-0.9995066415212837
1376.0,110.9099194735266,-0.9995066415212845
1377.0,44.579171883120615,-0.9995066415212774
1378.0,-24.57641528225248,-0.9995066415212728
1379.0,-106.56126494852847,-0.9995066415212539
1380.0,110.59186474243266,-0.9995066415212632
1381.0,45.109176121150604,-0.9995066415212736
1382.0,-24.927772581728426,-0.9995066415212792
1383.0,-106.47706376496248,-0.9995066415212874
1384.0,110.27152760967778,-0.9995066415212744
1385.0,45.63843403894432,-0.9995066415212803
1386.0,-25.275670862191944,-0.9995066415212771
1387.0,-106.39273972639278,-0.9995066415212894
1388.0,109.94900731345905,-0.9995066415213006
1389.0,46.16682659192736,-0.9995066415212752
1390.0,-25.62002053209378,-0.9995066415212679
1391.0,-106.3083369756119,-0.9995066415212628
1392.0,109.62440749291487,-0.9995066415212724
1393.0,46.69423059529639,-0.9995066415212881
1394.0,-25.960731818742392,-0.9995066415212845
1395.0,-106.22390045402074,-0.9995066415212748
1396.0,109.2978364450266,-0.9995066415213066
1397.0,47.22051848038271,-0.9995066415212791
1398.0,-26.297714804478577,-0.999506641521286
1399.0,-106.13947588548771,-0.9995066415212541
1400.0,108.96940739953796,-0.9995066415212914
1401.0,47.745558033177595,-0.9995066415212778
1402.0,-26.630879464985856,-0.9995066415212693
1403.0,-106.05510975805566,-0.9995066415212706
1404.0,108.63923881319631,-0.9995066415212756
1405.0,48.26921211336524,-0.9995066415212778
1406.0,-26.960135709817774,-0.9995066415212798
1407.0,-105.97084930346116,-0.9995066415212905
1408.0,108.30745468474491,-0.999506641521277
1409.0,48.79133835290204,-0.9995066415212749
1410.0,-27.285393425012877,-0.9995066415212773
1411.0,-105.88674247432148,-0.9995066415212719
1412.0,107.97418489186458,-0.9995066415212764
1413.0,49.31178883244807,-0.9995066415212795
1414.0,-27.60656251817397,-0.9995066415212687
1415.0,-105.80283791891065,-0.9995066415212743
1416.0,107.63956555158461,-0.9995066415212679
1417.0,49.83040973420519,-0.999506641521281
1418.0,-27.92355296585949,-0.9995066415212733
1419.0,-105.71918495372236,-0.9995066415212563
1420.0,107.30373940570023,-0.9995066415212569
1421.0,50.34704096993705,-0.9995066415212709
1422.0,-28.236274863537083,-0.9995066415212845
1423.0,-105.63583353316159,-0.9995066415212988
1424.0,106.96685623279451,-0.999506641521301
1425.0,50.86151578238465,-0.9995066415212801
1426.0,-28.544638477764995,-0.9995066415212778
1427.0,-105.55283421683124,-0.9995066415212668
1428.0,106.6290732881184,-0.9995066415212589
1429.0,51.37366031866637,-0.9995066415212815
1430.0,-28.84855430119146,-0.9995066415212893
1431.0,-105.4702381341372,-0.9995066415213048
1432.0,106.29055577301445,-0.9995066415212703
1433.0,51.88329317397955,-0.9995066415212791
1434.0,-29.147933110169838,-0.999506641521273
1435.0,-105.38809694615342,-0.9995066415212859
1436.0,105.95147733548018,-0.9995066415212716
1437.0,52.390224904521666,-0.9995066415212811
1438.0,-29.44268602478032,-0.9995066415212815
1439.0,-105.30646280466686,-0.9995066415212921
1440.0,105.61202060292739,-0.999506641521276
1441.0,52.894257507677295,-0.9995066415212837
1442.0,-29.732724571796776,-0.9995066415212752
1443.0,-105.22538830845536,-0.9995066415212879
1444.0,105.27237774866067,-0.9995066415213057
1445.0,53.395183868813355,-0.9995066415212885
1446.0,-30.017960750202015,-0.9995066415212744
1447.0,-105.14492645668169,-0.9995066415212719
1448.0,104.93275109300086,-0.999506641521287
1449.0,53.89278717314223,-0.9995066415212815
1450.0,-30.298307099447445,-0.9995066415212784
1451.0,-105.06513059938987,-0.9995066415212743
1452.0,104.59335373969408,-0.9995066415212901
1453.0,54.38684028222861,-0.9995066415212872
1454.0,-30.57367677059781,-0.9995066415212522
1455.0,-104.9860543851627,-0.9995066415212672
1456.0,104.25441024831441,-0.9995066415212746
1457.0,54.87710507462114,-0.9995066415212869
1458.0,-30.843983599878175,-0.9995066415212692
1459.0,-104.90775170578516,-0.9995066415212945
1460.0,103.91615734204676,-0.999506641521253
1461.0,55.36333175072414,-0.9995066415212756
1462.0,-31.10914218526451,-0.999506641521278
1463.0,-104.8302766380495,-0.999506641521297
1464.0,103.57884465056433,-0.9995066415212888
1465.0,55.84525810274088,-0.9995066415212712
1466.0,-31.3690679655202,-0.9995066415212807
1467.0,-104.75368338270846,-0.999506641521273
1468.0,103.24273548607745,-0.9995066415212805
1469.0,56.32260875114833,-0.9995066415212858
1470.0,-31.62367730191481,-0.9995066415212779
1471.0,-104.67802620062483,-0.9995066415212821
1472.0,102.90810765000533,-0.9995066415212714
1473.0,56.79509435053151,-0.9995066415212955
1474.0,-31.872887562546744,-0.9995066415212889
1475.0,-104.60335934605264,-0.9995066415213025
1476.0,102.57525426658735,-0.999506641521283
1477.0,57.262410768463944,-0.9995066415212929
1478.0,-32.116617209065396,-0.9995066415212734
1479.0,-104.52973699719789,-0.9995066415212839
1480.0,102.2444846375911,-0.9995066415212825
1481.0,57.72423824284589,-0.999506641521273
1482.0,-32.35478588587683,-0.999506641521291
1483.0,-104.45721318433307,-0.9995066415212783
1484.0,101.91612511124762,-0.9995066415212823
1485.0,58.18024052528648,-0.9995066415212749
1486.0,-32.58731451151574,-0.9995066415212767
1487.0,-104.3858417151344,-0.9995066415212699
1488.0,101.59051995556436,-0.9995066415212506
1489.0,58.630064019826236,-0.9995066415212803
1490.0,-32.81412537220781,-0.9995066415212758
1491.0,-104.31567609774822,-0.9995066415212865
1492.0,101.26803222370847,-0.9995066415212589
1493.0,59.07333692927224,-0.99950664152128
1494.0,-33.03514221746651,-0.999506641521286
1495.0,-104.2467694616239,-0.9995066415213032
1496.0,100.94904459627566,-0.9995066415212931
1497.0,59.50966842464311,-0.9995066415212751
1498.0,-33.25029035751994,-0.99950664152128
1499.0,-104.17917447624916,-0.9995066415212637
1500.0,100.63396018141702,-0.9995066415212743
1501.0,59.93864785685222,-0.9995066415212769
1502.0,-33.45949676222557,-0.9995066415212827
1503.0,-104.11294326773721,-0.9995066415212694
1504.0,100.32320324929759,-0.9995066415212606
1505.0,60.35984403339487,-0.9995066415212549
1506.0,-33.66269016167935,-0.9995066415212964
1507.0,-104.04812733406544,-0.999506641521285
1508.0,100.01721987358144,-0.9995066415212523
1509.0,60.77280458839303,-0.9995066415212808
1510.0,-33.859801147753316,-0.999506641521265
1511.0,-103.98477745845011,-0.9995066415212901
1512.0,99.71647844626881,-0.9995066415212733
1513.0,61.17705547869874,-0.999506641521273
1514.0,-34.05076227683342,-0.9995066415212888
1515.0,-103.92294362165951,-0.9995066415212828
1516.0,99.42147002780932,-0.9995066415212668
1517.0,61.57210064479488,-0.9995066415212738
1518.0,-34.235508173172086,-0.999506641521277
1519.0,-103.86267491326291,-0.9995066415212912
1520.0,99.13270848757453,-0.9995066415212797
1521.0,61.957421881099776,-0.9995066415212688
1522.0,-34.413975632623405,-0.9995066415212694
1523.0,-103.80401944216922,-0.9995066415212808
1524.0,98.85073038442115,-0.9995066415212898
1525.0,62.33247896615547,-0.9995066415212839
1526.0,-34.586103726568716,-0.9995066415212683
1527.0,-103.7470242464446,-0.9995066415212734
1528.0,98.57609453080997,-0.9995066415213074
1529.0,62.696710108741456,-0.9995066415212596
1530.0,-34.751833905676776,-0.9995066415212912
1531.0,-103.69173520351104,-0.9995066415212477
1532.0,98.30938117926407,-0.9995066415212851
1533.0,63.04953277180308,-0.9995066415212723
1534.0,-34.91111010317532,-0.9995066415212839
1535.0,-103.63819694001026,-0.9995066415212639
1536.0,98.0511907656561,-0.9995066415213145
1537.0,63.39034493942041,-0.9995066415212689
1538.0,-35.06387883710569,-0.9995066415212854
1539.0,-103.58645274236335,-0.9995066415212477
1540.0,97.80214214134371,-0.9995066415212653
1541.0,63.71852689433201,-0.9995066415212833
1542.0,-35.2100893117303,-0.9995066415212764
1543.0,-103.5365444683321,-0.999506641521289
1544.0,97.56287022719718,-0.999506641521249
1545.0,64.03344357389354,-0.9995066415212835
1546.0,-35.349693516981475,-0.99950664152128
1547.0,-103.4885124595025,-0.999506641521291
1548.0,97.33402302551738,-0.9995066415212764
1549.0,64.33444756766968,-0.9995066415212892
1550.0,-35.4826463263866,-0.9995066415212764
1551.0,-103.44239545554885,-0.9995066415212965
1552.0,97.11625793460452,-0.9995066415212814
1553.0,64.62088281222844,-0.9995066415212692
1554.0,-35.60890559246096,-0.9995066415212834
1555.0,-103.39823051037516,-0.9995066415212741
1556.0,96.91023732392084,-0.999506641521284
1557.0,64.89208902527672,-0.9995066415212771
1558.0,-35.72843223953602,-0.9995066415212762
1559.0,-103.35605291050544,-0.9995066415212766
1560.0,96.7166233471141,-0.999506641521264
1561.0,65.14740690174955,-0.9995066415212919
1562.0,-35.841190353531516,-0.9995066415212742
1563.0,-103.31589609620693,-0.9995066415212897
1564.0,96.53607199615126,-0.999506641521274
1565.0,65.38618406838935,-0.9995066415212903
1566.0,-35.947147268504835,-0.999506641521271
1567.0,-103.27779158571472,-0.9995066415212968
1568.0,96.3692264324632,-0.9995066415212861
1569.0,65.60778176155652,-0.999506641521282
1570.0,-36.04627364913164,-0.9995066415212854
1571.0,-103.24176890267937,-0.999506641521281
1572.0,96.21670966863387,-0.9995066415212887
1573.0,65.81158215388473,-0.9995066415212914
1574.0,-36.13854356944698,-0.9995066415212639
1575.0,-103.20785550756923,-0.9995066415212781
1576.0,96.07911671764133,-0.9995066415212931
1577.0,65.9969962136432,-0.9995066415212845
1578.0,-36.22393458684391,-0.999506641521276
1579.0,-103.17607673301109,-0.999506641521273
1580.0,95.9570063706937,-0.999506641521292
1581.0,66.16347193494903,-0.9995066415212724
1582.0,-36.30242781155775,-0.9995066415212871
1583.0,-103.14645572368201,-0.9995066415212577
1584.0,95.85089280936504,-0.9995066415212595
1585.0,66.31050273380468,-0.9995066415212848
1586.0,-36.37400797091785,-0.999506641521276
1587.0,-103.11901338088468,-0.9995066415212888
1588.0,95.76123729598632,-0.9995066415212898
1589.0,66.4376357654842,-0.9995066415212857
1590.0,-36.43866346835722,-0.9995066415212851
1591.0,-103.0937683121385,-0.9995066415212768
1592.0,95.6884402168332,-0.9995066415212583
1593.0,66.54447988948512,-0.9995066415212783
1594.0,-36.49638643661863,-0.9995066415212795
1595.0,-103.07073678596889,-0.9995066415213008
