0.3,0.46148204056574293
0.29,0.4313328600718034
0.27999999999999997,0.4021865840521201
0.27,0.37404581628303696
0.26,0.3469132894489234
0.25,0.32079173327798194
0.24,0.29568374279049836
0.22999999999999998,0.2715916634506661
0.21999999999999997,0.24851751002357753
0.21,0.22646293151979877
0.19999999999999998,0.20542922543778308
0.19,0.18541739258143786
0.18,0.1664282135006591
0.16999999999999998,0.14846232414378868
0.15999999999999998,0.13152027382143947
0.15,0.11560255984792692
0.13999999999999999,0.10070964333643656
0.12999999999999998,0.08684195446833491
0.12,0.0739998936950988
0.10999999999999999,0.0621838318957225
0.09999999999999998,0.051394110368416096
0.09,0.0416310408088284
0.07999999999999999,0.03289490528945428
0.06999999999999998,0.025185956240904847
0.06,0.0185044163230217
0.04999999999999999,0.01285034198374039
0.03999999999999998,0.008167517587334656
0.02999999999999997,0.0042571596107139
0.019999999999999962,0.001917366040431863
0.010000000000000009,0.0004826456354187237
